Place,Name,BirthYear,Country,BodyweightKg,Bench1Kg,Bench2Kg,Bench3Kg,Best3BenchKg,TotalKg,WeightClassKg,Division,Event,Sex,Equipment,BirthDate
1,Vladimir Balynets,1985,Russia,52.35,162.5,170,-176,170.0,170,59,Open,B,M,Raw,
2,Fredrik Eskil Myrvang,1990,Norway,55.85,152.5,157.5,-160,157.5,157.5,59,Open,B,M,Raw,
3,Yasushi Ogasawara,1972,Japan,57.8,150,155,-160,155.0,155,59,Open,B,M,Raw,
4,Ivan Kuvaldin,2001,Kazakhstan,57.1,145,-150,-155,145.0,145,59,Open,B,M,Raw,
5,Yuji Fujita,1984,Japan,57.75,130,137.5,-147.5,137.5,137.5,59,Open,B,M,Raw,
6,Ben Hampson,1989,UK,58.6,115,120,122.5,122.5,122.5,59,Open,B,M,Raw,
1,Eddie Berglund,1995,Sweden,65.9,182.5,185,-195,185.0,185,66,Open,B,M,Raw,
2,Abdulkarim Karaman,1994,Kazakhstan,65.5,175,182.5,-185,182.5,182.5,66,Open,B,M,Raw,
3,Philipp Ziemer,1990,Germany,65.9,150,155,-162.5,155.0,155,66,Open,B,M,Raw,
4,Paweł Hadas,1993,Poland,65.3,-137.5,137.5,-140,137.5,137.5,66,Open,B,M,Raw,
5,Rolandas Kraučūnas,1991,Lithuania,65.7,130,-132.5,-135,130.0,130,66,Open,B,M,Raw,
1,Ivan Chuprinko,1986,Ukraine,72.8,202.5,215,-220,215.0,215,74,Open,B,M,Raw,
2,Daiki Kodama,1979,Japan,73.15,205,-217.5,-217.5,205.0,205,74,Open,B,M,Raw,
3,Dmitriy Luchkin,1986,Russia,72.85,182.5,185,187.5,187.5,187.5,74,Open,B,M,Raw,
4,Azat Salmen,1989,Kazakhstan,73.4,180,-187.5,187.5,187.5,187.5,74,Open,B,M,Raw,
5,Chesney Goossens,1992,Belgium,72.65,170,-175,-175,170.0,170,74,Open,B,M,Raw,
6,Andrew Ward #1,1988,UK,73.65,150,160,162.5,162.5,162.5,74,Open,B,M,Raw,
7,Ara Hovanessyan,1992,Armenia,73.3,-140,140,-150,140.0,140,74,Open,B,M,Raw,
1,Mehdi Sahari,1996,France,78.95,202.5,207.5,219.0,219.0,219,83,Open,B,M,Raw,
2,Volodymyr Tsaturian,1995,Ukraine,82.3,200,207.5,-215,207.5,207.5,83,Open,B,M,Raw,
3,Aleksey Nazarenko,1989,Russia,82.35,190,-195,195,195.0,195,83,Open,B,M,Raw,
4,Kim Beck-Gundersen,1985,Norway,82.3,185,-192.5,-192.5,185.0,185,83,Open,B,M,Raw,
5,Jeffrey Hasselt,1987,Netherlands,79.85,-180,-180,180,180.0,180,83,Open,B,M,Raw,
6,Mads Pedersen,1989,Denmark,81.25,165,175,180,180.0,180,83,Open,B,M,Raw,
7,Dan Watkins #1,1988,UK,82,165,172.5,-182.5,172.5,172.5,83,Open,B,M,Raw,
DQ,Volodymyr Dobrydnyuk,1986,Ukraine,81.85,-192.5,-192.5,-192.5,,,83,Open,B,M,Raw,
1,Bohdan Bon,1995,Ukraine,91.6,210,220,222.5,222.5,222.5,93,Open,B,M,Raw,
2,Vyacheslav Tsoy,1984,Kazakhstan,91.05,220,-222.5,-222.5,220.0,220,93,Open,B,M,Raw,
3,Jakub Sedláček,1988,Czechia,91.25,207.5,215,-220,215.0,215,93,Open,B,M,Raw,
4,Alexandr Emchenko,1990,Kazakhstan,90,210,-215,-215,210.0,210,93,Open,B,M,Raw,
5,Yuriy Belkov,1987,Russia,91.3,205,-212.5,-217.5,205.0,205,93,Open,B,M,Raw,
6,Jarle Bjørgo Onarheim,1992,Norway,92.5,-192.5,195,-207.5,195.0,195,93,Open,B,M,Raw,
7,Marius Smalkis,1994,Lithuania,91.6,170,172.5,-180,172.5,172.5,93,Open,B,M,Raw,
8,Wesley McGuiness,1989,UK,92.95,157.5,-167.5,167.5,167.5,167.5,93,Open,B,M,Raw,
DQ,Davit Gabelaia,1989,Georgia,90.45,-210,-210,-210,,,93,Open,B,M,Raw,
1,Josef Eriksson,1992,Sweden,103.3,217.5,222.5,230,230.0,230,105,Open,B,M,Raw,
2,Denis Malchikov,1980,Russia,104.3,222.5,227.5,-232.5,227.5,227.5,105,Open,B,M,Raw,
3,Anatolii Novopismennyi,1996,Ukraine,103.85,215,225,-230,225.0,225,105,Open,B,M,Raw,
4,Joni Tajakka,1992,Finland,104.45,212.5,222.5,-227.5,222.5,222.5,105,Open,B,M,Raw,
5,Paulius Morkvėnas,1992,Lithuania,102.4,207.5,215,-222.5,215.0,215,105,Open,B,M,Raw,
6,Anders Henriksson,1975,Sweden,104,212.5,-220,-227.5,212.5,212.5,105,Open,B,M,Raw,
7,Nazariy Dyachuk,1991,Ukraine,104.15,200,-210,-210,200.0,200,105,Open,B,M,Raw,
DQ,Denis Rybka,1985,Kazakhstan,104.5,-220,-225,-230,,,105,Open,B,M,Raw,
1,Kostiantyn Yezyk,1991,Ukraine,117.05,232.5,240,245,245.0,245,120,Open,B,M,Raw,
2,Andreas Henning,1982,Sweden,119.75,232.5,240,242.5,242.5,242.5,120,Open,B,M,Raw,
3,Dmitriy Li,1991,Kazakhstan,119.2,230,237.5,-242.5,237.5,237.5,120,Open,B,M,Raw,
4,Simo Sistonen,1983,Finland,118.15,230,235,-237.5,235.0,235,120,Open,B,M,Raw,
5,Jakob Thrane Mainz,1993,Denmark,118.2,225,230,-232.5,230.0,230,120,Open,B,M,Raw,
6,Tommy Påhls,1982,Sweden,119.1,-225,225,-237.5,225.0,225,120,Open,B,M,Raw,
7,Kaspars Sniedze,1987,Latvia,108.85,215,222.5,-227.5,222.5,222.5,120,Open,B,M,Raw,
8,Hovhannes Mikayelyan,1984,Armenia,119.15,205,210,-220,210.0,210,120,Open,B,M,Raw,
9,Markus Patschke,1988,Germany,116,195,-205,-205,195.0,195,120,Open,B,M,Raw,
DQ,Akraman Saydoulayev,1983,Russia,109.7,-230,-230,-230,,,120,Open,B,M,Raw,
DQ,Aliaksandr Dziamyanau,1986,Belarus,115.25,-237.5,-237.5,-242.5,,,120,Open,B,M,Raw,
1,Romuald Massé,1992,France,150.6,245,255,-265,255.0,255,120+,Open,B,M,Raw,
2,Adam Łaskawski,1995,Poland,140.15,247.5,252.5,-255,252.5,252.5,120+,Open,B,M,Raw,
3,Gregory Young,1982,Canada,166.2,-250,-250,250,250.0,250,120+,Open,B,M,Raw,
4,Andrei Caliani-Vainer,1989,Romania,159.4,227.5,235,240,240.0,240,120+,Open,B,M,Raw,
5,Gvido Taube,1984,Latvia,139.95,-225,232.5,-240,232.5,232.5,120+,Open,B,M,Raw,
6,Marek Novák,1997,Czechia,156.9,210,222.5,-235,222.5,222.5,120+,Open,B,M,Raw,
7,Tuvshintugs Danzan,1984,Mongolia,123.2,205,215,-235,215.0,215,120+,Open,B,M,Raw,
8,Ross Shahin-Ajerlo,1985,UK,123.35,185,200,205,205.0,205,120+,Open,B,M,Raw,
1,Ruslan Karimbekov,2003,Kazakhstan,50.65,95,105,-115,105.0,105,53,Sub-Juniors,B,M,Raw,
2,Lukas Abraitis,2006,Lithuania,51.15,45,50,-52.5,50.0,50,53,Sub-Juniors,B,M,Raw,
1,Anton Marchenko,2003,Kazakhstan,58.35,115,-125,125,125.0,125,59,Sub-Juniors,B,M,Raw,
2,Hubert Bońkowski,2005,Poland,58,75,82.5,85,85.0,85,59,Sub-Juniors,B,M,Raw,
1,Abdurakhman Abdurashidov,2003,Kazakhstan,64.7,125,130,135,135.0,135,66,Sub-Juniors,B,M,Raw,
2,Edward Kimber,2003,UK,64.55,122.5,127.5,132.5,132.5,132.5,66,Sub-Juniors,B,M,Raw,
3,Anders Nygård,2004,Finland,65.15,120,-125,-125,120.0,120,66,Sub-Juniors,B,M,Raw,
4,Krzysztof Perlik,2004,Poland,65.65,115,-117.5,-122.5,115.0,115,66,Sub-Juniors,B,M,Raw,
1,Emil Lundgren,2003,Sweden,69.65,173.0,180.5,-185,180.5,180.5,74,Sub-Juniors,B,M,Raw,
2,Illia Sytnik,2005,Ukraine,73.65,142.5,147.5,-160,147.5,147.5,74,Sub-Juniors,B,M,Raw,
3,James Anar,2003,UK,71.55,-140,142.5,-145,142.5,142.5,74,Sub-Juniors,B,M,Raw,
4,Ilya Kossobryukhov,2003,Kazakhstan,72.85,135,-137.5,-145,135.0,135,74,Sub-Juniors,B,M,Raw,
5,David Horník,2004,Czechia,72.55,120,125,-130,125.0,125,74,Sub-Juniors,B,M,Raw,
6,Luca Kawahara-Musiu,2003,UK,70,112.5,115,-117.5,115.0,115,74,Sub-Juniors,B,M,Raw,
1,Aivis Plocins,2003,Latvia,81.85,190.0,-195,200.0,200.0,200,83,Sub-Juniors,B,M,Raw,
2,Lucas Knuts,2003,Finland,81,-150,155,160,160.0,160,83,Sub-Juniors,B,M,Raw,
3,Jordi van Heijningen,2005,Netherlands,82.4,150,160,-162.5,160.0,160,83,Sub-Juniors,B,M,Raw,
4,Harry Kirk,2003,UK,81.85,-145,145,147.5,147.5,147.5,83,Sub-Juniors,B,M,Raw,
1,Maksym Horobei,2003,Ukraine,92.25,157.5,165,170,170.0,170,93,Sub-Juniors,B,M,Raw,
2,Aleksey Sevryukov,2004,Russia,83.95,150,157.5,-167.5,157.5,157.5,93,Sub-Juniors,B,M,Raw,
3,Ruslan Polekhin,2005,Kazakhstan,85.89,140,-150,150,150.0,150,93,Sub-Juniors,B,M,Raw,
4,Oliver Philpot,2006,UK,90.6,117.5,-120,120,120.0,120,93,Sub-Juniors,B,M,Raw,
1,David Balog,2004,Slovakia,102.7,172.5,180,-182.5,180.0,180,105,Sub-Juniors,B,M,Raw,
2,Hermanni Järvenpää,2003,Finland,103.7,-170,-180,180,180.0,180,105,Sub-Juniors,B,M,Raw,
3,Ivan Panfilov,2003,Russia,103.25,160,-170,-180,160.0,160,105,Sub-Juniors,B,M,Raw,
1,Aleksander Chowaniak,2003,Poland,116.3,160,-175,-180,160.0,160,120,Sub-Juniors,B,M,Raw,
2,Marian Repka,2003,Slovakia,109.9,-142.5,142.5,155,155.0,155,120,Sub-Juniors,B,M,Raw,
3,Kajus Čižauskas Gabrielius,2005,Lithuania,117.95,85,90,92.5,92.5,92.5,120,Sub-Juniors,B,M,Raw,
1,Bartłomiej Tuszyński,2003,Poland,165.4,160,167.5,170,170.0,170,120+,Sub-Juniors,B,M,Raw,
2,Markus Lehtla,2004,Estonia,145.55,145,157.5,162.5,162.5,162.5,120+,Sub-Juniors,B,M,Raw,
3,Branko Jakubik,2003,Slovakia,146.75,150,-160,162.5,162.5,162.5,120+,Sub-Juniors,B,M,Raw,
4,Leonid Voshchikov,2003,Russia,138,150,157.5,160,160.0,160,120+,Sub-Juniors,B,M,Raw,
5,Jan Tuszyński,2006,Poland,125.2,-95,100,-107.5,100.0,100,120+,Sub-Juniors,B,M,Raw,
1,Ayaal Sivtsev,2002,Russia,52.7,105,115,-117.5,115.0,115,53,Juniors,B,M,Raw,
2,Nursultan Sarbayev,2001,Kazakhstan,52.2,107.5,-110,-110,107.5,107.5,53,Juniors,B,M,Raw,
1,Kemal Ergin,2002,Netherlands,57.85,107.5,115,-120,115.0,115,59,Juniors,B,M,Raw,
1,Dmitriy Chebanov,1999,Kazakhstan,64.9,150,155,-162.5,155.0,155,66,Juniors,B,M,Raw,
2,Evgeniy Kuryanov,2001,Russia,65.2,155,-162.5,-162.5,155.0,155,66,Juniors,B,M,Raw,
3,Simoni Orbelashvili,2002,Georgia,63.2,145,152.5,-155,152.5,152.5,66,Juniors,B,M,Raw,
1,Aleksey Sergeenko,1998,Russia,73.9,175,180,182.5,182.5,182.5,74,Juniors,B,M,Raw,
2,Lee Harris #1,1998,UK,72.5,170,177.5,180,180.0,180,74,Juniors,B,M,Raw,
3,Natan Balogh,2000,Hungary,73.7,160,165,-182.5,165.0,165,74,Juniors,B,M,Raw,
4,Marco Lee,1998,Netherlands,73.5,155,160,-165,160.0,160,74,Juniors,B,M,Raw,
5,Lars Engø-Monsen,2002,Norway,73.6,142.5,150,,150.0,150,74,Juniors,B,M,Raw,
1,Volodymyr Tyutyushkin,2001,Ukraine,79.8,-200,-200,200,200.0,200,83,Juniors,B,M,Raw,
2,Jonathan Henningsson,2001,Sweden,82.55,187.5,-195,195,195.0,195,83,Juniors,B,M,Raw,
3,Simen Johnson Myrvold,2000,Norway,80.65,170,177.5,187.5,187.5,187.5,83,Juniors,B,M,Raw,
4,Topias Huhtamäki,1998,Finland,82.6,180,187.5,-190,187.5,187.5,83,Juniors,B,M,Raw,
DQ,Sergey Levenchuk,1998,Kazakhstan,78.25,-192.5,-192.5,-192.5,,,83,Juniors,B,M,Raw,
1,Andrey Talko,2002,Russia,88,192.5,197.5,200,200.0,200,93,Juniors,B,M,Raw,
2,Zhavlan Shaukatov,1998,Kazakhstan,92.7,197.5,200,-202.5,200.0,200,93,Juniors,B,M,Raw,
3,Axel Samuelsson,2002,Sweden,87.55,182.5,190,195,195.0,195,93,Juniors,B,M,Raw,
4,Jacob Florelius,1998,Norway,91.8,180,187.5,192.5,192.5,192.5,93,Juniors,B,M,Raw,
5,Thomas Evans #1,1999,UK,91,180,185,187.5,187.5,187.5,93,Juniors,B,M,Raw,
6,Jesse van Mourik,2002,Netherlands,89.95,-162.5,162.5,175,175.0,175,93,Juniors,B,M,Raw,
7,Sławomir Nowak,1998,Poland,92.75,165,175,-182.5,175.0,175,93,Juniors,B,M,Raw,
8,Daniel Wasilewski,2002,Poland,90,162.5,170,-175,170.0,170,93,Juniors,B,M,Raw,
9,Thomas Lillejord,1998,Norway,92.25,160,170,-175,170.0,170,93,Juniors,B,M,Raw,
10,Luukas Hintsala,1998,Finland,92.45,160,-165,-172.5,160.0,160,93,Juniors,B,M,Raw,
1,Szilárd Bereczki-Király,1999,Hungary,102.95,195,200,-210,200.0,200,105,Juniors,B,M,Raw,
2,Taras Melnichuk,2001,Ukraine,103.25,190,195,197.5,197.5,197.5,105,Juniors,B,M,Raw,
3,Oskar Lindmark Sahlgren,2000,Sweden,101.75,182.5,190,-195,190.0,190,105,Juniors,B,M,Raw,
4,Kamil Nitecki,2002,Poland,102.65,182.5,190,-195,190.0,190,105,Juniors,B,M,Raw,
1,Steven Örnerstedt,1999,Sweden,116.25,202.5,205,210,210.0,210,120,Juniors,B,M,Raw,
2,Pawel Gluch,2000,Poland,114.75,195,202.5,207.5,207.5,207.5,120,Juniors,B,M,Raw,
3,Tristan Kerivel,1998,France,108.6,195,200,-207.5,200.0,200,120,Juniors,B,M,Raw,
4,Yuri Karoglanyan,1999,Armenia,111.15,180,-187.5,187.5,187.5,187.5,120,Juniors,B,M,Raw,
5,Mats Høylo Kjøllesdal,2001,Norway,108.25,172.5,180,-187.5,180.0,180,120,Juniors,B,M,Raw,
1,Nazar Nerianov,1998,Ukraine,147.05,195,202.5,210,210.0,210,120+,Juniors,B,M,Raw,
2,Denis Kurečka,1999,Czechia,144.6,190,200,207.5,207.5,207.5,120+,Juniors,B,M,Raw,
3,Vitaliy Alyokhin,1998,Kazakhstan,122.5,-150,150,175,175.0,175,120+,Juniors,B,M,Raw,
1,Yasuhide Sunada,1977,Japan,64.8,137.5,142.5,-150,142.5,142.5,66,Masters 1,B,M,Raw,
2,Christopher Dolk,1972,Sweden,65.6,120,125,-127.5,125.0,125,66,Masters 1,B,M,Raw,
3,Amir Reza Mesforoosh,1980,Iran,65.75,115,125,-130,125.0,125,66,Masters 1,B,M,Raw,
4,Maik Roese,1979,Germany,65.9,115,117.5,120,120.0,120,66,Masters 1,B,M,Raw,
5,Ville Vaivila,1977,Finland,65.8,105,-115,-115,105.0,105,66,Masters 1,B,M,Raw,
1,Jani Haapamäki,1979,Finland,73.4,162.5,167.5,172.5,172.5,172.5,74,Masters 1,B,M,Raw,
2,Adam Balawejder,1981,Poland,73.85,170,172.5,-175,172.5,172.5,74,Masters 1,B,M,Raw,
3,Makoto Yunoki,1976,Japan,72.8,-155,157.5,-172.5,157.5,157.5,74,Masters 1,B,M,Raw,
4,László Tóth,1980,Hungary,72.9,150,-157.5,-160,150.0,150,74,Masters 1,B,M,Raw,
5,Kęstutis Navickas,1979,Lithuania,72.8,130,-135,-135,130.0,130,74,Masters 1,B,M,Raw,
1,Merdan Nursahatov,1976,US Virgin Islands,82.3,190,-195,-198,190.0,190,83,Masters 1,B,M,Raw,
2,Florent Lenglet,1979,France,81.3,-180,180,-190,180.0,180,83,Masters 1,B,M,Raw,
3,Abucevic Janus,1978,Lithuania,81.95,165,170,-172.5,170.0,170,83,Masters 1,B,M,Raw,
4,Johan Bjur,1974,Sweden,82.4,160,167.5,-175,167.5,167.5,83,Masters 1,B,M,Raw,
5,Barrie Tavener,1974,UK,81.75,150,162.5,-172.5,162.5,162.5,83,Masters 1,B,M,Raw,
6,Guido Woysch,1979,Germany,79.75,140,147.5,-155,147.5,147.5,83,Masters 1,B,M,Raw,
7,Artak Asrian,1979,Netherlands,81.95,135,-140,-142.5,135.0,135,83,Masters 1,B,M,Raw,
DQ,Petras Mikutavičius,1976,Lithuania,80.7,-145,-145,-145,,,83,Masters 1,B,M,Raw,
1,Ablimit Ilyakhun,1980,Kazakhstan,92.6,175,182.5,195,195.0,195,93,Masters 1,B,M,Raw,
2,Eriks Kanbergs,1980,Latvia,90.25,185,190,192.5,192.5,192.5,93,Masters 1,B,M,Raw,
3,Mariusz Marciniak,1980,Poland,91.45,185,-190,190,190.0,190,93,Masters 1,B,M,Raw,
4,Thomas Wetzstein,1974,Austria,92.8,177.5,185,-187.5,185.0,185,93,Masters 1,B,M,Raw,
5,Kęstutis Milkintis,1979,Lithuania,89.1,177.5,182.5,-187.5,182.5,182.5,93,Masters 1,B,M,Raw,
6,Sławomir Jasica,1977,Poland,90.5,175,177.5,-182.5,177.5,177.5,93,Masters 1,B,M,Raw,
7,Tero Panhelainen,1973,Finland,91.9,-172.5,-172.5,172.5,172.5,172.5,93,Masters 1,B,M,Raw,
8,Vitalii Bilyk,1972,Ukraine,89.55,-160,160,-170,160.0,160,93,Masters 1,B,M,Raw,
1,Phillip Wilkins,1980,US Virgin Islands,102.9,220,227.5,-235.5,227.5,227.5,105,Masters 1,B,M,Raw,
2,Alius Fominas,1974,Lithuania,103.85,195,200,-202.5,200.0,200,105,Masters 1,B,M,Raw,
3,Kairat Urgeshbayev,1981,Kazakhstan,99.15,-190,195,-200,195.0,195,105,Masters 1,B,M,Raw,
4,Yerlan Sarsenov,1977,Kazakhstan,103.65,187.5,192.5,-197.5,192.5,192.5,105,Masters 1,B,M,Raw,
5,Fórizs Zoltán,1980,Hungary,103.5,170,180,-185,180.0,180,105,Masters 1,B,M,Raw,
6,Oleksandr Prokopiv,1973,Ukraine,104.3,170,180,-187.5,180.0,180,105,Masters 1,B,M,Raw,
7,Kelemen Richárd,1975,Hungary,99.05,165,172.5,-175,172.5,172.5,105,Masters 1,B,M,Raw,
1,Nerijus Strazdauskas,1981,Lithuania,117.1,222.5,232.5,240.5,240.5,240.5,120,Masters 1,B,M,Raw,
2,Pavol Demčák,1977,Czechia,118.45,212.5,220,-235,220.0,220,120,Masters 1,B,M,Raw,
3,Tero Arponen,1980,Finland,119.15,200,205,210,210.0,210,120,Masters 1,B,M,Raw,
4,Patrik Hedqvist,1975,Sweden,118.5,185,-200,-200,185.0,185,120,Masters 1,B,M,Raw,
5,Dmitriy Gneidin,1978,Kazakhstan,107.2,-175,180,-205,180.0,180,120,Masters 1,B,M,Raw,
6,Thomas Brunnenkref,1977,Germany,116.95,-165,-170,170,170.0,170,120,Masters 1,B,M,Raw,
1,Kornél Schauer,1977,Hungary,120.4,220,-225,225,225.0,225,120+,Masters 1,B,M,Raw,
2,Linas Palivonas,1981,Lithuania,124,210,215,-227.5,215.0,215,120+,Masters 1,B,M,Raw,
3,Aidar Koshkarov,1976,Kazakhstan,140.25,200,212.5,-222.5,212.5,212.5,120+,Masters 1,B,M,Raw,
4,Roman Kalinichenko,1981,Ukraine,151.3,207.5,212.5,-217.5,212.5,212.5,120+,Masters 1,B,M,Raw,
5,Scott Squire,1974,UK,207,-190,-190,190,190.0,190,120+,Masters 1,B,M,Raw,
1,Gilles Marigo,1968,France,57.7,105,115,-117.5,115.0,115,59,Masters 2,B,M,Raw,
1,Oleksandr Chernyshov,1966,Ukraine,65.9,127.5,132.5,137.5,137.5,137.5,66,Masters 2,B,M,Raw,
2,Maik Staegemann,1969,Germany,65.35,120,125,-127.5,125.0,125,66,Masters 2,B,M,Raw,
3,Nodaras Kryževičius,1968,Lithuania,63.9,102.5,105,-107.5,105.0,105,66,Masters 2,B,M,Raw,
4,Vidmantas Baublys,1965,Lithuania,64.75,105,-107.5,-107.5,105.0,105,66,Masters 2,B,M,Raw,
1,Andreas Pöhls,1968,Germany,73.2,142.5,147.5,-150,147.5,147.5,74,Masters 2,B,M,Raw,
2,Bjørn-Andre Egerdahl,1970,Norway,73.2,142.5,147.5,-150,147.5,147.5,74,Masters 2,B,M,Raw,
3,Lars Carlsson,1966,Sweden,73.3,140,145,-150,145.0,145,74,Masters 2,B,M,Raw,
1,Takuya Yamashita,1968,Japan,81.9,155,160,172.5,172.5,172.5,83,Masters 2,B,M,Raw,
2,Michael Wegerer,1970,Austria,81.8,137.5,142.5,-160,142.5,142.5,83,Masters 2,B,M,Raw,
3,Sharipkhan Sadvakasov,1969,Kazakhstan,82.1,130,140,-145,140.0,140,83,Masters 2,B,M,Raw,
1,Jan Kuehl,1971,Germany,91.85,175,180,185,185.0,185,93,Masters 2,B,M,Raw,
2,Hervé France,1966,France,92.35,175,180,-185,180.0,180,93,Masters 2,B,M,Raw,
3,Robin van der Mee,1967,Netherlands,91.55,160,165,167.5,167.5,167.5,93,Masters 2,B,M,Raw,
4,Joacim Johansson,1966,Sweden,89.35,-150,-150,152.5,152.5,152.5,93,Masters 2,B,M,Raw,
5,Kairat Nurmukanov,1966,Kazakhstan,92.2,-137.5,142.5,-152.5,142.5,142.5,93,Masters 2,B,M,Raw,
6,Sergėjus Zolotariovas,1964,Lithuania,90.9,125,130,-135,130.0,130,93,Masters 2,B,M,Raw,
7,Michael Wade,1967,Canada,92.25,125,-135,-137.5,125.0,125,93,Masters 2,B,M,Raw,
1,Patrick Barger,1969,US Virgin Islands,103.8,172.5,177.5,180,180.0,180,105,Masters 2,B,M,Raw,
2,Teskhuu Ichinnorov,1971,Mongolia,98.98,155,165,-180,165.0,165,105,Masters 2,B,M,Raw,
3,John Ralf,1962,Canada,101.5,155,-165,-167.5,155.0,155,105,Masters 2,B,M,Raw,
4,Andrii Bozhyk,1962,Ukraine,94.2,105,112.5,-117.5,112.5,112.5,105,Masters 2,B,M,Raw,
1,Oleg Borisov,1971,Russia,109.4,180,187.5,-192.5,187.5,187.5,120,Masters 2,B,M,Raw,
2,Darius Ereksonas,1968,Lithuania,107.6,175,185,-190,185.0,185,120,Masters 2,B,M,Raw,
1,János Cserna,1968,Hungary,127.85,210,217.5,225,225.0,225,120+,Masters 2,B,M,Raw,
2,Georg Haug,1965,Germany,152.3,165,177.5,-185,177.5,177.5,120+,Masters 2,B,M,Raw,
1,Alexander Moiseev,1954,Belarus,57.55,65,70,72.5,72.5,72.5,59,Masters 3,B,M,Raw,
1,Roland Ölander,1953,Sweden,64.9,95,100,-112.5,100.0,100,66,Masters 3,B,M,Raw,
2,Marian Piwowarczyk,1961,Poland,63.9,85,90,95,95.0,95,66,Masters 3,B,M,Raw,
3,Seppo Flink,1953,Finland,65.4,77.5,82.5,-85,82.5,82.5,66,Masters 3,B,M,Raw,
1,Joachim Graupner,1958,Germany,72.85,120,130,-132.5,130.0,130,74,Masters 3,B,M,Raw,
2,Bat-Erdene Shagdarsuren,1959,Mongolia,72.45,80,105,110,110.0,110,74,Masters 3,B,M,Raw,
DQ,Detlef Heinrich,1956,Germany,72.2,-130,-130,-130,,,74,Masters 3,B,M,Raw,
1,Philippe Langevin,1961,France,81.35,-140,140,147.5,147.5,147.5,83,Masters 3,B,M,Raw,
2,Tomas Ring,1960,Sweden,82.3,130,135,142.5,142.5,142.5,83,Masters 3,B,M,Raw,
3,Arthur Hirner,1957,Germany,82.15,120,125,-135,125.0,125,83,Masters 3,B,M,Raw,
4,Aleksandras Sigariovas,1956,Lithuania,80.9,110,115,120,120.0,120,83,Masters 3,B,M,Raw,
1,Franz Nerb,1959,Germany,91.75,160,-165,165,165.0,165,93,Masters 3,B,M,Raw,
2,Juha Koivisto,1956,Finland,90,150,-152.5,152.5,152.5,152.5,93,Masters 3,B,M,Raw,
3,Benjaminas Milis,1961,Lithuania,86.3,145,150,-152.5,150.0,150,93,Masters 3,B,M,Raw,
4,Gilles Mandrick,1959,France,90.3,140,142.5,-152.5,142.5,142.5,93,Masters 3,B,M,Raw,
5,Hiroshi Takebe,1961,Japan,88.1,130,-140,-150,130.0,130,93,Masters 3,B,M,Raw,
6,Luis Antonio Riso Salgado,1952,Spain,88.7,110,125,,125.0,125,93,Masters 3,B,M,Raw,
1,Stanisław Mentel,1954,Poland,98.6,-190,190,-200.5,190.0,190,105,Masters 3,B,M,Raw,
2,Vidas Bernatonis,1959,Lithuania,100.65,115,122.5,-130,122.5,122.5,105,Masters 3,B,M,Raw,
3,Hans Thyssing,1953,Denmark,93.25,70,90,-122.5,90.0,90,105,Masters 3,B,M,Raw,
1,Harri Tirronen,1953,Finland,106.2,155,165,170,170.0,170,120,Masters 3,B,M,Raw,
2,Rodrigo Manuel Rodríguez Piñeiro,1957,Spain,105.75,115,130,-132.5,130.0,130,120,Masters 3,B,M,Raw,
1,Terry Young,1954,Canada,139.2,125,127.5,137.5,137.5,137.5,120+,Masters 3,B,M,Raw,
2,Elguja Kvikvinia,1961,Georgia,128.1,-120,125,135,135.0,135,120+,Masters 3,B,M,Raw,
3,Tibor Horváth,1955,Hungary,127.05,110,120,130,130.0,130,120+,Masters 3,B,M,Raw,
1,Perenlei Shagdar,1951,Mongolia,58.4,50,60,-70,60.0,60,59,Masters 4,B,M,Raw,
1,Markku Kemppainen,1949,Finland,65.45,90,95,97.5,97.5,97.5,66,Masters 4,B,M,Raw,
2,Leonīds Anastasjevs,1941,Latvia,63.3,80,85,-90,85.0,85,66,Masters 4,B,M,Raw,
1,John Terragni,1947,Denmark,71.25,112.5,-117.5,117.5,117.5,117.5,74,Masters 4,B,M,Raw,
2,Juhani Rasilainen,1949,Finland,73.3,112.5,-117.5,-117.5,112.5,112.5,74,Masters 4,B,M,Raw,
1,Reima Häkkinen,1950,Finland,80.6,130,136.5,142.5,142.5,142.5,83,Masters 4,B,M,Raw,
2,Maurice Treche,1950,France,79.9,105,107.5,110,110.0,110,83,Masters 4,B,M,Raw,
1,Daribay Ospanov,1949,Kazakhstan,87.05,115,122.5,-125,122.5,122.5,93,Masters 4,B,M,Raw,
2,Jiří Horník,1948,Czechia,89.35,122.5,-125,-125,122.5,122.5,93,Masters 4,B,M,Raw,
1,Seppo Komppa,1945,Finland,98.05,120,127.5,132.5,132.5,132.5,105,Masters 4,B,M,Raw,
2,Allan Fuglsang,1950,Denmark,103.85,122.5,127.5,-135,127.5,127.5,105,Masters 4,B,M,Raw,
3,Hans-Joachim Thuerk,1949,Germany,98.2,80,-82.5,,80.0,80,105,Masters 4,B,M,Raw,
1,Joël Robineau,1950,France,116.9,100,105,110,110.0,110,120,Masters 4,B,M,Raw,
DQ,Ivan Veselý,1949,Czechia,111.8,-82.5,-87.5,-87.5,,,120,Masters 4,B,M,Raw,
1,Oleg Smirnov #1,1990,Russia,58.3,200,205,-212.5,205.0,205,59,Open,B,M,Single-ply,
2,Ihor Harashchenko,1988,Ukraine,58.9,-192.5,192.5,-207.5,192.5,192.5,59,Open,B,M,Single-ply,
3,Fredrik Eskil Myrvang,1990,Norway,56.4,-185,185,-192.5,185.0,185,59,Open,B,M,Single-ply,
1,Yan Urusov,1989,Russia,65.95,240,245,-250.5,245.0,245,66,Open,B,M,Single-ply,
2,Abdulkarim Karaman,1994,Kazakhstan,65.7,220,227.5,237.5,237.5,237.5,66,Open,B,M,Single-ply,
3,Masashi Fukuda,1984,Japan,65.7,235,-240,-245,235.0,235,66,Open,B,M,Single-ply,
4,Andreas Frasl,1983,Austria,64.8,-212.5,-212.5,212.5,212.5,212.5,66,Open,B,M,Single-ply,
1,Daiki Kodama,1979,Japan,73.3,270,-282.5,287.5,287.5,287.5,74,Open,B,M,Single-ply,
2,Ivan Chuprinko,1986,Ukraine,73.2,275,285,-290,285.0,285,74,Open,B,M,Single-ply,
3,Eldos Yermakhanov,1990,Kazakhstan,72.8,250,257.5,-270,257.5,257.5,74,Open,B,M,Single-ply,
4,Andriy Balenkov,1981,Ukraine,73.8,-230,230,-260,230.0,230,74,Open,B,M,Single-ply,
5,Michael Valk Karl,1994,Estonia,73.7,210,-217.5,220,220.0,220,74,Open,B,M,Single-ply,
DQ,Dmitriy Luchkin,1986,Russia,72.95,-255,-255,-260,,,74,Open,B,M,Single-ply,
1,Stanislav Butsin,1990,Russia,81.15,282.5,292.5,300,300.0,300,83,Open,B,M,Single-ply,
2,Mykyta Ivashkin,1991,Ukraine,81.3,270,-280,-280,270.0,270,83,Open,B,M,Single-ply,
3,Mads Friche,1983,Denmark,81.85,260,-272.5,-272.5,260.0,260,83,Open,B,M,Single-ply,
DQ,Oleg Butenko,1983,Kazakhstan,81.05,-295,-295,-295,,,83,Open,B,M,Single-ply,
DQ,Gansukh Batsukh,1988,Mongolia,82.9,-265,-265,-265,,,83,Open,B,M,Single-ply,
DQ,Dulguun Batbold,1997,Mongolia,82.9,-240,-240,-262.5,,,83,Open,B,M,Single-ply,
1,Valentin Kiselev,1987,Russia,92.7,-300,300,312.5,312.5,312.5,93,Open,B,M,Single-ply,
2,Andriy Krymov,1985,Ukraine,92.55,310,-320,-320,310.0,310,93,Open,B,M,Single-ply,
3,Rafał Zalewski,1983,Poland,92.25,285,-300,-300,285.0,285,93,Open,B,M,Single-ply,
4,Klaudijus Malevskis,1996,Lithuania,92.65,230,-240,-240,230.0,230,93,Open,B,M,Single-ply,
5,Thomas Morgan #1,1996,UK,91.8,212.5,217.5,-230,217.5,217.5,93,Open,B,M,Single-ply,
DQ,Askar Shokhanov,1983,Kazakhstan,91.2,-350,-350,-350,,,93,Open,B,M,Single-ply,
1,Evgenii Roenko,1996,Russia,103.3,-325,325,-332.5,325.0,325,105,Open,B,M,Single-ply,
2,Yuki Sato,1983,Japan,104.2,-275,275,-335,275.0,275,105,Open,B,M,Single-ply,
3,Zdeněk Tuháček,1986,Czechia,99.3,217.5,-230,-237.5,217.5,217.5,105,Open,B,M,Single-ply,
DQ,Oliver Dahlkvist,1995,Sweden,102.25,-327.5,-327.5,-327.5,,,105,Open,B,M,Single-ply,
DQ,Volodymyr Bettyar,1984,Ukraine,103.9,-327.5,-330,-332.5,,,105,Open,B,M,Single-ply,
DQ,Tumenjargal Dashzegve,1987,Mongolia,103.95,-330,-330,-337.5,,,105,Open,B,M,Single-ply,
DQ,Felix Beßler,1988,Germany,104.45,-290,-300,-300,,,105,Open,B,M,Single-ply,
1,Viktor Leskovets,1990,Ukraine,111.65,340,357.5,375.5,375.5,375.5,120,Open,B,M,Single-ply,
2,Chimedtseren Bataa,1981,Mongolia,119.8,357.5,365,-375,365.0,365,120,Open,B,M,Single-ply,
3,Aleksandr Sykmenyov,1978,Russia,119.45,-355,362.5,-376,362.5,362.5,120,Open,B,M,Single-ply,
4,Arslan Suyunshaliyev,1989,Kazakhstan,113.85,350,360,-375,360.0,360,120,Open,B,M,Single-ply,
5,Aliaksei Stasevich,1986,Belarus,116.1,350,360,-372.5,360.0,360,120,Open,B,M,Single-ply,
6,Jesper B Mikkelsen,1989,Denmark,118.9,292.5,300,-310,300.0,300,120,Open,B,M,Single-ply,
7,Martin Marshall,1987,UK,118.35,-220,220,-240,220.0,220,120,Open,B,M,Single-ply,
DQ,Milan Selinger,1984,Czechia,119.7,-290,-290,-290,,,120,Open,B,M,Single-ply,
1,Altangerel Bujinlkham,1976,Mongolia,131.2,350,357.5,360,360.0,360,120+,Open,B,M,Single-ply,
2,Sergey Usov,1993,Russia,123.05,-345,345,357.5,357.5,357.5,120+,Open,B,M,Single-ply,
3,Per Marius Hole,1989,Norway,122.85,345,-352.5,-357.5,345.0,345,120+,Open,B,M,Single-ply,
4,Kenneth Sandvik,1975,Finland,138.95,-330,330,-347.5,330.0,330,120+,Open,B,M,Single-ply,
5,Kazuho Uemura,1992,Japan,135.3,-220,220,-242.5,220.0,220,120+,Open,B,M,Single-ply,
DQ,Uladzimir Cheradzin,1971,Belarus,123.1,-240,-240,-240,,,120+,Open,B,M,Single-ply,
DQ,Yuriy Kovalchuk,1979,Ukraine,124.4,-312.5,-312.5,-345,,,120+,Open,B,M,Single-ply,
DQ,Michał Wegiera,1989,Poland,142.6,-320,-320,-327.5,,,120+,Open,B,M,Single-ply,
1,Ruslan Karimbekov,2003,Kazakhstan,50.8,120,122.5,-127.5,122.5,122.5,53,Sub-Juniors,B,M,Single-ply,
2,Salamat Usembayev,2003,Kazakhstan,51.5,-115,115,-125,115.0,115,53,Sub-Juniors,B,M,Single-ply,
3,Lukas Abraitis,2006,Lithuania,50.15,45,47.5,50,50.0,50,53,Sub-Juniors,B,M,Single-ply,
1,Anton Marchenko,2003,Kazakhstan,57.9,145,152.5,162.5,162.5,162.5,59,Sub-Juniors,B,M,Single-ply,
2,Vadym Muzyka,2003,Ukraine,57,100,110,-115,110.0,110,59,Sub-Juniors,B,M,Single-ply,
1,Mansur Rassulov,2003,Kazakhstan,65.05,160,-170,175,175.0,175,66,Sub-Juniors,B,M,Single-ply,
2,Pawel Wloch,2006,Poland,65.65,80,90,-95,90.0,90,66,Sub-Juniors,B,M,Single-ply,
1,Eldor Akmurzayev,2003,Kazakhstan,72.25,175,-185,190,190.0,190,74,Sub-Juniors,B,M,Single-ply,
2,David Horník,2004,Czechia,72.9,130,145,152.5,152.5,152.5,74,Sub-Juniors,B,M,Single-ply,
3,Dawid Zubek,2003,Poland,71.95,140,-150,-152.5,140.0,140,74,Sub-Juniors,B,M,Single-ply,
1,Ilya Kossobryukhov,2003,Kazakhstan,76.2,162.5,165,170,170.0,170,83,Sub-Juniors,B,M,Single-ply,
2,Ihor Hroshko,2003,Ukraine,79.75,150,155,-167.5,155.0,155,83,Sub-Juniors,B,M,Single-ply,
3,Paulius Pocius,2004,Lithuania,79.85,142.5,-147.5,147.5,147.5,147.5,83,Sub-Juniors,B,M,Single-ply,
1,Grigorii Dudarev,2003,Russia,92.55,-170,170,-182.5,170.0,170,93,Sub-Juniors,B,M,Single-ply,
DQ,Bakhtiyar Dargul,2003,Kazakhstan,90.1,-180,-180,-180,,,93,Sub-Juniors,B,M,Single-ply,
1,Hermanni Järvenpää,2003,Finland,103.7,160,-230,230,230.0,230,105,Sub-Juniors,B,M,Single-ply,
1,Buned Amanov,2003,Kazakhstan,114.65,170,180,190,190.0,190,120,Sub-Juniors,B,M,Single-ply,
2,Kajus Čižauskas Gabrielius,2005,Lithuania,117.75,85,90,-95,90.0,90,120,Sub-Juniors,B,M,Single-ply,
1,Jakub Zavodny,2004,Slovakia,128.95,-190,-190,190,190.0,190,120+,Sub-Juniors,B,M,Single-ply,
1,Raimbek Kadyrov,2001,Kazakhstan,51.2,120,130,135,135.0,135,53,Juniors,B,M,Single-ply,
2,Kirill Shumskikh,2002,Russia,52.8,120,127.5,132.5,132.5,132.5,53,Juniors,B,M,Single-ply,
1,Ivan Kuvaldin,2001,Kazakhstan,57.65,170,172.5,,172.5,172.5,59,Juniors,B,M,Single-ply,
2,Danila Dolgulev,1998,Russia,58.45,165,-172.5,-175,165.0,165,59,Juniors,B,M,Single-ply,
3,Rostyslav Kinishchuk,1999,Ukraine,58.8,145,-160,-167.5,145.0,145,59,Juniors,B,M,Single-ply,
1,Aleksei Rikhter,1998,Russia,65.85,192.5,202.5,-215,202.5,202.5,66,Juniors,B,M,Single-ply,
2,Andrii Miniailuk,1999,Ukraine,65.35,190,-200,-202.5,190.0,190,66,Juniors,B,M,Single-ply,
3,Radosław Dębicki,2001,Poland,65.8,140,150,155,155.0,155,66,Juniors,B,M,Single-ply,
1,Dmitrii Zaitsev,2001,Russia,73.25,-230,230,-245,230.0,230,74,Juniors,B,M,Single-ply,
2,Aleksey Sergeenko,1998,Russia,73.55,215,222.5,-232.5,222.5,222.5,74,Juniors,B,M,Single-ply,
3,Kuanyshbay Tulegenov,1998,Kazakhstan,73.3,205,212.5,-222.5,212.5,212.5,74,Juniors,B,M,Single-ply,
4,Rokas Burba,2001,Lithuania,73.85,190,200,-215,200.0,200,74,Juniors,B,M,Single-ply,
1,Daniyar Shaukatov,2000,Kazakhstan,82.7,245,-275,280,280.0,280,83,Juniors,B,M,Single-ply,
2,Erik Larsson,1999,Sweden,82.3,212.5,225,-245,225.0,225,83,Juniors,B,M,Single-ply,
3,Sandor Tatar,1999,Hungary,77.2,130,180,187.5,187.5,187.5,83,Juniors,B,M,Single-ply,
1,Zhavlan Shaukatov,1998,Kazakhstan,91.65,250,260,,260.0,260,93,Juniors,B,M,Single-ply,
2,Maciej Zastawny,2000,Poland,85.85,190,-200,-200,190.0,190,93,Juniors,B,M,Single-ply,
1,Bulat Rakhmatullin,1998,Russia,104.85,270,-290,290,290.0,290,105,Juniors,B,M,Single-ply,
2,Takhirzhan Abdurakhmanov,1998,Kazakhstan,104.55,170,207.5,-210,207.5,207.5,105,Juniors,B,M,Single-ply,
3,Hayato Kurashita,1999,Japan,101.75,125,205,-212.5,205.0,205,105,Juniors,B,M,Single-ply,
1,Valery Techmuradov,1999,Russia,118.55,270,285,305,305.0,305,120,Juniors,B,M,Single-ply,
2,Martin Prokop,1999,Czechia,117.4,245,255,-270,255.0,255,120,Juniors,B,M,Single-ply,
3,Dominik Plaskonis,2000,Slovakia,118.7,-220,220,-232.5,220.0,220,120,Juniors,B,M,Single-ply,
1,Rustam Sunnatov,2001,Russia,146.45,262.5,277.5,295,295.0,295,120+,Juniors,B,M,Single-ply,
2,Nazar Nerianov,1998,Ukraine,146.3,260,275,-292.5,275.0,275,120+,Juniors,B,M,Single-ply,
3,Denis Kurečka,1999,Czechia,143,180,-262.5,-277.5,180.0,180,120+,Juniors,B,M,Single-ply,
1,Akinori Amakawa,1977,Japan,65.45,170,180,-190,180.0,180,66,Masters 1,B,M,Single-ply,
2,Amir Reza Mesforoosh,1980,Iran,65.7,100,135,-145,135.0,135,66,Masters 1,B,M,Single-ply,
1,Adam Balawejder,1981,Poland,73.6,220,-235,235,235.0,235,74,Masters 1,B,M,Single-ply,
2,Evgeniy Nosach,1976,Russia,73.75,190,195,197.5,197.5,197.5,74,Masters 1,B,M,Single-ply,
3,Marcus Holmgren,1975,Sweden,73.35,175,180,-195,180.0,180,74,Masters 1,B,M,Single-ply,
DQ,Khangal Purevdorj,1975,Mongolia,72.95,-160,-160,-180,,,74,Masters 1,B,M,Single-ply,
DQ,Vincent Eldin,1972,France,73.15,-177.5,-177.5,-180,,,74,Masters 1,B,M,Single-ply,
1,Cyril Pinguet,1972,France,82.85,215,220,-225,220.0,220,83,Masters 1,B,M,Single-ply,
2,Munkhtuul Damba,1974,Mongolia,82.65,200,207.5,-220,207.5,207.5,83,Masters 1,B,M,Single-ply,
3,Arkadiusz Wloch,1975,Poland,81.8,170,180,-185,180.0,180,83,Masters 1,B,M,Single-ply,
4,Dainius Žekevičius,1976,Lithuania,81.85,-175,-175,175,175.0,175,83,Masters 1,B,M,Single-ply,
5,Artak Asrian,1979,Netherlands,82.05,175,-182.5,-182.5,175.0,175,83,Masters 1,B,M,Single-ply,
6,Michal Šícha,1980,Czechia,82.25,-172.5,172.5,-185,172.5,172.5,83,Masters 1,B,M,Single-ply,
7,Tomasz Dębicki,1974,Poland,82.35,150,160,170,170.0,170,83,Masters 1,B,M,Single-ply,
8,Davranbek Turakhanov,1974,Kazakhstan,81.4,155,-165,-180,155.0,155,83,Masters 1,B,M,Single-ply,
1,Thomas Wetzstein,1974,Austria,91.4,255,260,,260.0,260,93,Masters 1,B,M,Single-ply,
2,Sukhbat Enkhbayar,1979,Mongolia,93,-220,220,-262.5,220.0,220,93,Masters 1,B,M,Single-ply,
3,Abay Kairgaliyev,1979,Kazakhstan,84.8,185,200,-215,200.0,200,93,Masters 1,B,M,Single-ply,
4,Aki Kangasjärvi,1977,Finland,92.1,200,-210,-215,200.0,200,93,Masters 1,B,M,Single-ply,
1,Robert Dawidowicz,1972,Sweden,98.35,227.5,232.5,-240,232.5,232.5,105,Masters 1,B,M,Single-ply,
2,Mattias Humble,1975,Sweden,98.7,222.5,-230,-235,222.5,222.5,105,Masters 1,B,M,Single-ply,
DQ,Uuganbayar Damdin,1976,Mongolia,102.75,-265,-265,-265,,,105,Masters 1,B,M,Single-ply,
DQ,Barkhasbaatar Lkhagvajav,1981,Mongolia,103.35,-262.5,-262.5,-262.5,,,105,Masters 1,B,M,Single-ply,
1,Hjalmar Mäe,1980,Estonia,110.6,-280,280,-300,280.0,280,120,Masters 1,B,M,Single-ply,
2,Otgonbayar Ayush,1977,Mongolia,118.8,255,-262.5,-282.5,255.0,255,120,Masters 1,B,M,Single-ply,
3,Akihisa Takemura,1973,Japan,107.2,-230,230,247.5,247.5,247.5,120,Masters 1,B,M,Single-ply,
4,Martin Green #1,1974,UK,105.7,245,-252.5,-252.5,245.0,245,120,Masters 1,B,M,Single-ply,
5,Eryk Walczak,1977,Poland,105.4,240,-250,-250,240.0,240,120,Masters 1,B,M,Single-ply,
6,Roger Andersson,1975,Sweden,107.25,210,217.5,225,225.0,225,120,Masters 1,B,M,Single-ply,
7,Kaj Wasenius,1972,Finland,108.85,170,-175,-180,170.0,170,120,Masters 1,B,M,Single-ply,
1,Jaroslav Šoukal,1972,Czechia,176.3,307.5,315,-325,315.0,315,120+,Masters 1,B,M,Single-ply,
2,Aidar Koshkarov,1976,Kazakhstan,140.7,-290,290,-315,290.0,290,120+,Masters 1,B,M,Single-ply,
3,Jan Pinc,1973,Czechia,138.15,-280,285,-295,285.0,285,120+,Masters 1,B,M,Single-ply,
4,Tadas Gečas,1977,Lithuania,142.95,245,-262.5,-262.5,245.0,245,120+,Masters 1,B,M,Single-ply,
5,Shigetoshi Higuchi,1977,Japan,139.75,-240,240,-290,240.0,240,120+,Masters 1,B,M,Single-ply,
6,Graeme Reid,1978,UK,130.4,190,-202.5,-202.5,190.0,190,120+,Masters 1,B,M,Single-ply,
DQ,Uurtsaikh Bazarsuren,1973,Mongolia,123.6,-255,-255,-285,,,120+,Masters 1,B,M,Single-ply,
DQ,Tarmo Pärna,1978,Estonia,126.4,-305,-307.5,-307.5,,,120+,Masters 1,B,M,Single-ply,
1,Oleksandr Chernyshov,1966,Ukraine,65.7,140,152.5,160,160.0,160,66,Masters 2,B,M,Single-ply,
2,Maik Staegemann,1969,Germany,65,145,155,-160,155.0,155,66,Masters 2,B,M,Single-ply,
3,Vidmantas Baublys,1965,Lithuania,65.25,120,127.5,135,135.0,135,66,Masters 2,B,M,Single-ply,
1,Marek Kujawski,1968,Poland,71.95,160,170,177.5,177.5,177.5,74,Masters 2,B,M,Single-ply,
2,Andreas Pöhls,1968,Germany,73.4,170,-175,175,175.0,175,74,Masters 2,B,M,Single-ply,
DQ,Jukka Siltanen,1965,Sweden,72.25,-137.5,-137.5,-137.5,,,74,Masters 2,B,M,Single-ply,
DQ,Timo Leminen,1968,Finland,73.8,-150,-150,-150,,,74,Masters 2,B,M,Single-ply,
1,Takuya Yamashita,1968,Japan,82.1,-195,195,197.5,197.5,197.5,83,Masters 2,B,M,Single-ply,
2,Vitalijus Stachovas,1971,Lithuania,81.6,185,190,195,195.0,195,83,Masters 2,B,M,Single-ply,
3,Vladimír Nebola,1970,Czechia,82.1,185,-190,-192.5,185.0,185,83,Masters 2,B,M,Single-ply,
4,Mickael Colmard,1971,France,82.8,180,-185,-187.5,180.0,180,83,Masters 2,B,M,Single-ply,
5,Rickard Sandstrom,1970,Sweden,82.6,155,-162.5,-187.5,155.0,155,83,Masters 2,B,M,Single-ply,
1,Jan Wegiera,1965,Poland,91.2,260,270,-280,270.0,270,93,Masters 2,B,M,Single-ply,
2,Ivar Hellerud Alf,1969,Norway,91.4,-235,235,245,245.0,245,93,Masters 2,B,M,Single-ply,
3,Fabrice Bertin,1967,France,91.65,-230,230,242.5,242.5,242.5,93,Masters 2,B,M,Single-ply,
4,Tomi Vikla,1970,Finland,92.5,242.5,-250,-260,242.5,242.5,93,Masters 2,B,M,Single-ply,
5,Seppo Norpila,1963,Finland,92.6,155,-175,-177.5,155.0,155,93,Masters 2,B,M,Single-ply,
DQ,Bo Jensen Henrik,1967,Denmark,92.35,-210,-210,-210,,,93,Masters 2,B,M,Single-ply,
DQ,Arturas Macionis,1968,Lithuania,92.35,-175,-175,-175,,,93,Masters 2,B,M,Single-ply,
1,Mikhail Voskoboynik,1970,Russia,99.4,-250,250,-262.5,250.0,250,105,Masters 2,B,M,Single-ply,
2,Frans van der Putten,1962,Netherlands,98.9,240,-250,-250,240.0,240,105,Masters 2,B,M,Single-ply,
3,Zydrunas Smelstorius,1970,Lithuania,100.15,-195,-195,195,195.0,195,105,Masters 2,B,M,Single-ply,
4,Lars Höglander,1964,Sweden,93.6,170,-195,-195,170.0,170,105,Masters 2,B,M,Single-ply,
DQ,Jiří Kati,1965,Czechia,97.6,-260,-260,-262.5,,,105,Masters 2,B,M,Single-ply,
1,Oleg Borisov,1971,Russia,108.55,255,-265,275,275.0,275,120,Masters 2,B,M,Single-ply,
2,Bayarkhuu Tserendamba,1971,Mongolia,117.25,-140,140,-257.5,140.0,140,120,Masters 2,B,M,Single-ply,
1,János Cserna,1968,Hungary,128.3,275,,,275.0,275,120+,Masters 2,B,M,Single-ply,
2,Georg Haug,1965,Germany,152.1,165,-215,,165.0,165,120+,Masters 2,B,M,Single-ply,
1,Seppo Flink,1953,Finland,65.1,75,80,85,85.0,85,66,Masters 3,B,M,Single-ply,
1,Bat-Erdene Shagdarsuren,1959,Mongolia,72.8,90,120,132.5,132.5,132.5,74,Masters 3,B,M,Single-ply,
1,Tomas Ring,1960,Sweden,82.6,195,-200,-216,195.0,195,83,Masters 3,B,M,Single-ply,
2,Alain Collard,1952,France,80.9,125,135,-140,135.0,135,83,Masters 3,B,M,Single-ply,
DQ,Arthur Hirner,1957,Germany,82.65,-185,-185,-185,,,83,Masters 3,B,M,Single-ply,
1,Ronald Bengtsson,1959,Sweden,90.75,-185,185,190,190.0,190,93,Masters 3,B,M,Single-ply,
2,Benjaminas Milis,1961,Lithuania,86.7,-165,165,170,170.0,170,93,Masters 3,B,M,Single-ply,
3,Kim Salby,1961,Denmark,91.95,170,-187.5,-187.5,170.0,170,93,Masters 3,B,M,Single-ply,
DQ,Ostenstad Eimstad Steinar,1959,Norway,91.6,-145,-145,-145,,,93,Masters 3,B,M,Single-ply,
1,Harri Tirronen,1953,Finland,105.9,150,160,170,170.0,170,120,Masters 3,B,M,Single-ply,
1,Perenlei Shagdar,1951,Mongolia,58.6,-60,60,-75,60.0,60,59,Masters 4,B,M,Single-ply,
1,Markku Kemppainen,1949,Finland,65.2,90,95,100,100.0,100,66,Masters 4,B,M,Single-ply,
1,Antanas Micius,1951,Lithuania,71.6,115,122.5,125,125.0,125,74,Masters 4,B,M,Single-ply,
2,Antero Kauranen,1948,Finland,73.3,-122.5,125,-127.5,125.0,125,74,Masters 4,B,M,Single-ply,
1,Göran Malmberg,1943,Sweden,82.35,80,-132.5,,80.0,80,83,Masters 4,B,M,Single-ply,
1,Daribay Ospanov,1949,Kazakhstan,87.65,-145,145,-150,145.0,145,93,Masters 4,B,M,Single-ply,
2,Jiří Horník,1948,Czechia,88.8,120,135,-147.5,135.0,135,93,Masters 4,B,M,Single-ply,
1,Allan Fuglsang,1950,Denmark,103.3,157.5,160,-162.5,160.0,160,105,Masters 4,B,M,Single-ply,
2,Seppo Komppa,1945,Finland,97.6,-145,-150,150,150.0,150,105,Masters 4,B,M,Single-ply,
3,Didier Egels,1950,France,97.2,120,-125,-125,120.0,120,105,Masters 4,B,M,Single-ply,
1,Joël Robineau,1950,France,115.2,-120,120,125,125.0,125,120,Masters 4,B,M,Single-ply,
1,Raul Randmäe,1948,Estonia,133.25,110,120,130,130.0,130,120+,Masters 4,B,M,Single-ply,
1,Justyna Kozdryk,1980,Poland,46.15,87.5,92.5,97.5,97.5,97.5,47,Open,B,F,Raw,
2,Marina Kotelnikova,1991,Russia,46.8,82.5,85,-95,85.0,85,47,Open,B,F,Raw,
3,Nataliya Cheremenko,2001,Ukraine,47,82.5,85,-90,85.0,85,47,Open,B,F,Raw,
4,Kristina Tsoy,1991,Kazakhstan,45.8,72.5,-77.5,-77.5,72.5,72.5,47,Open,B,F,Raw,
1,Mónika Nyers,1978,Hungary,51.8,92.5,100,105.0,105.0,105,52,Open,B,F,Raw,
2,Tetyana Shchavinska,1996,Ukraine,51.35,-100,100,102.5,102.5,102.5,52,Open,B,F,Raw,
3,Maria Frank,1984,Canada,51.6,87.5,95,-100,95.0,95,52,Open,B,F,Raw,
4,Anastasiya Zhurbina,1999,Kazakhstan,51.2,-92.5,92.5,-100,92.5,92.5,52,Open,B,F,Raw,
5,Alison Huet,1996,France,52,90,-95,-95,90.0,90,52,Open,B,F,Raw,
6,Jesse Lentjes,1996,Netherlands,50.7,70,-75,-75,70.0,70,52,Open,B,F,Raw,
7,Chau-Long Le,1993,UK,51.25,70,-72.5,-72.5,70.0,70,52,Open,B,F,Raw,
1,Anna Rykun,1998,Ukraine,56.6,112.5,-117.5,-121.5,112.5,112.5,57,Open,B,F,Raw,
2,Hanna Buturlym,1997,Ukraine,56.1,100,105,107.5,107.5,107.5,57,Open,B,F,Raw,
3,Melissa Hexter,1994,UK,55.8,-105,-105,105,105.0,105,57,Open,B,F,Raw,
4,Sheina Kaye,1997,UK,54.2,80,82.5,85,85.0,85,57,Open,B,F,Raw,
5,Mylène van der Spek,1996,Netherlands,56,75,80,-82.5,80.0,80,57,Open,B,F,Raw,
1,Alba Boström,2001,Sweden,62.6,110,112.5,-117.5,112.5,112.5,63,Open,B,F,Raw,
2,Zsanett Palágyi,1986,Hungary,62.3,107.5,-110,-112.5,107.5,107.5,63,Open,B,F,Raw,
3,Pantea Supanetz,1990,Austria,62.9,105,-107.5,-107.5,105.0,105,63,Open,B,F,Raw,
4,Mari Engberg,1982,Finland,62.65,100,-105,-105,100.0,100,63,Open,B,F,Raw,
5,Katie Roberts,1989,UK,62.7,97.5,100,-105,100.0,100,63,Open,B,F,Raw,
1,Andrea Petrek,1997,Croatia,67.35,115,120,122.5,122.5,122.5,69,Open,B,F,Raw,
2,Asel Nurkenova,2000,Kazakhstan,66.7,115,120.0,-122.5,120.0,120,69,Open,B,F,Raw,
3,Mariya Ryabova,1993,Russia,68.4,110,117.5,120,120.0,120,69,Open,B,F,Raw,
4,Ekaterina Kryukova,1985,Kazakhstan,66.3,112.5,117.5,-120,117.5,117.5,69,Open,B,F,Raw,
5,Valentina Nelyubova,1966,Russia,67.3,100,-107.5,-107.5,100.0,100,69,Open,B,F,Raw,
6,Karenjeet Bains,1996,UK,67.05,87.5,90,92.5,92.5,92.5,69,Open,B,F,Raw,
1,Xeniya Khan,1987,Kazakhstan,75.75,130,135,141.0,141.0,141,76,Open,B,F,Raw,
2,Annika Zelander,1988,Sweden,75.6,130,135,-141.5,135.0,135,76,Open,B,F,Raw,
3,Micaela Ödling,1990,Sweden,73.35,117.5,122.5,-135,122.5,122.5,76,Open,B,F,Raw,
4,Sophia Ellis,1996,UK,72.75,100,105,110,110.0,110,76,Open,B,F,Raw,
5,Anita Camilla Bratland,1989,Norway,75.5,102.5,107.5,110,110.0,110,76,Open,B,F,Raw,
6,Amaliya Naam,1995,Russia,72.25,90,95,100,100.0,100,76,Open,B,F,Raw,
7,Lucy Glover,1991,UK,75.05,85,90,92.5,92.5,92.5,76,Open,B,F,Raw,
1,Liudmila Protchenko,1986,Russia,84,140,148.0,155.0,155.0,155,84,Open,B,F,Raw,
2,Zhadyra Bermukhambetova,1986,Kazakhstan,82.8,112.5,117.5,125,125.0,125,84,Open,B,F,Raw,
3,Kinga Moczydłowska,1987,Poland,78.15,95,102.5,-105,102.5,102.5,84,Open,B,F,Raw,
4,Aziza Abduraimova,1989,Kazakhstan,82,97.5,-105,-105,97.5,97.5,84,Open,B,F,Raw,
5,Lydia North,1988,Canada,78.15,90,95,-105,95.0,95,84,Open,B,F,Raw,
6,Lina Veinberger,1986,Lithuania,83.6,80,-85,85,85.0,85,84,Open,B,F,Raw,
7,Živilė Satkutė,1986,Lithuania,77.8,-62.5,62.5,65,65.0,65,84,Open,B,F,Raw,
1,Ágnes Szabó,1988,Hungary,110.1,140,145,-152,145.0,145,84+,Open,B,F,Raw,
2,Xeniya Okatenko,1994,Kazakhstan,115.6,120,122.5,130,130.0,130,84+,Open,B,F,Raw,
3,Inna Orobets,1971,Ukraine,109.35,115,120,-127.5,120.0,120,84+,Open,B,F,Raw,
4,Kate Sweatman,1985,UK,127.4,-105,107.5,-110,107.5,107.5,84+,Open,B,F,Raw,
5,April Goodfellow,1992,Canada,93.2,92.5,100,102.5,102.5,102.5,84+,Open,B,F,Raw,
1,Yelizaveta Mataras,2005,Belarus,42.9,66.0,67.0,68.0,68.0,68,43,Sub-Juniors,B,F,Raw,
2,Khrystyna Ulianyk,2005,Ukraine,39.85,30,32.5,-35,32.5,32.5,43,Sub-Juniors,B,F,Raw,
1,Alina Udaltsova,2003,Russia,47,75,-77.5,77.5,77.5,77.5,47,Sub-Juniors,B,F,Raw,
1,Sofiya Stanko,2006,Ukraine,52,77.5,-82.5,87.5,87.5,87.5,52,Sub-Juniors,B,F,Raw,
2,Adelya Doskul,2003,Kazakhstan,51.55,60,65,67.5,67.5,67.5,52,Sub-Juniors,B,F,Raw,
3,Mariya Dolbilova,2003,Russia,48.8,55,60,65,65.0,65,52,Sub-Juniors,B,F,Raw,
1,Arina Demidova,2003,Russia,56.7,95,103.0,-105,103.0,103,57,Sub-Juniors,B,F,Raw,
2,Natalia Bogdziewicz,2004,Poland,57,65,70,-72.5,70.0,70,57,Sub-Juniors,B,F,Raw,
3,Martyna Janaszek,2005,Poland,53.85,40,50,55,55.0,55,57,Sub-Juniors,B,F,Raw,
1,Veronika Dyakova,2004,Russia,62.65,87.5,90,92.5,92.5,92.5,63,Sub-Juniors,B,F,Raw,
2,Mariya Kozir,2004,Ukraine,60.5,85,87.5,-90,87.5,87.5,63,Sub-Juniors,B,F,Raw,
3,Juuli Kostian,2006,Finland,61.2,80,87.5,-90,87.5,87.5,63,Sub-Juniors,B,F,Raw,
4,Astrid Edvardsson,2003,Sweden,62.05,85,87.5,-90,87.5,87.5,63,Sub-Juniors,B,F,Raw,
5,Olga Toropitsina,2003,Russia,60.5,75,-80,80,80.0,80,63,Sub-Juniors,B,F,Raw,
6,Anastasiya Butenko,2003,Kazakhstan,58.1,70,75,-87.5,75.0,75,63,Sub-Juniors,B,F,Raw,
1,Vitalina Chichmarenko,2003,Kazakhstan,67.4,65,70,-75,70.0,70,69,Sub-Juniors,B,F,Raw,
2,Julia Dziwosz,2004,Poland,68.75,55,-65,65,65.0,65,69,Sub-Juniors,B,F,Raw,
1,Barno Dzhumabaeva,2007,Kazakhstan,72.8,95,107.5,-112.5,107.5,107.5,76,Sub-Juniors,B,F,Raw,
2,Diana Hvahvalia,2003,Ukraine,75,90,-95,95,95.0,95,76,Sub-Juniors,B,F,Raw,
3,Eliise Mikomägi,2003,Estonia,74.4,75,80,-82.5,80.0,80,76,Sub-Juniors,B,F,Raw,
1,Tatyana Bykova,2005,Russia,83.4,80,85,-90,85.0,85,84,Sub-Juniors,B,F,Raw,
2,Arina Sidenkova,2007,Kazakhstan,82.05,75,80,-87.5,80.0,80,84,Sub-Juniors,B,F,Raw,
1,Diana Malykhina,2003,Kazakhstan,120,80,85,90,90.0,90,84+,Sub-Juniors,B,F,Raw,
2,Reda Laurinavičiūtė,2007,Lithuania,84.45,62.5,65,70,70.0,70,84+,Sub-Juniors,B,F,Raw,
3,Valerija Petrovaitė,2005,Lithuania,101.7,62.5,67.5,-70,67.5,67.5,84+,Sub-Juniors,B,F,Raw,
1,Sindy Bubek,1998,Croatia,45.6,72.5,-77.5,-77.5,72.5,72.5,47,Juniors,B,F,Raw,
2,Aliya Kalzhanova,2000,Kazakhstan,46.7,65,-72.5,-72.5,65.0,65,47,Juniors,B,F,Raw,
1,Selma Karoline Matilde Ramberg,2001,Norway,51.15,105,113.5,-115,113.5,113.5,52,Juniors,B,F,Raw,
2,Evgeniya Fedorova,1998,Russia,50.55,82.5,85,-87.5,85.0,85,52,Juniors,B,F,Raw,
3,Alena Gladkova,2001,Kazakhstan,50.25,-82.5,-82.5,82.5,82.5,82.5,52,Juniors,B,F,Raw,
4,Julia Starck,1998,Sweden,51.2,77.5,-85,-85,77.5,77.5,52,Juniors,B,F,Raw,
1,Mia Margrethe Ramberg Storstad,1999,Norway,56.5,95,100,105,105.0,105,57,Juniors,B,F,Raw,
2,Anja Adelmann,1998,Austria,56.6,97.5,102.5,-107.5,102.5,102.5,57,Juniors,B,F,Raw,
3,Yuliya Chikalina,1998,Ukraine,56.2,87.5,92.5,-100,92.5,92.5,57,Juniors,B,F,Raw,
4,Patrycja Piec,2001,Poland,56.35,72.5,77.5,82.5,82.5,82.5,57,Juniors,B,F,Raw,
5,Adriana Holubová,2001,Czechia,56.7,70,-75,-75,70.0,70,57,Juniors,B,F,Raw,
1,Eglė Turakevičiūtė,1999,Lithuania,61.7,95,100,-102.5,100.0,100,63,Juniors,B,F,Raw,
2,Alexandrea Rán Guðnýjardóttir,1999,Iceland,62.7,-97.5,97.5,-102.5,97.5,97.5,63,Juniors,B,F,Raw,
1,Elsa Marin Karlsson,2000,Sweden,66.4,115,117.5,-120.5,117.5,117.5,69,Juniors,B,F,Raw,
2,Agnes Rudin,2000,Sweden,68.05,-110,110,-120,110.0,110,69,Juniors,B,F,Raw,
3,Marthine Myhr,1999,Norway,66.25,102.5,-107.5,107.5,107.5,107.5,69,Juniors,B,F,Raw,
4,Dariya Iskiv,1999,Ukraine,68.05,105,-107.5,-107.5,105.0,105,69,Juniors,B,F,Raw,
5,Ramunė Vainauskytė,2000,Lithuania,68.25,-100,100,-110,100.0,100,69,Juniors,B,F,Raw,
1,Laura Mautalen,2000,France,74.65,115,120,126.0,126.0,126,76,Juniors,B,F,Raw,
2,Valeriya Kochina,1998,Kazakhstan,69.8,105,110,-112.5,110.0,110,76,Juniors,B,F,Raw,
3,Diana Shatko,2002,Kazakhstan,74.7,110,-112.5,-112.5,110.0,110,76,Juniors,B,F,Raw,
DQ,Diana Zamaldinova,2002,Russia,74,-110,-110,-112.5,,,76,Juniors,B,F,Raw,
1,Matthildur Óskarsdóttir,1999,Iceland,81.55,-112.5,112.5,117.5,117.5,117.5,84,Juniors,B,F,Raw,
2,Emmeth Törrönen,1998,Finland,81.4,112.5,115,-117.5,115.0,115,84,Juniors,B,F,Raw,
3,Iroda Abdyrova,2001,Kazakhstan,80.6,95,100,-112.5,100.0,100,84,Juniors,B,F,Raw,
4,Michelle de Jong #1,1998,Netherlands,81.95,90,-95,95,95.0,95,84,Juniors,B,F,Raw,
1,Regina Meier,1999,Kazakhstan,115.6,90,95,100,100.0,100,84+,Juniors,B,F,Raw,
2,Olesya Lukina,1999,Russia,118,75,82.5,-87.5,82.5,82.5,84+,Juniors,B,F,Raw,
1,Kristina Normantienė,1981,Lithuania,46.5,45,50,-55,50.0,50,47,Masters 1,B,F,Raw,
1,Oksana Hordiienko,1977,Ukraine,51.4,60,65,67.5,67.5,67.5,52,Masters 1,B,F,Raw,
1,Erika Salamon,1973,Hungary,56.4,87.5,92.5,-103,92.5,92.5,57,Masters 1,B,F,Raw,
2,Jadwiga Radwańska',1975,Poland,53.95,75,80,-85,80.0,80,57,Masters 1,B,F,Raw,
3,Zaneta Possehl,1977,Germany,56.7,67.5,72.5,-77.5,72.5,72.5,57,Masters 1,B,F,Raw,
1,Anna Kadatska,1977,Ukraine,60,90,95,-100,95.0,95,63,Masters 1,B,F,Raw,
2,Natasja Martis,1975,Netherlands,61.3,82.5,85,-87.5,85.0,85,63,Masters 1,B,F,Raw,
3,Anne Heikkilä,1978,Finland,60.25,82.5,-87.5,-87.5,82.5,82.5,63,Masters 1,B,F,Raw,
4,Lina Liatukienė,1973,Lithuania,58.1,67.5,70,72.5,72.5,72.5,63,Masters 1,B,F,Raw,
1,Beverley Rodgers,1972,UK,68.65,82.5,87.5,-92.5,87.5,87.5,69,Masters 1,B,F,Raw,
2,Pauliina Suomela,1976,Finland,66.15,82.5,-85,-85,82.5,82.5,69,Masters 1,B,F,Raw,
3,Nina Ruuhivirta,1977,Finland,67.1,75,82.5,-85,82.5,82.5,69,Masters 1,B,F,Raw,
1,Iolanda Costa Zolyome,1977,Brazil,74,107.5,112.5,115,115.0,115,76,Masters 1,B,F,Raw,
2,Gitana Lipskienė,1979,Lithuania,75.6,87.5,90,92.5,92.5,92.5,76,Masters 1,B,F,Raw,
3,Miranda van de Pol,1980,Netherlands,74.1,82.5,85,87.5,87.5,87.5,76,Masters 1,B,F,Raw,
4,Petra Höglund,1975,Sweden,70.9,77.5,82.5,-87.5,82.5,82.5,76,Masters 1,B,F,Raw,
5,Tetyana Shavidze,1977,Ukraine,72.5,70,75,77.5,77.5,77.5,76,Masters 1,B,F,Raw,
1,Tiina Voho,1973,Finland,77.75,95,97.5,-100,97.5,97.5,84,Masters 1,B,F,Raw,
2,Mia Öhrnell,1972,Sweden,80.6,92.5,-97.5,-100,92.5,92.5,84,Masters 1,B,F,Raw,
1,Jacqueline Gough,1977,UK,153.2,110,115,-122.5,115.0,115,84+,Masters 1,B,F,Raw,
2,Sarah Bouskill,1979,UK,118.65,100,107.5,110,110.0,110,84+,Masters 1,B,F,Raw,
3,Jeanette Denz,1974,Germany,94.5,82.5,87.5,90,90.0,90,84+,Masters 1,B,F,Raw,
1,Christine Lesellier,1963,France,51.75,-75,75,-80,75.0,75,52,Masters 2,B,F,Raw,
2,Vitalija Matiejauskienė,1965,Lithuania,49.85,30,-35,35,35.0,35,52,Masters 2,B,F,Raw,
1,Gabriela Hirner,1965,Germany,56.1,70,77.5,-80,77.5,77.5,57,Masters 2,B,F,Raw,
1,Viktoria Cederholm,1969,Sweden,58,72.5,77.5,80,80.0,80,63,Masters 2,B,F,Raw,
2,Tatjana Špakova,1970,Latvia,59.1,75,77.5,-80,77.5,77.5,63,Masters 2,B,F,Raw,
3,Marie-France Cabos,1967,France,57.75,72.5,75,-77.5,75.0,75,63,Masters 2,B,F,Raw,
4,Rita Shergold,1965,UK,59.9,60,65,-67.5,65.0,65,63,Masters 2,B,F,Raw,
1,Lincoln Rose,1970,UK,67.9,75,80,-87.5,80.0,80,69,Masters 2,B,F,Raw,
2,Kelly Clark #1,1964,UK,66.9,40,45,47.5,47.5,47.5,69,Masters 2,B,F,Raw,
1,Annette Pedersen,1968,Denmark,70,90,95,-100,95.0,95,76,Masters 2,B,F,Raw,
2,Minna Elgland,1965,Finland,75.8,85,90,-92.5,90.0,90,76,Masters 2,B,F,Raw,
3,Liudmila Samoilova,1969,Latvia,71.6,72.5,75,-77.5,75.0,75,76,Masters 2,B,F,Raw,
4,Julie Briggs,1962,UK,75,45,50,52.5,52.5,52.5,76,Masters 2,B,F,Raw,
1,Tutta Mattsson,1971,Finland,83.2,87.5,90,-95,90.0,90,84,Masters 2,B,F,Raw,
2,Dorota Szczepanik,1969,Poland,83,80,82.5,-85,82.5,82.5,84,Masters 2,B,F,Raw,
3,Giedrė Vidžiūnienė,1966,Lithuania,76.2,55,57.5,-60,57.5,57.5,84,Masters 2,B,F,Raw,
1,Jo Whiteley,1970,UK,125.95,85,90,95,95.0,95,84+,Masters 2,B,F,Raw,
1,Ursula Häuser,1960,Germany,72.6,67.5,72.5,75,75.0,75,76,Masters 3,B,F,Raw,
1,Françoise Heligon,1943,France,48.8,40,45,-47.5,45.0,45,52,Masters 4,B,F,Raw,
1,Britten Fernström,1949,Sweden,56,52.5,-55,-55,52.5,52.5,57,Masters 4,B,F,Raw,
2,Andrée Duboux,1946,France,54.9,45,50,-52.5,50.0,50,57,Masters 4,B,F,Raw,
3,Judith McGauley,1948,UK,52.7,27.5,30,32.5,32.5,32.5,57,Masters 4,B,F,Raw,
1,Anita Thimm,1950,Germany,60.05,60,62.5,65.0,65.0,65,63,Masters 4,B,F,Raw,
2,Viktorija Rumjanceva,1942,Latvia,61.1,-52.5,52.5,57.5,57.5,57.5,63,Masters 4,B,F,Raw,
1,Yana Zadorina,1982,Russia,46.6,105,110,115,115.0,115,47,Open,B,F,Single-ply,
2,Oksana Motrunchyk,1992,Ukraine,46.3,85,87.5,-90,87.5,87.5,47,Open,B,F,Single-ply,
3,Mariia Polianska,2003,Ukraine,46.95,77.5,85,-95,85.0,85,47,Open,B,F,Single-ply,
4,Kristina Tsoy,1991,Kazakhstan,45.8,-80,80,-87.5,80.0,80,47,Open,B,F,Single-ply,
1,Oksana Vedmid,1991,Ukraine,51.6,-125,125,135,135.0,135,52,Open,B,F,Single-ply,
2,Alena Goncharenko,1997,Russia,50.85,-130,130,-135,130.0,130,52,Open,B,F,Single-ply,
3,Marcela Sandvik,1974,Finland,51.4,90,,,90.0,90,52,Open,B,F,Single-ply,
1,Larisa Kotkova,1974,Russia,56.5,147.5,155,-166,155.0,155,57,Open,B,F,Single-ply,
2,Maria Frank,1984,Canada,54.7,-115,115,122.5,122.5,122.5,57,Open,B,F,Single-ply,
3,Mariana Kolyadenko,1991,Ukraine,53.6,90,95,-100,95.0,95,57,Open,B,F,Single-ply,
1,Viktoria Yultsova,2002,Russia,62.5,145,150,-155,150.0,150,63,Open,B,F,Single-ply,
2,Linn Hèlen Solbakken Fjeld,1992,Norway,61.8,-130,130,-150,130.0,130,63,Open,B,F,Single-ply,
3,Ľubica Polkorábová,1988,Slovakia,61.15,-112.5,112.5,-130,112.5,112.5,63,Open,B,F,Single-ply,
4,Liisa Peri,1995,Estonia,58.55,87.5,-95,-100,87.5,87.5,63,Open,B,F,Single-ply,
1,Matilda Vilmar,1996,Sweden,68.05,155,160,178.5,178.5,178.5,69,Open,B,F,Single-ply,
2,Iuliia Chistiakova,1989,Russia,69,147.5,152.5,155,155.0,155,69,Open,B,F,Single-ply,
3,Zhadyra Kabieva,1992,Kazakhstan,67.9,140,147.5,152.5,152.5,152.5,69,Open,B,F,Single-ply,
4,Ingvild Hansen,1994,Norway,66.45,132.5,140,-147.5,140.0,140,69,Open,B,F,Single-ply,
5,Faye Jordan,1982,UK,67.75,110,115,-120,115.0,115,69,Open,B,F,Single-ply,
DQ,Sonja Stefanie Krüger,1999,Germany,68.8,-182.5,-185,-185,,,69,Open,B,F,Single-ply,
1,Xeniya Khan,1987,Kazakhstan,75.7,160,165,-172.5,165.0,165,76,Open,B,F,Single-ply,
2,Galina Liubeznaia,1980,Russia,75.05,152.5,-160,-170,152.5,152.5,76,Open,B,F,Single-ply,
3,Linda Kristensen,1977,Norway,75.6,152.5,-157.5,-157.5,152.5,152.5,76,Open,B,F,Single-ply,
4,Pernille Lindstroem,1988,Denmark,75.35,-137.5,137.5,-152.5,137.5,137.5,76,Open,B,F,Single-ply,
5,Rachel Steedman,1995,UK,70.4,115,-122.5,-122.5,115.0,115,76,Open,B,F,Single-ply,
DQ,Annemia Pretzmann,1992,Denmark,74.3,-140,-145,-145,,,76,Open,B,F,Single-ply,
1,Liudmila Protchenko,1986,Russia,83.1,-207.5,207.5,-213.5,207.5,207.5,84,Open,B,F,Single-ply,
2,Zhadyra Bermukhambetova,1986,Kazakhstan,82.4,170,-185,-185,170.0,170,84,Open,B,F,Single-ply,
3,Aziza Abduraimova,1989,Kazakhstan,82.65,125,132.5,142.5,142.5,142.5,84,Open,B,F,Single-ply,
4,Miroslava Horáková,1988,Czechia,83.15,85,92.5,-100,92.5,92.5,84,Open,B,F,Single-ply,
1,Ielja Strik,1973,Netherlands,89.6,175,180,185,185.0,185,84+,Open,B,F,Single-ply,
2,Yana Pokazanyeva,1997,Russia,92.5,180,-185,-187.5,180.0,180,84+,Open,B,F,Single-ply,
3,Kate Sweatman,1985,UK,127.4,-165,165,-182.5,165.0,165,84+,Open,B,F,Single-ply,
4,Małgorzata Mazur,1995,Poland,94.45,160,-170,-172.5,160.0,160,84+,Open,B,F,Single-ply,
5,Inna Orobets,1971,Ukraine,109.25,160,-170,-170,160.0,160,84+,Open,B,F,Single-ply,
DQ,Xeniya Okatenko,1994,Kazakhstan,114.3,-175,-175,-175,,,84+,Open,B,F,Single-ply,
1,Alina Udaltsova,2003,Russia,46.95,87.5,90.5,93.5,93.5,93.5,47,Sub-Juniors,B,F,Single-ply,
1,Adelya Doskul,2003,Kazakhstan,51.3,-75,75,80,80.0,80,52,Sub-Juniors,B,F,Single-ply,
2,Polina Zakharova,2003,Russia,48.1,70,-75,-77.5,70.0,70,52,Sub-Juniors,B,F,Single-ply,
1,Arina Demidova,2003,Russia,56.6,130,135,145.5,145.5,145.5,57,Sub-Juniors,B,F,Single-ply,
2,Veronika Bordiuh,2003,Ukraine,56.15,90,-100,-100,90.0,90,57,Sub-Juniors,B,F,Single-ply,
3,Veronika Yakusheva,2005,Kazakhstan,56.4,40,-45,-47.5,40.0,40,57,Sub-Juniors,B,F,Single-ply,
1,Olga Toropitsina,2003,Russia,61.15,90,95,100,100.0,100,63,Sub-Juniors,B,F,Single-ply,
2,Olga Filatova,2003,Russia,62.7,97.5,100,-102.5,100.0,100,63,Sub-Juniors,B,F,Single-ply,
3,Anastasiya Butenko,2003,Kazakhstan,57.75,80,-87.5,-95,80.0,80,63,Sub-Juniors,B,F,Single-ply,
1,Veronika Dyakova,2004,Russia,65.65,95,100,105,105.0,105,69,Sub-Juniors,B,F,Single-ply,
2,Justyna Pietrykowska,2005,Poland,68.25,92.5,97.5,-102.5,97.5,97.5,69,Sub-Juniors,B,F,Single-ply,
1,Karina Nikolaenko,2003,Russia,74.35,95,-100,100,100.0,100,76,Sub-Juniors,B,F,Single-ply,
2,Vitalina Chichmarenko,2003,Kazakhstan,69.2,75,-85,-95,75.0,75,76,Sub-Juniors,B,F,Single-ply,
1,Tatyana Bykova,2005,Russia,83.2,105,112.5,117.5,117.5,117.5,84,Sub-Juniors,B,F,Single-ply,
2,Eliise Mikomägi,2003,Estonia,76.15,92.5,97.5,100,100.0,100,84,Sub-Juniors,B,F,Single-ply,
3,Marelin Jüriado,2006,Estonia,80.3,90,-97.5,-100,90.0,90,84,Sub-Juniors,B,F,Single-ply,
1,Anastasiia Ogirenko,2004,Russia,97.8,140,-147.5,147.5,147.5,147.5,84+,Sub-Juniors,B,F,Single-ply,
2,Diana Malykhina,2003,Kazakhstan,118,-95,95,-142.5,95.0,95,84+,Sub-Juniors,B,F,Single-ply,
1,Yulia Ksenzova,2001,Russia,46.7,90,92.5,97.5,97.5,97.5,47,Juniors,B,F,Single-ply,
2,Ekaterina Volodko,2001,Russia,46.15,90,-95,-95,90.0,90,47,Juniors,B,F,Single-ply,
3,Aliya Kalzhanova,2000,Kazakhstan,46.6,72.5,80,-90,80.0,80,47,Juniors,B,F,Single-ply,
1,Anastasiya Zhurbina,1999,Kazakhstan,51.5,90,-92.5,,90.0,90,52,Juniors,B,F,Single-ply,
2,Diana Nuriddinova,2001,Kazakhstan,51.7,55,65,-75,65.0,65,52,Juniors,B,F,Single-ply,
1,Kseniia Materinskaia,2002,Russia,55.8,-127.5,127.5,-130,127.5,127.5,57,Juniors,B,F,Single-ply,
2,Iuliia Ivanova,1998,Russia,56.2,120,125,-130,125.0,125,57,Juniors,B,F,Single-ply,
3,Alona Kaniuka,1998,Ukraine,56.9,60,65,70,70.0,70,57,Juniors,B,F,Single-ply,
1,Iuliia Vasileva,2000,Russia,62.2,-115,-115,115,115.0,115,63,Juniors,B,F,Single-ply,
2,Natália Mikulášová,1999,Slovakia,60.25,100,-115,-115,100.0,100,63,Juniors,B,F,Single-ply,
1,Asel Nurkenova,2000,Kazakhstan,67.1,100,,,100.0,100,69,Juniors,B,F,Single-ply,
1,Anna Vozmilova,2001,Russia,75.6,125,130,140,140.0,140,76,Juniors,B,F,Single-ply,
2,Valeriya Kochina,1998,Kazakhstan,69.6,125,130,-135,130.0,130,76,Juniors,B,F,Single-ply,
3,Alona Borshchevska,1999,Ukraine,75.5,-125,125,-132.5,125.0,125,76,Juniors,B,F,Single-ply,
4,Nigara Abdyrova,2002,Kazakhstan,69.95,90,100,-125,100.0,100,76,Juniors,B,F,Single-ply,
1,Alevtina Nikolaeva,1998,Kazakhstan,82.4,125,-135,137.5,137.5,137.5,84,Juniors,B,F,Single-ply,
2,Anastasia Minaeva,1998,Russia,83.65,125,-135,137.5,137.5,137.5,84,Juniors,B,F,Single-ply,
1,Regina Meier,1999,Kazakhstan,114.3,130,140,145,145.0,145,84+,Juniors,B,F,Single-ply,
2,Tomiris Korniyenko,1998,Kazakhstan,86.3,60,115,-140,115.0,115,84+,Juniors,B,F,Single-ply,
1,Erika Salamon,1973,Hungary,56.15,102.5,-105,-105,102.5,102.5,57,Masters 1,B,F,Single-ply,
2,Jadwiga Radwańska',1975,Poland,54.1,85,90,-102.5,90.0,90,57,Masters 1,B,F,Single-ply,
3,Danguolė Popovič,1974,Lithuania,56.85,-60,62.5,65,65.0,65,57,Masters 1,B,F,Single-ply,
4,Manuela Horst,1972,Germany,56.45,60,-62.5,-65,60.0,60,57,Masters 1,B,F,Single-ply,
1,Anne Heikkilä,1978,Finland,61.15,105,110,112.5,112.5,112.5,63,Masters 1,B,F,Single-ply,
2,Annelie Izindre,1972,Sweden,60.5,97.5,-100,100,100.0,100,63,Masters 1,B,F,Single-ply,
3,Galit Goldshmid,1977,UK,62,100,-107.5,-107.5,100.0,100,63,Masters 1,B,F,Single-ply,
4,Mélisa Meunier,1975,France,59.8,72.5,75,-77.5,75.0,75,63,Masters 1,B,F,Single-ply,
1,Svetlana Trofimova,1978,Russia,68.25,102.5,-127.5,127.5,127.5,127.5,69,Masters 1,B,F,Single-ply,
2,Wendie Kirkland,1972,UK,67.5,100,-110,110,110.0,110,69,Masters 1,B,F,Single-ply,
DQ,Petra Höglund,1975,Sweden,67.9,-125,-125,-125,,,69,Masters 1,B,F,Single-ply,
1,Beverley Rodgers,1972,UK,69.4,120,-122.5,-132.5,120.0,120,76,Masters 1,B,F,Single-ply,
2,Ulrika Johansson,1972,Sweden,73.1,100,-122.5,-122.5,100.0,100,76,Masters 1,B,F,Single-ply,
1,Tiina Voho,1973,Finland,76.9,90,127.5,-130,127.5,127.5,84,Masters 1,B,F,Single-ply,
1,Sarah Bouskill,1979,UK,120.06,150,152.5,-165,152.5,152.5,84+,Masters 1,B,F,Single-ply,
2,Jacqueline Gough,1977,UK,153.2,-150,150,-165,150.0,150,84+,Masters 1,B,F,Single-ply,
1,Oksana Ibragimova,1963,Russia,46.45,60,65,70,70.0,70,47,Masters 2,B,F,Single-ply,
1,Elena Polichuk,1962,Russia,56.5,60,65,-70,65.0,65,57,Masters 2,B,F,Single-ply,
DQ,Gabriela Hirner,1965,Germany,55.9,-105,-105,,,,57,Masters 2,B,F,Single-ply,
1,Maureen Gordon,1964,UK,61.5,87.5,-95,97.5,97.5,97.5,63,Masters 2,B,F,Single-ply,
2,Marie-France Cabos,1967,France,57.45,-92.5,92.5,95,95.0,95,63,Masters 2,B,F,Single-ply,
1,Valentina Nelyubova,1966,Russia,67.8,122.5,-130,-130,122.5,122.5,69,Masters 2,B,F,Single-ply,
2,Florence Leccese,1969,France,64.75,72.5,75,77.5,77.5,77.5,69,Masters 2,B,F,Single-ply,
3,Kelly Clark #1,1964,UK,66.25,67.5,75,-80,75.0,75,69,Masters 2,B,F,Single-ply,
1,Danguolė Laurinavičienė,1971,Lithuania,69.65,57.5,60,-65,60.0,60,76,Masters 2,B,F,Single-ply,
1,Giedrė Vidžiūnienė,1966,Lithuania,76.25,75,82.5,-87.5,82.5,82.5,84,Masters 2,B,F,Single-ply,
2,Erzsébet Schneider,1965,Hungary,79.9,82.5,-87.5,-90,82.5,82.5,84,Masters 2,B,F,Single-ply,
1,Jo Whiteley,1970,UK,123.35,130,140,152.5,152.5,152.5,84+,Masters 2,B,F,Single-ply,
1,Brigitte Landon,1961,France,48.55,62.5,65,,65.0,65,52,Masters 3,B,F,Single-ply,
1,Audhild Mathiesen,1957,Norway,55.6,77.5,80,82.5,82.5,82.5,57,Masters 3,B,F,Single-ply,
1,Françoise Heligon,1943,France,48.8,47.5,50,-52.5,50.0,50,52,Masters 4,B,F,Single-ply,
1,Chiyomi Sawa,1949,Japan,74.5,90.0,100.0,-105,100.0,100,76,Masters 4,B,F,Single-ply,
