Division,WeightClassKg,Place,Name,Team,BodyweightKg,Best3SquatKg,Best3BenchKg,Best3DeadliftKg,TotalKg,Equipment,Event,Sex
Boys,51.71,1,Chris Rodriguez,Iraan,50.17,131.54,90.72,140.61,362.87,Single-ply,SBD,M
Boys,51.71,2,Michael Ramsey,Cross Plains,49.26,136.08,68.04,156.49,360.61,Single-ply,SBD,M
Boys,51.71,3,Edward Hernandez,Eldorado,51.17,145.15,74.84,140.61,360.61,Single-ply,SBD,M
Boys,51.71,4,Oscar Trejo,Sunray,51.53,140.61,56.7,156.49,353.8,Single-ply,SBD,M
Boys,51.71,5,Jonathon Luna,Tulia,50.26,122.47,74.84,147.42,344.73,Single-ply,SBD,M
Boys,51.71,6,Jaxon Sullivan,Clyde,50.8,117.93,65.77,127.01,310.71,Single-ply,SBD,M
Boys,51.71,7,Gunnar McNeill,San Angelo Grape Creek,50.26,115.67,58.97,120.2,294.84,Single-ply,SBD,M
Boys,51.71,8,Derrick Seibman,Childress,51.71,102.06,65.77,124.74,292.57,Single-ply,SBD,M
Boys,51.71,DQ,Kisan Valenzuela,Kermit,51.44,,,,,Single-ply,SBD,M
Boys,51.71,DQ,Weston Griswold,Lazbuddie,51.44,,,,,Single-ply,SBD,M
Boys,51.71,DQ,Zack Tovar,Abernathy,51.71,,,,,Single-ply,SBD,M
Boys,55.79,1,Troy Morales,Floydada,53.43,151.95,86.18,158.76,396.89,Single-ply,SBD,M
Boys,59.87,2,Andy Duarte,Bovina,56.02,147.42,86.18,161.03,394.63,Single-ply,SBD,M
Boys,55.79,3,Landon Morgan,Sundown,54.98,142.88,79.38,167.83,390.09,Single-ply,SBD,M
Boys,55.79,4,Ryan Hurst,San Angelo Grape Creek,55.16,158.76,68.04,158.76,385.55,Single-ply,SBD,M
Boys,59.87,5,Tomas Vega,Alpine,56.02,145.15,74.84,158.76,378.75,Single-ply,SBD,M
Boys,55.79,6,Eric Rivas,Seagraves,54.88,129.27,79.38,136.08,344.73,Single-ply,SBD,M
Boys,55.79,7,Mario Manquero,Garden City,55.61,127.01,74.84,142.88,344.73,Single-ply,SBD,M
Boys,55.79,8,Tristin Cauthen,Clyde,54.88,120.2,79.38,140.61,340.19,Single-ply,SBD,M
Boys,55.79,9,Esteban Garcia,Sonora,54.88,108.86,77.11,133.81,319.78,Single-ply,SBD,M
Boys,55.79,DQ,Julian Gaspar,Sunray,55.43,,,,,Single-ply,SBD,M
Boys,59.87,1,Edward Garza,Sonora,59.42,174.63,106.59,174.63,455.86,Single-ply,SBD,M
Boys,59.87,2,Austin Martinez,Mertzon Irion County,58.79,167.83,104.33,172.37,444.52,Single-ply,SBD,M
Boys,59.87,3,Ben Alvarez,Floydada,59.15,147.42,102.06,174.63,424.11,Single-ply,SBD,M
Boys,59.87,4,Kiley Davila,Wellman-Union,58.79,158.76,97.52,158.76,415.04,Single-ply,SBD,M
Boys,59.87,5,DJ Brown,Post,59.42,145.15,86.18,174.63,405.97,Single-ply,SBD,M
Boys,67.13,6,Taylor Baum,Coleman,60.1,149.69,102.06,154.22,405.97,Single-ply,SBD,M
Boys,59.87,7,Corey Barker,Clarendon,59.69,136.08,92.99,170.1,399.16,Single-ply,SBD,M
Boys,59.87,8,Michael Vargas #1,Ozona,58.97,156.49,72.57,151.95,381.02,Single-ply,SBD,M
Boys,67.13,9,Dalton Doss,Forsan,59.96,142.88,83.91,151.95,378.75,Single-ply,SBD,M
Boys,59.87,DQ,Bryce DeVore,Hawley,59.51,,,,,Single-ply,SBD,M
Boys,74.84,1,Brett DeVore,Hawley,67.22,204.12,104.33,229.06,537.51,Single-ply,SBD,M
Boys,67.13,2,Davy Salazar,Childress,64.95,165.56,120.2,190.51,476.27,Single-ply,SBD,M
Boys,67.13,3,Dalton Pullin,Seymour,66.68,181.44,90.72,185.97,458.13,Single-ply,SBD,M
Boys,67.13,4,Alfredo Sanchez,Muleshoe,64.14,163.29,92.99,192.78,449.06,Single-ply,SBD,M
Boys,74.84,5,Matthew Fennimore,Slaton,67.36,188.24,86.18,174.63,449.06,Single-ply,SBD,M
Boys,67.13,6,Tim Davila,Forsan,66.22,174.63,99.79,172.37,446.79,Single-ply,SBD,M
Boys,67.13,7,Jose Rangel,Roscoe,66.5,176.9,106.59,163.29,446.79,Single-ply,SBD,M
Boys,67.13,8,Daniel Perez,McCamey,67.13,161.03,86.18,190.51,437.72,Single-ply,SBD,M
Boys,67.13,9,Jeremy Curtis,Mertzon Irion County,65.95,181.44,74.84,176.9,433.18,Single-ply,SBD,M
Boys,67.13,DQ,Nick Aguirre,Tahoka,66.41,,,,,Single-ply,SBD,M
Boys,74.84,1,Jorge Castillo,Rankin,73.84,213.19,147.42,233.6,594.21,Single-ply,SBD,M
Boys,74.84,2,Ian Pryor,Merkel,72.57,213.19,115.67,195.04,523.9,Single-ply,SBD,M
Boys,74.84,3,Justin Coker,Coahoma,69.49,195.04,122.47,204.12,521.63,Single-ply,SBD,M
Boys,74.84,4,Kyle Reno,Tahoka,72.85,185.97,122.47,210.92,519.36,Single-ply,SBD,M
Boys,74.84,5,Randy Zamora,Meadow,72.39,192.78,117.93,197.31,508.02,Single-ply,SBD,M
Boys,74.84,6,Kyle Dean,Ozona,71.67,206.38,104.33,188.24,498.95,Single-ply,SBD,M
Boys,74.84,7,Garrett Rosson,Seagraves,72.3,204.12,102.06,192.78,498.95,Single-ply,SBD,M
Boys,74.84,8,Zane Herrin,Forsan,72.48,181.44,81.65,204.12,467.2,Single-ply,SBD,M
Boys,74.84,DQ,Jamie Bingham,Tahoka,74.3,,,,,Single-ply,SBD,M
Boys,74.84,DQ,John Crutcher,Wellman-Union,70.76,174.63,,,,Single-ply,SBD,M
Boys,74.84,DQ,Dakota Morris,Clyde,74.84,,,,,Single-ply,SBD,M
Boys,82.1,1,Bryan Vela,Meadow,81.65,238.14,142.88,272.16,653.17,Single-ply,SBD,M
Boys,82.1,2,Brad Wills,Clyde,79.74,238.14,158.76,229.06,625.96,Single-ply,SBD,M
Boys,82.1,3,Carl Pendergrast,Rising Star,79.2,226.8,108.86,219.99,555.65,Single-ply,SBD,M
Boys,82.1,4,Levi Irby,Hawley,80.65,204.12,113.4,215.46,532.97,Single-ply,SBD,M
Boys,82.1,5,Peyton Rodriguez #1,Coahoma,79.92,204.12,122.47,195.04,521.63,Single-ply,SBD,M
Boys,82.1,6,Jeremy Mandrel,Olton,80.65,183.7,102.06,192.78,478.54,Single-ply,SBD,M
Boys,82.1,DQ,Caleb Miller,Clyde,80.29,192.78,,,,Single-ply,SBD,M
Boys,82.1,DQ,Landon Jones,Roscoe,79.02,181.44,,,,Single-ply,SBD,M
Boys,82.1,DQ,Jhett Wilcox,Whiteface,79.83,,,,,Single-ply,SBD,M
Boys,82.1,DQ,Jesse Daniels,Ballinger,79.47,,,,,Single-ply,SBD,M
Boys,89.81,1,Duncan Welch,Friona,89.27,213.19,147.42,231.33,591.94,Single-ply,SBD,M
Boys,89.81,2,Paden Cornett,Seagraves,88.36,213.19,136.08,213.19,562.45,Single-ply,SBD,M
Boys,89.81,3,Richie Allen,Wellman-Union,89.18,219.99,113.4,222.26,555.65,Single-ply,SBD,M
Boys,89.81,4,Shaq Thompson,Lockney,82.74,199.58,142.88,204.12,546.58,Single-ply,SBD,M
Boys,89.81,5,Rex Mathis,Floydada,86.82,208.65,122.47,213.19,544.31,Single-ply,SBD,M
Boys,89.81,6,Tanner Fannin,Clyde,87.18,204.12,111.13,219.99,535.24,Single-ply,SBD,M
Boys,89.81,7,Spencer Chance,Sundown,87.09,204.12,122.47,206.38,532.97,Single-ply,SBD,M
Boys,89.81,8,Nick Lemmond,Seymour,87.45,204.12,122.47,195.04,521.63,Single-ply,SBD,M
Boys,89.81,9,Miguel Lopez #5,Big Lake Reagan County,87.36,197.31,95.25,219.99,512.56,Single-ply,SBD,M
Boys,89.81,DQ,Ramiro Reyes,Colorado City Colorado,88.18,256.28,163.29,,,Single-ply,SBD,M
Boys,109.77,1,DeVaughntae Norman,Stamford,99.97,260.82,136.08,247.21,644.1,Single-ply,SBD,M
Boys,99.79,2,Juan DeOchoa,Floydada,98.7,219.99,151.95,231.33,603.28,Single-ply,SBD,M
Boys,99.79,3,Levi Salinas,Slaton,99.34,233.6,138.35,215.46,587.4,Single-ply,SBD,M
Boys,99.79,4,Jordan Stokes,Clyde,95.53,219.99,120.2,238.14,578.33,Single-ply,SBD,M
Boys,99.79,5,Austin Thomas,Cross Plains,96.62,249.48,115.67,199.58,564.72,Single-ply,SBD,M
Boys,99.79,6,Brett Cummings,Stinnett West Texas,97.34,210.92,129.27,219.99,560.19,Single-ply,SBD,M
Boys,99.79,7,Zack Martinez,Tuscola Jim Ned,96.98,217.72,133.81,204.12,555.65,Single-ply,SBD,M
Boys,99.79,DQ,Gerald Williams,San Angelo Grape Creek,99.25,,,,,Single-ply,SBD,M
Boys,99.79,DQ,Justin Goble,Clyde,92.71,226.8,136.08,,,Single-ply,SBD,M
Boys,99.79,DQ,Anthony Mata,Eldorado,99.79,,,,,Single-ply,SBD,M
Boys,109.77,1,George Vela,Eden,108.41,265.35,120.2,244.94,630.49,Single-ply,SBD,M
Boys,109.77,2,Daniel Montez,Roby,105.69,240.4,170.1,217.72,628.23,Single-ply,SBD,M
Boys,109.77,3,Corey Hatcher,Roscoe,100.7,233.6,129.27,226.8,589.67,Single-ply,SBD,M
Boys,109.77,4,Joseph DeOchoa,Floydada,104.05,215.46,136.08,233.6,585.13,Single-ply,SBD,M
Boys,109.77,5,Jeff King,Cross Plains,107.23,226.8,129.27,197.31,553.38,Single-ply,SBD,M
Boys,109.77,6,Christian Garcia,Lubbock Roosevelt,100.24,208.65,133.81,197.31,539.77,Single-ply,SBD,M
Boys,109.77,7,Coy Carney,San Angelo Grape Creek,102.51,183.7,120.2,210.92,514.83,Single-ply,SBD,M
Boys,109.77,8,Todd Padilla,Friona,100.43,188.24,120.2,199.58,508.02,Single-ply,SBD,M
Boys,109.77,9,Roy Alaniz,Stamford,104.51,195.04,115.67,195.04,505.76,Single-ply,SBD,M
Boys,109.77,10,Angel Aguilera,Big Lake Reagan County,107.32,204.12,115.67,181.44,501.22,Single-ply,SBD,M
Boys,109.77,11,Osbauldo Castaneda,Sonora,104.14,204.12,127.01,167.83,498.95,Single-ply,SBD,M
Boys,109.77,DQ,Matt Cruz,Abernathy,100.7,,,,,Single-ply,SBD,M
Boys,124.74,1,Fabian Gutierrez,Colorado City Colorado,120.75,256.28,151.95,247.21,655.44,Single-ply,SBD,M
Boys,124.74,2,Tanner Holt,San Angelo Grape Creek,120.56,238.14,147.42,249.48,635.03,Single-ply,SBD,M
Boys,124.74,3,Ricky Ciuba,Mertzon Irion County,114.49,244.94,149.69,238.14,632.76,Single-ply,SBD,M
Boys,124.74,4,Rhett Lawrence,Clyde,111.49,226.8,170.1,226.8,623.69,Single-ply,SBD,M
Boys,124.74,5,Eric Martinez,Olton,116.57,249.48,151.95,215.46,616.89,Single-ply,SBD,M
Boys,124.74,6,Michael Molina,McCamey,115.12,258.55,142.88,204.12,605.55,Single-ply,SBD,M
Boys,124.74,7,Jansen Fox,Rising Star,121.29,226.8,124.74,199.58,551.11,Single-ply,SBD,M
Boys,124.74,8,Dustin Fontana,Coahoma,112.31,206.38,122.47,215.46,544.31,Single-ply,SBD,M
Boys,124.74,DQ,Ed Aguado,Anson,113.4,204.12,120.2,,,Single-ply,SBD,M
Boys,124.74,DQ,Cagen Chaney,Iraan,118.93,226.8,122.47,,,Single-ply,SBD,M
Boys,124.74+,1,Clayton Smiley,Friona,157.67,278.96,156.49,226.8,662.24,Single-ply,SBD,M
Boys,124.74+,2,Cristian Venegas,Crane,133.54,263.08,165.56,208.65,637.3,Single-ply,SBD,M
Boys,124.74+,3,John Espinosa,Eldorado,152.95,249.48,149.69,201.85,601.01,Single-ply,SBD,M
Boys,124.74+,4,Michael Staudenraus,Slaton,130.73,238.14,113.4,206.38,557.92,Single-ply,SBD,M
Boys,124.74+,5,Marquise Trevino,Muleshoe,135.99,204.12,127.01,226.8,557.92,Single-ply,SBD,M
Boys,124.74+,6,Eric Garcia,Lubbock Roosevelt,126.01,208.65,136.08,208.65,553.38,Single-ply,SBD,M
Boys,124.74+,7,Tanner Thomason,Plains,127.37,208.65,102.06,226.8,537.51,Single-ply,SBD,M
Boys,124.74+,8,Daniel Meza,Friona,160.12,206.38,127.01,176.9,510.29,Single-ply,SBD,M
Boys,124.74+,DQ,Brayden Newcomb,Hawley,129,,,,,Single-ply,SBD,M
Boys,124.74+,DQ,Mike Villareal,Coahoma,177.72,226.8,92.99,,,Single-ply,SBD,M
