Place,Name,BirthDate,BirthYear,Country,BodyweightKg,Bench1Kg,Bench2Kg,Bench3Kg,Best3BenchKg,TotalKg,WeightClassKg,Division,Event,Sex,Equipment
1,Albina Yussupova,,2002,Kazakhstan,42.5,40,-42.5,42.5,42.5,42.5,43,Sub-Juniors,B,F,Raw
2,Anastasiia Filatova,,2003,Russia,41.35,37.5,40,-42.5,40,40,43,Sub-Juniors,B,F,Raw
1,Alina Rassamakhina,,2001,Russia,46.55,65,70,-71,70,70,47,Sub-Juniors,B,F,Raw
2,Kailey Brookshire,,2002,USA,46.9,55,60,-62.5,60,60,47,Sub-Juniors,B,F,Raw
3,Cocoa Watanabe,,2004,Japan,46.35,-50,50,-60,50,50,47,Sub-Juniors,B,F,Raw
1,Liszette Ortiz-Rosado,,2001,USA,51.1,77.5,85,-92.5,85,85,52,Sub-Juniors,B,F,Raw
2,Veronika Kashina,,2001,Russia,51.3,57.5,62.5,67.5,67.5,67.5,52,Sub-Juniors,B,F,Raw
3,Christine Potter,,2001,USA,51.35,55,60,-70,60,60,52,Sub-Juniors,B,F,Raw
1,Yekaterina Rashidova,,2001,Kazakhstan,53.55,55,60,62.5,62.5,62.5,57,Sub-Juniors,B,F,Raw
1,Tamiris Sovetova,,2002,Kazakhstan,61.35,70,75,80,80,80,63,Sub-Juniors,B,F,Raw
2,Suvi-Maaria Heinonen,,2002,Finland,62.65,65,72.5,-75,72.5,72.5,63,Sub-Juniors,B,F,Raw
1,Kateryna Paraskevych,,2001,Ukraine,71.6,75,77.5,80,80,80,72,Sub-Juniors,B,F,Raw
2,Mbasa Qilingele,,2001,South Africa,70.15,67.5,-70,70,70,70,72,Sub-Juniors,B,F,Raw
1,Iroda Abdyrova,,2001,Kazakhstan,81.3,80,-85,87.5,87.5,87.5,84,Sub-Juniors,B,F,Raw
2,Galina Poliakova,,2003,Russia,82.5,80,85,-87.5,85,85,84,Sub-Juniors,B,F,Raw
1,Anna Vozmilova,,2001,Russia,87.55,85,90,-92.5,90,90,84+,Sub-Juniors,B,F,Raw
2,Mio Hayashi,,2001,Japan,84.05,80,87.5,-90,87.5,87.5,84+,Sub-Juniors,B,F,Raw
3,Lillii Armstrong,,2002,USA,84.3,77.5,82.5,-85,82.5,82.5,84+,Sub-Juniors,B,F,Raw
4,Lucy Naden,,2003,UK,91.4,75,80,-87.5,80,80,84+,Sub-Juniors,B,F,Raw
1,Oisha Aleksandrova,,1999,Russia,41.85,60,62.5,-65,62.5,62.5,43,Juniors,B,F,Raw
2,Lindsay Ruggiero,,1999,USA,41.9,47.5,52.5,-57.5,52.5,52.5,43,Juniors,B,F,Raw
3,Momoko Wada,,2000,Japan,43,25,35,40,40,40,43,Juniors,B,F,Raw
1,Miyabi Kikuchi,,1998,Japan,46.6,70,75,77.5,77.5,77.5,47,Juniors,B,F,Raw
2,Yuka Miyazaki,,1998,Japan,46.8,65,72.5,-80,72.5,72.5,47,Juniors,B,F,Raw
3,Zuzanna Kula,,1999,Poland,46.55,67.5,70,-72.5,70,70,47,Juniors,B,F,Raw
4,Petra Cserna,,1996,Hungary,46.4,50,55,60,60,60,47,Juniors,B,F,Raw
1,Tetyana Shchavinska,,1996,Ukraine,51.1,82.5,87.5,,87.5,87.5,52,Juniors,B,F,Raw
2,Iryna Dychenko,,1996,Ukraine,51.9,80,85,-90,85,85,52,Juniors,B,F,Raw
3,Irina Melkild,,1997,Norway,50.2,75,77.5,-80,77.5,77.5,52,Juniors,B,F,Raw
4,Alesia Petukhova,,1997,Russia,51.8,72.5,77.5,-80,77.5,77.5,52,Juniors,B,F,Raw
5,Mayu Utsunomiya,,1998,Japan,50.55,60,65,-70,65,65,52,Juniors,B,F,Raw
6,Sorrel Hens,,1997,UK,51,50,55,-57.5,55,55,52,Juniors,B,F,Raw
1,Anna Rykun,,1998,Ukraine,56.15,90,97.5,,97.5,97.5,57,Juniors,B,F,Raw
2,Orocy Jo,,1996,New Zealand,55.5,75,80,-82.5,80,80,57,Juniors,B,F,Raw
3,Alexandrea Rán Guðnýjardóttir,,1999,Iceland,55.95,67.5,72.5,75,75,75,57,Juniors,B,F,Raw
4,Ayane Kimura,,2000,Japan,56.05,65,70,-75,70,70,57,Juniors,B,F,Raw
5,Mónika Bakó,,1997,Hungary,56.55,60,67.5,-77.5,67.5,67.5,57,Juniors,B,F,Raw
6,Anisha Chopra,,1997,UK,56.15,45,50,-52.5,50,50,57,Juniors,B,F,Raw
1,Anastasiya Zhurbina,,1999,Kazakhstan,61.6,95,100,-102.5,100,100,63,Juniors,B,F,Raw
2,Breanna Johnson,,1996,USA,61.66,85,87.5,92.5,92.5,92.5,63,Juniors,B,F,Raw
3,Nadezhda Churilova,,1996,Russia,61.74,85,87.5,90,90,90,63,Juniors,B,F,Raw
4,Maika Yamano,,1996,Japan,62.1,85,90,-92.5,90,90,63,Juniors,B,F,Raw
5,Klaudia Nowak,,1998,Poland,62.06,85,87.5,-92.5,87.5,87.5,63,Juniors,B,F,Raw
6,Chantalle Cheung,,1996,Canada,61.78,75,80,82.5,82.5,82.5,63,Juniors,B,F,Raw
7,Lili Szabó,,2000,Hungary,62.44,65,70,-75,70,70,63,Juniors,B,F,Raw
8,Rachel Leck,,1996,UK,61.36,60,65,-67.5,65,65,63,Juniors,B,F,Raw
9,Tomomi Sugaya,,1999,Japan,62.36,57.5,62.5,-65,62.5,62.5,63,Juniors,B,F,Raw
1,Susanna Törrönen,,1998,Finland,71.04,116.5,120,122.5,122.5,122.5,72,Juniors,B,F,Raw
2,Vilma Olsson,,1999,Sweden,70.84,110,-117,-120,110,110,72,Juniors,B,F,Raw
3,Marthine Myhr,,1999,Norway,66.68,95,100,102.5,102.5,102.5,72,Juniors,B,F,Raw
4,Camille Pailha,,1999,France,65.56,90,95,-100,95,95,72,Juniors,B,F,Raw
5,Sophia Ellis,,1996,UK,71.68,87.5,95,-105,95,95,72,Juniors,B,F,Raw
6,Amanda Wall,,1996,Canada,70.64,80,82.5,-90,82.5,82.5,72,Juniors,B,F,Raw
DQ,Marie Bremmer Ann,,1996,USA,71.6,-95,-95,-102.5,,,72,Juniors,B,F,Raw
1,Natalie Richardson,,1999,USA,80.8,102.5,107.5,110,110,110,84,Juniors,B,F,Raw
2,Seline Solstad Halleland,,1997,Norway,83.22,-107.5,-107.5,107.5,107.5,107.5,84,Juniors,B,F,Raw
DQ,Hannah Bryan,,1996,USA,73.58,-100,-105,-105,,,84,Juniors,B,F,Raw
1,Gulchekhra Toikhanova,,1998,Kazakhstan,116.82,65,70,75,75,75,84+,Juniors,B,F,Raw
2,Kinga Gaal,,2000,Hungary,84.76,55,62.5,-72.5,62.5,62.5,84+,Juniors,B,F,Raw
1,Masako Nishimura,,1974,Japan,45.75,55,62.5,-67.5,62.5,62.5,47,Masters 1,B,F,Raw
2,Jasmin Jarquio,,1976,USA,45.5,37.5,42.5,-45,42.5,42.5,47,Masters 1,B,F,Raw
1,Joanna Rieber,,1976,Canada,51.55,90,97.5,-103,97.5,97.5,52,Masters 1,B,F,Raw
2,Noriko Furuya,,1971,Japan,51.45,75,80,-82.5,80,80,52,Masters 1,B,F,Raw
3,Akiko Nishikawa,,1976,Japan,50.3,75,-77.5,-80,75,75,52,Masters 1,B,F,Raw
4,Géraldine Verlaine,,1970,France,51,62.5,65,-67.5,65,65,52,Masters 1,B,F,Raw
5,Amanda Hughes,,1979,UK,51.2,57.5,62.5,-65,62.5,62.5,52,Masters 1,B,F,Raw
1,Anna Kadatska,,1977,Ukraine,52.88,85,92.5,95,95,95,57,Masters 1,B,F,Raw
2,Chiho Ito,,1974,Japan,56.58,92.5,-95,-97.5,92.5,92.5,57,Masters 1,B,F,Raw
3,Magdalena Kijak,,1975,Canada,54.32,-85,85,90,90,90,57,Masters 1,B,F,Raw
4,Helen Hughes #1,,1976,UK,55.88,82.5,85,-90,85,85,57,Masters 1,B,F,Raw
5,Davi Cohen,,1979,USA,55.72,80,82.5,-85,82.5,82.5,57,Masters 1,B,F,Raw
6,Martina Rummel,,1976,Germany,55.16,67.5,-70,-70,67.5,67.5,57,Masters 1,B,F,Raw
7,Jodi Funk,,1973,USA,56.16,62.5,67.5,-70,67.5,67.5,57,Masters 1,B,F,Raw
8,María Guðsteinsdóttir,,1970,Iceland,56.48,65,67.5,-70,67.5,67.5,57,Masters 1,B,F,Raw
1,Julie Dahle,,1978,Norway,62.55,90,95,-100,95,95,63,Masters 1,B,F,Raw
2,Desiree Cremers,,1977,USA,61.45,80,85,90,90,90,63,Masters 1,B,F,Raw
3,Abi Graham,,1978,UK,62.3,80,85,-92.5,85,85,63,Masters 1,B,F,Raw
4,Kumi Tanehashi,,1971,Japan,62.65,80,-82.5,-82.5,80,80,63,Masters 1,B,F,Raw
5,Chia-Chi Chi,,1975,Taiwan,61.7,-75,75,-85,75,75,63,Masters 1,B,F,Raw
6,Zaneta Possehl,,1977,Germany,60.35,67.5,-72.5,72.5,72.5,72.5,63,Masters 1,B,F,Raw
7,Li-Min Lin,,1970,Taiwan,62.2,52.5,60,62.5,62.5,62.5,63,Masters 1,B,F,Raw
8,Simone Brandt,,1971,Germany,61.6,-57.5,57.5,-65,57.5,57.5,63,Masters 1,B,F,Raw
1,Ruta Lendraitiene,,1979,UK,70.9,85,-90,92.5,92.5,92.5,72,Masters 1,B,F,Raw
2,Petra Höglund,,1975,Sweden,69.84,85,87.5,90,90,90,72,Masters 1,B,F,Raw
3,Ching-Fang Chang,,1977,Taiwan,69.68,80,82.5,87.5,87.5,87.5,72,Masters 1,B,F,Raw
4,Keanne Henry,,1977,USA,67.2,80,85,-90,85,85,72,Masters 1,B,F,Raw
5,Rie Teruya,,1975,Japan,69.68,80,85,-90,85,85,72,Masters 1,B,F,Raw
6,Tomoko Washizu,,1978,Japan,63.24,75,80,-82.5,80,80,72,Masters 1,B,F,Raw
7,Nicole Cervasio,,1972,France,71.72,70,72.5,-75,72.5,72.5,72,Masters 1,B,F,Raw
8,Christelle Waymel Clement,,1973,France,68.24,57.5,62.5,-65,62.5,62.5,72,Masters 1,B,F,Raw
1,Tatiana Ivanova,,1972,Russia,83.15,90,97.5,105,105,105,84,Masters 1,B,F,Raw
2,Marie Emmertz,,1979,Sweden,77,87.5,92.5,97.5,97.5,97.5,84,Masters 1,B,F,Raw
3,Nina Ruuhivirta,,1977,Finland,79.2,92.5,97.5,-100,97.5,97.5,84,Masters 1,B,F,Raw
4,Christine Groß,,1979,Germany,76.5,82.5,87.5,90,90,90,84,Masters 1,B,F,Raw
5,Dana Sandler,,1979,Canada,83.25,87.5,-92.5,-92.5,87.5,87.5,84,Masters 1,B,F,Raw
6,Lucy Hyde,,1979,UK,82.45,77.5,85,-92.5,85,85,84,Masters 1,B,F,Raw
7,Piia Valkonen,,1973,Finland,83.45,85,-90,-90,85,85,84,Masters 1,B,F,Raw
8,Pernilla Röhr,,1972,Sweden,83.5,72.5,-75,75,75,75,84,Masters 1,B,F,Raw
9,Amy Horst,,1977,USA,79.45,72.5,-75,-75,72.5,72.5,84,Masters 1,B,F,Raw
1,Melinda Lombosi,,1978,Hungary,136.7,130,135,-140,135,135,84+,Masters 1,B,F,Raw
2,Jade Dickens,,1974,USA,121.95,127.5,132.5,-137.5,132.5,132.5,84+,Masters 1,B,F,Raw
3,Aleksandra Iudintseva,,1972,Russia,96.25,100,105,107.5,107.5,107.5,84+,Masters 1,B,F,Raw
4,Eva-Maria Gall,,1970,Germany,97.65,97.5,105,107.5,107.5,107.5,84+,Masters 1,B,F,Raw
5,Lori Wilson,,1972,USA,120.1,107.5,-112.5,-112.5,107.5,107.5,84+,Masters 1,B,F,Raw
6,Sarah Bouskill,,1979,UK,118.75,92.5,100,-107.5,100,100,84+,Masters 1,B,F,Raw
7,Jacqueline Gough,,1977,UK,146.55,92.5,97.5,-102.5,97.5,97.5,84+,Masters 1,B,F,Raw
8,Tutta Ylivinkka,,1971,Finland,93.85,95,-100,-100,95,95,84+,Masters 1,B,F,Raw
1,Tomoko Miyamoto,,1967,Japan,46.36,75,80,85.5,85.5,85.5,47,Masters 2,B,F,Raw
2,Kathryn Cordeiro,,1962,USA,45.84,55,60,62.5,62.5,62.5,47,Masters 2,B,F,Raw
1,Emiko Kiba,,1962,Japan,50.26,81.5,85,85.5,85.5,85.5,52,Masters 2,B,F,Raw
2,Christine Lesellier,,1963,France,50.04,80,82,85,85,85,52,Masters 2,B,F,Raw
3,Magdolna Petróczki,,1968,Hungary,51.6,70,75,-80,75,75,52,Masters 2,B,F,Raw
4,Masami Shibata,,1965,Japan,51.64,55,57.5,-60,57.5,57.5,52,Masters 2,B,F,Raw
1,Shigemi Ueda,,1968,Japan,56.08,75,77.5,-80,77.5,77.5,57,Masters 2,B,F,Raw
2,Viktoria Cederholm,,1969,Sweden,56.46,67.5,72.5,75,75,75,57,Masters 2,B,F,Raw
3,Karen Blessington,,1960,USA,55.56,70,72.5,-75,72.5,72.5,57,Masters 2,B,F,Raw
4,Marie-France Cabos,,1967,France,55.8,70,-72.5,-72.5,70,70,57,Masters 2,B,F,Raw
5,Mika Teramura,,1962,Japan,52.44,65,67.5,-72.5,67.5,67.5,57,Masters 2,B,F,Raw
1,Valentina Nelyubova,,1966,Russia,63,92.5,100,-102.5,100,100,63,Masters 2,B,F,Raw
2,Midori Ishida,,1963,Japan,58.24,80,85,-87.5,85,85,63,Masters 2,B,F,Raw
3,Tammy Lauer,,1964,USA,59.62,82.5,-85,-85,82.5,82.5,63,Masters 2,B,F,Raw
4,Lois Mahlberg,,1969,USA,61.2,72.5,77.5,-85,77.5,77.5,63,Masters 2,B,F,Raw
5,Amina Bernis,,1968,France,62.2,-70,70,-75,70,70,63,Masters 2,B,F,Raw
6,Moira Pritchard,,1967,UK,61.68,65,-67.5,-67.5,65,65,63,Masters 2,B,F,Raw
7,Wing-Yuk Ip,,1961,Hong Kong,62.72,-50,50,-55,50,50,63,Masters 2,B,F,Raw
1,Regina Haas,,1962,Germany,70.72,-100,105,-108,105,105,72,Masters 2,B,F,Raw
2,Annette Pedersen,,1968,Denmark,71.04,100,105,-107.5,105,105,72,Masters 2,B,F,Raw
3,Megumi Tokutake,,1964,Japan,71.22,100,102.5,-107.5,102.5,102.5,72,Masters 2,B,F,Raw
4,Delwyn Evans,,1964,New Zealand,70.54,72.5,75,77.5,77.5,77.5,72,Masters 2,B,F,Raw
5,Patricia Maciejewski,,1961,France,70.56,70,75,-80,75,75,72,Masters 2,B,F,Raw
6,Elizabeth Richardson,,1962,USA,71,67.5,72.5,-77.5,72.5,72.5,72,Masters 2,B,F,Raw
1,Tammy Walker,,1968,USA,83.46,100,105,115,115,115,84,Masters 2,B,F,Raw
2,Jackie Blasbery,,1963,UK,84,75,80,82.5,82.5,82.5,84,Masters 2,B,F,Raw
3,Cynthia Line,,1968,USA,73.44,70,75,80,80,80,84,Masters 2,B,F,Raw
1,Annette Rehoff Christensen,,1965,Denmark,123.44,125,130,-135,130,130,84+,Masters 2,B,F,Raw
2,Cindy Tilton,,1969,USA,117.42,-120,125,-130,125,125,84+,Masters 2,B,F,Raw
3,Nathalie Gransard,,1964,France,94.58,80,85,-90,85,85,84+,Masters 2,B,F,Raw
4,Ann Jordebo,,1960,Sweden,100.88,60,65,-67.5,65,65,84+,Masters 2,B,F,Raw
1,Irina Bekhtereva,,1959,Russia,46.45,45,47.5,50,50,50,47,Masters 3,B,F,Raw
2,Suzuko Fukuda,,1953,Japan,46.25,40,-45,45,45,45,47,Masters 3,B,F,Raw
1,Jenny Hunter,,1958,UK,51.7,60,65,68,68,68,52,Masters 3,B,F,Raw
2,Janice Woerner,,1958,USA,49.05,60,65,67.5,67.5,67.5,52,Masters 3,B,F,Raw
3,Aiko Ishibashi,,1953,Japan,47.65,60,62.5,-65,62.5,62.5,52,Masters 3,B,F,Raw
4,Martine Roche,,1956,France,49.55,47.5,50,52.5,52.5,52.5,52,Masters 3,B,F,Raw
5,Sachiko Osawa,,1956,Japan,50.1,47.5,50,52.5,52.5,52.5,52,Masters 3,B,F,Raw
1,Yoriko Yamazaki,,1959,Japan,55.95,77.5,80,82.5,82.5,82.5,57,Masters 3,B,F,Raw
2,Dora Justice,,1957,USA,55.8,62.5,65,-70,65,65,57,Masters 3,B,F,Raw
3,Yuko Nagao,,1950,Japan,55.35,57.5,-60,-60,57.5,57.5,57,Masters 3,B,F,Raw
4,Pirjo Kemppainen,,1951,Finland,54.2,27.5,30,-32.5,30,30,57,Masters 3,B,F,Raw
1,Hisako Hayashi,,1951,Japan,61.9,65,70,75,75,75,63,Masters 3,B,F,Raw
2,Chizuko Hoshita,,1953,Japan,62.65,65,70,-75,70,70,63,Masters 3,B,F,Raw
1,Evelyne Herbin,,1956,France,70.5,70,75,80,80,80,72,Masters 3,B,F,Raw
2,Alma Kimura,,1954,USA,69.5,47.5,52.5,55,55,55,72,Masters 3,B,F,Raw
3,Joelle Lemarchand,,1956,France,71.5,50,52.5,55,55,55,72,Masters 3,B,F,Raw
4,Jane Freeman,,1954,USA,68.7,42.5,-47.5,-47.5,42.5,42.5,72,Masters 3,B,F,Raw
1,Jill Arnow,,1959,USA,83.95,75,80,-85,80,80,84,Masters 3,B,F,Raw
2,Linda Gorham,,1951,USA,82.55,55,60,-65,60,60,84,Masters 3,B,F,Raw
1,Gretchen Herrmann,,1957,USA,130.65,-80,80,93.5,93.5,93.5,84+,Masters 3,B,F,Raw
2,Eva Speth,,1954,Germany,90.9,85,90,93,93,93,84+,Masters 3,B,F,Raw
1,Hiroko Kikuiri,,1949,Japan,46.4,47.5,50,52.5,52.5,52.5,47,Masters 4,B,F,Raw
2,Liliane Boulle,,1946,France,45.7,-37.5,40,-42.5,40,40,47,Masters 4,B,F,Raw
1,Sadako Yamanoi,,1944,Japan,49.95,40,-45,45,45,45,52,Masters 4,B,F,Raw
2,Hatsune Kurihara,,1945,Japan,51.1,40,42.5,-45,42.5,42.5,52,Masters 4,B,F,Raw
3,Denise Johnson,,1947,USA,51.6,32.5,-37.5,37.5,37.5,37.5,52,Masters 4,B,F,Raw
4,Bebe Burns,,1942,USA,50.45,35,-40,-40,35,35,52,Masters 4,B,F,Raw
1,Françoise Heligon,,1943,France,55.9,52.5,55,57.5,57.5,57.5,57,Masters 4,B,F,Raw
2,Reiko Igawa,,1939,Japan,53.95,45,47.5,50,50,50,57,Masters 4,B,F,Raw
3,Tamie Shimaoka,,1946,Japan,54.7,40,45,-50,45,45,57,Masters 4,B,F,Raw
4,Andrée Duboux,,1946,France,55.4,45,-50,-50,45,45,57,Masters 4,B,F,Raw
1,Gale Williams,,1947,USA,60.75,52.5,55,57.5,57.5,57.5,63,Masters 4,B,F,Raw
2,Nadezhda Uvachan,,1944,Russia,57.45,37.5,40,42.5,42.5,42.5,63,Masters 4,B,F,Raw
3,Judith McGauley,,1948,UK,57.6,32.5,35,37.5,37.5,37.5,63,Masters 4,B,F,Raw
1,Midori Nakayama,,1941,Japan,64.85,-37.5,37.5,40,40,40,72,Masters 4,B,F,Raw
1,Chiyomi Sawa,,1949,Japan,78.9,70,75,80,80,80,84,Masters 4,B,F,Raw
1,Naoko Kobayashi,,1970,Japan,46.32,92.5,100,103,103,103,47,Open,B,F,Raw
2,Kayla Johnson,,1995,USA,46.34,72.5,77.5,-80,77.5,77.5,47,Open,B,F,Raw
3,Tatiana Koroleva,,1986,Russia,46.98,75,77.5,-80,77.5,77.5,47,Open,B,F,Raw
4,Assiya Orazbekova,,1987,Kazakhstan,46.14,70,72.5,-77.5,72.5,72.5,47,Open,B,F,Raw
1,Sophia Waldemarson,,1988,Sweden,50.48,97.5,102.5,-111,102.5,102.5,52,Open,B,F,Raw
2,Tetyana Shchavinska,,1996,Ukraine,51.04,90,95,97.5,97.5,97.5,52,Open,B,F,Raw
3,Joanna Rieber,,1976,Canada,51.6,92.5,-97.5,97.5,97.5,97.5,52,Open,B,F,Raw
4,Marina Beketova,,1985,Russia,50.36,90,92.5,95,95,95,52,Open,B,F,Raw
5,Haruka Tomiyama,,1990,Japan,50.62,92.5,95,-97.5,95,95,52,Open,B,F,Raw
6,Anna Kadatska,,1977,Ukraine,51.68,90,-95,-95,90,90,52,Open,B,F,Raw
7,Marta Sroczyk,,1995,Poland,50.98,80,85,-87.5,85,85,52,Open,B,F,Raw
8,Azusa Okamura,,1985,Japan,51.44,-85,85,-97.5,85,85,52,Open,B,F,Raw
9,Maura Shuttleworth,,1976,USA,51.64,70,75,-80,75,75,52,Open,B,F,Raw
10,Deeksha Sharma,,1991,India,50.78,40,50,-55,50,50,52,Open,B,F,Raw
1,Aleksandra Osina,,1986,Russia,56.02,110,117.5,121,121,121,57,Open,B,F,Raw
2,Donna Berglund,,1997,Sweden,56.72,107.5,116.5,120.5,120.5,120.5,57,Open,B,F,Raw
3,Akane Ishibashi,,1993,Japan,55.2,107.5,116,120,120,120,57,Open,B,F,Raw
4,Yen-Tzu Huang,,1992,Taiwan,54.16,100,-107.5,107.5,107.5,107.5,57,Open,B,F,Raw
5,Misato Fukushima,,1991,Japan,56.66,100,-107.5,107.5,107.5,107.5,57,Open,B,F,Raw
6,Mélodie Anthouard,,1988,France,56.9,100,-107.5,107.5,107.5,107.5,57,Open,B,F,Raw
7,Anna Rykun,,1998,Ukraine,55.86,102.5,-110,-110,102.5,102.5,57,Open,B,F,Raw
8,Phoebe Cullingham,,1993,Canada,56.18,95,100,102.5,102.5,102.5,57,Open,B,F,Raw
9,Kait Mendall,,1988,USA,56.72,97.5,-102.5,102.5,102.5,102.5,57,Open,B,F,Raw
10,Monika Sroczyk,,1992,Poland,56.66,-90,90,-100,90,90,57,Open,B,F,Raw
11,Emily Dodd #1,,1994,UK,56.66,72.5,77.5,80,80,80,57,Open,B,F,Raw
1,Jennifer Thompson #1,,1973,USA,62.4,125,-140,140,140,140,63,Open,B,F,Raw
2,Anna Birzhevaya,,1992,Russia,62.4,125,130,-142.5,130,130,63,Open,B,F,Raw
3,Anette Tunkkari,,1983,Finland,62.7,105,110,-112.5,110,110,63,Open,B,F,Raw
4,Anastasiya Zhurbina,,1999,Kazakhstan,62.1,100,107.5,-112.5,107.5,107.5,63,Open,B,F,Raw
5,Kim Stevenson,,1982,Australia,62.85,107.5,-112.5,-112.5,107.5,107.5,63,Open,B,F,Raw
6,Agnieszka Tuczykont,,1985,Poland,61.85,100,105,-110,105,105,63,Open,B,F,Raw
7,Elise Rosenborg,,1993,Norway,61.9,97.5,102.5,-107.5,102.5,102.5,63,Open,B,F,Raw
8,Aya Yamashita,,1986,Japan,62.85,90,100,-107.5,100,100,63,Open,B,F,Raw
9,Maria Frank,,1984,Canada,58.45,82.5,90,95,95,95,63,Open,B,F,Raw
10,Sunniva Nordskog,,1986,Norway,62.2,95,-100,-100,95,95,63,Open,B,F,Raw
11,Kseniya Prokhorova #1,,1983,Ukraine,62.85,87.5,92.5,95,95,95,63,Open,B,F,Raw
12,Abby Hall,,1994,Canada,62.7,85,90,92.5,92.5,92.5,63,Open,B,F,Raw
1,Xeniya Khan,,1987,Kazakhstan,71.45,127.5,132.5,-135,132.5,132.5,72,Open,B,F,Raw
2,Annika Zelander,,1988,Sweden,71.3,122.5,127.5,-132.5,127.5,127.5,72,Open,B,F,Raw
3,Susanna Törrönen,,1998,Finland,70.5,120,122.5,-125,122.5,122.5,72,Open,B,F,Raw
4,Rori Alter,,1987,USA,70.8,112.5,117.5,-125,117.5,117.5,72,Open,B,F,Raw
5,Vilma Olsson,,1999,Sweden,70.85,110,115,-120,115,115,72,Open,B,F,Raw
6,Stine Liverød,,1992,Norway,71.6,100,105,-110,105,105,72,Open,B,F,Raw
7,Friederike Hoppe,,1984,Germany,70.2,95,100,-105,100,100,72,Open,B,F,Raw
8,Natalie Cameron,,1995,UK,71.5,82.5,90,92.5,92.5,92.5,72,Open,B,F,Raw
9,Angela Welch,,1989,Canada,71.7,85,-90,90,90,90,72,Open,B,F,Raw
10,Zoë Clark,,1995,UK,71.1,77.5,82.5,-87.5,82.5,82.5,72,Open,B,F,Raw
1,Liudmila Protchenko,,1986,Russia,83.92,132.5,140,147.5,147.5,147.5,84,Open,B,F,Raw
2,Ielja Strik,,1973,Netherlands,83.46,125,130,-137.5,130,130,84,Open,B,F,Raw
3,Ekaterina Kryukova,,1985,Kazakhstan,78.12,115,120,122.5,122.5,122.5,84,Open,B,F,Raw
4,Tammy Walker,,1968,USA,83.58,112.5,117.5,122.5,122.5,122.5,84,Open,B,F,Raw
5,Aziza Abduraimova,,1989,Kazakhstan,82.9,-117.5,117.5,-125,117.5,117.5,84,Open,B,F,Raw
6,Ankie Timmers,,1986,Netherlands,79.78,-115,115,-117.5,115,115,84,Open,B,F,Raw
7,Amaliia Kazak,,1995,Russia,79.78,100,102.5,-105,102.5,102.5,84,Open,B,F,Raw
8,Hitomi Tajima,,1982,Japan,82.04,87.5,-92.5,95,95,95,84,Open,B,F,Raw
9,Tünde Olajos,,1989,Hungary,83.38,90,95,-97.5,95,95,84,Open,B,F,Raw
10,Edina Magyar,,1990,Hungary,72.06,77.5,82.5,-87.5,82.5,82.5,84,Open,B,F,Raw
11,Juhi Gupta,,1993,India,77.46,62.5,67.5,-75,67.5,67.5,84,Open,B,F,Raw
1,Ágnes Szabó,,1988,Hungary,120.64,140,145,147.5,147.5,147.5,84+,Open,B,F,Raw
2,Melinda Lombosi,,1978,Hungary,136.94,137.5,142.5,147.5,147.5,147.5,84+,Open,B,F,Raw
3,Xeniya Okatenko,,1994,Kazakhstan,114.38,140,145,-147.5,145,145,84+,Open,B,F,Raw
4,Jade Dickens,,1974,USA,121.56,125,132.5,135,135,135,84+,Open,B,F,Raw
5,Inna Orobets,,1971,Ukraine,105.6,115,120,125,125,125,84+,Open,B,F,Raw
6,Jana Hayes,,1992,New Zealand,129.62,112.5,120,125,125,125,84+,Open,B,F,Raw
7,Camille Holland,,1988,UK,131.52,107.5,115,120,120,120,84+,Open,B,F,Raw
1,Anastasiia Filatova,,2003,Russia,40.8,50,-52.5,-60,50,50,43,Sub-Juniors,B,F,Single-ply
2,Albina Yussupova,,2002,Kazakhstan,43,35,37.5,-40,37.5,37.5,43,Sub-Juniors,B,F,Single-ply
1,Ekaterina Volodko,,2001,Russia,45.3,75,77.5,80,80,80,47,Sub-Juniors,B,F,Single-ply
2,Valeriia Mustafina,,2004,Ukraine,46.82,45,47.5,-50,47.5,47.5,47,Sub-Juniors,B,F,Single-ply
1,Veronika Kashina,,2001,Russia,51.46,95,102.5,-113,102.5,102.5,52,Sub-Juniors,B,F,Single-ply
2,Liszette Ortiz-Rosado,,2001,USA,51,97.5,-105,-113,97.5,97.5,52,Sub-Juniors,B,F,Single-ply
3,Alyssa Kirchner,,2002,USA,49.4,65,70,-72.5,70,70,52,Sub-Juniors,B,F,Single-ply
4,Sanasam Chaoba Devi,,2004,India,48.54,45,50,-67.5,50,50,52,Sub-Juniors,B,F,Single-ply
1,Kseniia Materinskaia,,2002,Russia,56.64,92.5,97.5,100,100,100,57,Sub-Juniors,B,F,Single-ply
2,Alona Didyuk,,2001,Ukraine,54.56,52.5,72.5,-75,72.5,72.5,57,Sub-Juniors,B,F,Single-ply
3,Yekaterina Rashidova,,2001,Kazakhstan,53.08,57.5,62.5,-72.5,62.5,62.5,57,Sub-Juniors,B,F,Single-ply
1,Daria Lomatskaya,,2001,Russia,62.92,135,142.5,150,150,150,63,Sub-Juniors,B,F,Single-ply
2,Tamiris Sovetova,,2002,Kazakhstan,61.26,112.5,115,120,120,120,63,Sub-Juniors,B,F,Single-ply
1,Viktoria Yultsova,,2002,Russia,66.7,132.5,137.5,147.5,147.5,147.5,72,Sub-Juniors,B,F,Single-ply
2,Daria Rusanenko,,2001,Ukraine,71.88,120,127.5,-140,127.5,127.5,72,Sub-Juniors,B,F,Single-ply
1,Anna Vozmilova,,2001,Russia,83.48,125,-130,-136,125,125,84,Sub-Juniors,B,F,Single-ply
2,Geri Fredrickson,,2001,USA,79.2,97.5,102.5,-107.5,102.5,102.5,84,Sub-Juniors,B,F,Single-ply
1,Anna Korytko,,2001,Russia,87.62,-95,95,-107.5,95,95,84+,Sub-Juniors,B,F,Single-ply
2,DeAnna Wood,,2002,USA,108.96,57.5,-105,-112.5,57.5,57.5,84+,Sub-Juniors,B,F,Single-ply
1,Oisha Aleksandrova,,1999,Russia,41.86,70,75,80,80,80,43,Juniors,B,F,Single-ply
2,Kasumi Hamada,,2000,Japan,41.22,-55,55,-75,55,55,43,Juniors,B,F,Single-ply
1,Miyabi Kikuchi,,1998,Japan,46.54,105,110,-113,110,110,47,Juniors,B,F,Single-ply
2,Sabra Warren,,1996,USA,45.72,85,-95,-95,85,85,47,Juniors,B,F,Single-ply
1,Tetiana Bila,,1996,Ukraine,51.28,100,110,115,115,115,52,Juniors,B,F,Single-ply
2,Tomoko Tanabe,,1997,Japan,47.2,97.5,102.5,110,110,110,52,Juniors,B,F,Single-ply
3,Andie Hernandez,,1997,USA,51.62,97.5,105,-112.5,105,105,52,Juniors,B,F,Single-ply
4,Alesia Petukhova,,1997,Russia,51.3,95,100,-105,100,100,52,Juniors,B,F,Single-ply
5,Aoi Sawayama,,1998,Japan,50.5,87.5,92.5,-97.5,92.5,92.5,52,Juniors,B,F,Single-ply
6,Ikara Bano,,2000,India,51.3,-47.5,47.5,50,50,50,52,Juniors,B,F,Single-ply
1,Daniela Kolesnik,,1999,Russia,56.86,145,153,155,155,155,57,Juniors,B,F,Single-ply
2,Nobuyo Kobayashi,,1997,Japan,56,105,110,112.5,112.5,112.5,57,Juniors,B,F,Single-ply
3,Carmen Reiss,,1996,USA,56.22,105,112.5,-115,112.5,112.5,57,Juniors,B,F,Single-ply
4,Megan Leighton,,1996,South Africa,56.82,-97.5,-97.5,97.5,97.5,97.5,57,Juniors,B,F,Single-ply
1,Matilda Vilmar,,1996,Sweden,62.5,137.5,142.5,-158,142.5,142.5,63,Juniors,B,F,Single-ply
2,Anastasiya Zhurbina,,1999,Kazakhstan,61.65,-130,130,-142.5,130,130,63,Juniors,B,F,Single-ply
3,Nadezhda Churilova,,1996,Russia,61.9,122.5,-127.5,130,130,130,63,Juniors,B,F,Single-ply
4,Morgan Stahl,,1997,USA,62.15,115,122.5,130,130,130,63,Juniors,B,F,Single-ply
5,Mónika Bakó,,1997,Hungary,60.25,60,75,-80,75,75,63,Juniors,B,F,Single-ply
DQ,Orkhontuul Ochirbat,,1997,Mongolia,62.25,-125,-130,-130,,,63,Juniors,B,F,Single-ply
1,Sonja Stefanie Krüger,,1999,Germany,67.45,157.5,-162.5,-173,157.5,157.5,72,Juniors,B,F,Single-ply
2,Anna Mikryukova,,1999,Russia,67.25,130,137.5,142.5,142.5,142.5,72,Juniors,B,F,Single-ply
3,Katie Salerni,,1996,USA,69.7,137.5,142.5,-145,142.5,142.5,72,Juniors,B,F,Single-ply
4,Kamille Lim,,1996,Canada,70.6,97.5,-105,105,105,105,72,Juniors,B,F,Single-ply
5,Misaki Ikeda,,1999,Japan,65.75,95,-102.5,102.5,102.5,102.5,72,Juniors,B,F,Single-ply
1,Yana Pokazanyeva,,1997,Russia,83.55,165,175,180,180,180,84,Juniors,B,F,Single-ply
2,Lydia Mele,,1998,USA,83.45,167.5,-173,-175.5,167.5,167.5,84,Juniors,B,F,Single-ply
3,Marthe Engskar Ramsrud,,1999,Norway,78.75,150,155,160,160,160,84,Juniors,B,F,Single-ply
4,Natalie Richardson,,1999,USA,80.8,152.5,-157.5,-162.5,152.5,152.5,84,Juniors,B,F,Single-ply
1,Carlie Walker,,1999,USA,156.1,170,-180,190.5,190.5,190.5,84+,Juniors,B,F,Single-ply
2,Alevtina Nikolaeva,,1998,Kazakhstan,84.7,117.5,125,-132.5,125,125,84+,Juniors,B,F,Single-ply
3,Kinga Gaal,,2000,Hungary,84.2,60,65,-70,65,65,84+,Juniors,B,F,Single-ply
1,Akane Isoda,,1970,Japan,51.58,82.5,-87.5,92.5,92.5,92.5,52,Masters 1,B,F,Single-ply
2,Akiko Nishikawa,,1976,Japan,50.28,-90,-90,90,90,90,52,Masters 1,B,F,Single-ply
3,Amanda Hughes,,1979,UK,50.72,72.5,77.5,82.5,82.5,82.5,52,Masters 1,B,F,Single-ply
4,Géraldine Verlaine,,1970,France,50.66,72.5,75,-77.5,75,75,52,Masters 1,B,F,Single-ply
1,Chiho Ito,,1974,Japan,56.32,110,112.5,-132.5,112.5,112.5,57,Masters 1,B,F,Single-ply
2,Emiko Miura,,1974,Japan,56.1,105,-110,-112.5,105,105,57,Masters 1,B,F,Single-ply
3,Jodi Funk,,1973,USA,55.82,92.5,95,100,100,100,57,Masters 1,B,F,Single-ply
4,Helen Hughes #1,,1976,UK,54.66,90,95,97.5,97.5,97.5,57,Masters 1,B,F,Single-ply
5,María Guðsteinsdóttir,,1970,Iceland,56.3,75,80,82.5,82.5,82.5,57,Masters 1,B,F,Single-ply
1,Jennifer Thompson #1,,1973,USA,62.36,125,137.5,,137.5,137.5,63,Masters 1,B,F,Single-ply
2,Shannan D'Annunzio,,1971,USA,62.86,95,-100,100,100,100,63,Masters 1,B,F,Single-ply
3,Chie Shinohara,,1970,Japan,60.9,85,90,-95,90,90,63,Masters 1,B,F,Single-ply
1,Rie Teruya,,1975,Japan,69.2,120,125,132.5,132.5,132.5,72,Masters 1,B,F,Single-ply
2,Petra Höglund,,1975,Sweden,69.92,122.5,127.5,-135,127.5,127.5,72,Masters 1,B,F,Single-ply
3,Krisztina Lója,,1979,Hungary,63.62,70,-90,-90,70,70,72,Masters 1,B,F,Single-ply
4,Sue Burns,,1970,USA,65.06,45,50,52.5,52.5,52.5,72,Masters 1,B,F,Single-ply
1,Stéphanie Bastien,,1974,France,73.62,115,-117.5,117.5,117.5,117.5,84,Masters 1,B,F,Single-ply
2,Dana Sandler,,1979,Canada,83.54,110,117.5,-130,117.5,117.5,84,Masters 1,B,F,Single-ply
3,Pernilla Röhr,,1972,Sweden,83.84,110,117.5,-122.5,117.5,117.5,84,Masters 1,B,F,Single-ply
1,Brenda van der Meulen,,1978,Netherlands,113.46,190,197.5,,197.5,197.5,84+,Masters 1,B,F,Single-ply
2,Melinda Lombosi,,1978,Hungary,136.84,167.5,-172.5,-172.5,167.5,167.5,84+,Masters 1,B,F,Single-ply
3,Aleksandra Iudintseva,,1972,Russia,95.72,-140,140,-155,140,140,84+,Masters 1,B,F,Single-ply
DQ,Sarah Bouskill,,1979,UK,117.24,-150,-155,-155,,,84+,Masters 1,B,F,Single-ply
DQ,Jacqueline Gough,,1977,UK,146.54,-150,-150,-152.5,,,84+,Masters 1,B,F,Single-ply
1,Hiroko Arai,,1963,Japan,46.65,95,-102.5,102.5,102.5,102.5,47,Masters 2,B,F,Single-ply
2,Tomoko Miyamoto,,1967,Japan,46.05,92.5,-100,-102.5,92.5,92.5,47,Masters 2,B,F,Single-ply
1,Chihiro Iwaki,,1964,Japan,48.5,87.5,-90,-90,87.5,87.5,52,Masters 2,B,F,Single-ply
2,Magdolna Petróczki,,1968,Hungary,51.25,80,85,-90,85,85,52,Masters 2,B,F,Single-ply
3,Brigitte Landon,,1961,France,49.6,70,72.5,-75,72.5,72.5,52,Masters 2,B,F,Single-ply
1,Tomoko Sakamaki,,1965,Japan,55.7,100,102.5,105,105,105,57,Masters 2,B,F,Single-ply
2,Marie-France Cabos,,1967,France,56.45,87.5,-92.5,92.5,92.5,92.5,57,Masters 2,B,F,Single-ply
3,Brigitte Dousset,,1963,France,56.55,72.5,-75,-75,72.5,72.5,57,Masters 2,B,F,Single-ply
1,Isabelle Iliev,,1967,USA,61.75,-125,125,-135,125,125,63,Masters 2,B,F,Single-ply
2,Chieko Kudo,,1967,Japan,62.25,87.5,92.5,-97.5,92.5,92.5,63,Masters 2,B,F,Single-ply
3,Tammy Lauer,,1964,USA,59.75,75,80,82.5,82.5,82.5,63,Masters 2,B,F,Single-ply
4,Wing-Yuk Ip,,1961,Hong Kong,61.6,-65,65,72.5,72.5,72.5,63,Masters 2,B,F,Single-ply
1,Miyuki Sakurai,,1969,Japan,71.4,120,125,127.5,127.5,127.5,72,Masters 2,B,F,Single-ply
2,Annette Pedersen,,1968,Denmark,70.6,117.5,120,-125,120,120,72,Masters 2,B,F,Single-ply
3,Seija Skogman,,1965,Finland,69.65,-80,80,87.5,87.5,87.5,72,Masters 2,B,F,Single-ply
4,Patricia Maciejewski,,1961,France,70.35,80,85,-87.5,85,85,72,Masters 2,B,F,Single-ply
1,Jackie Blasbery,,1963,UK,83.95,100,110,112.5,112.5,112.5,84,Masters 2,B,F,Single-ply
2,Lene Einarsen,,1963,Norway,82.45,102.5,107.5,110,110,110,84,Masters 2,B,F,Single-ply
3,Cindy Amatuzzo,,1965,USA,80.1,100,107.5,-112.5,107.5,107.5,84,Masters 2,B,F,Single-ply
4,Sarah Bohlen,,1969,USA,83.2,90,95,97.5,97.5,97.5,84,Masters 2,B,F,Single-ply
1,Mami Komatsu,,1969,Japan,109.9,110,-115,-122.5,110,110,84+,Masters 2,B,F,Single-ply
2,Ann Jordebo,,1960,Sweden,99.8,100,-110,-110,100,100,84+,Masters 2,B,F,Single-ply
3,Imrene Csongradi,,1966,Hungary,95.2,80,-82.5,-85,80,80,84+,Masters 2,B,F,Single-ply
DQ,Nathalie Gransard,,1964,France,94,-117.5,-120,-120,,,84+,Masters 2,B,F,Single-ply
1,Yoshie Takizawa,,1957,Japan,45.76,70,-75,-75,70,70,47,Masters 3,B,F,Single-ply
2,Irina Bekhtereva,,1959,Russia,46.32,-57.5,57.5,-60,57.5,57.5,47,Masters 3,B,F,Single-ply
1,Fumie Mizuno,,1959,Japan,51.12,85,90,95,95,95,52,Masters 3,B,F,Single-ply
2,Sachiko Osawa,,1956,Japan,49.62,75,80,-82.5,80,80,52,Masters 3,B,F,Single-ply
3,Jenny Hunter,,1958,UK,51.78,70,75,-82.5,75,75,52,Masters 3,B,F,Single-ply
4,Martine Roche,,1956,France,49.3,67.5,72.5,-77.5,72.5,72.5,52,Masters 3,B,F,Single-ply
1,Yuko Nagao,,1950,Japan,56.1,-88,90.5,92.5,92.5,92.5,57,Masters 3,B,F,Single-ply
2,Dora Justice,,1957,USA,56.12,70,72.5,-75,72.5,72.5,57,Masters 3,B,F,Single-ply
3,Pirjo Kemppainen,,1951,Finland,53.64,-30,30,-37.5,30,30,57,Masters 3,B,F,Single-ply
1,Hisako Hayashi,,1951,Japan,61.38,-65,65,90,90,90,63,Masters 3,B,F,Single-ply
1,Yoshiko Komi,,1955,Japan,68.4,105,110,-115,110,110,72,Masters 3,B,F,Single-ply
2,Evelyne Herbin,,1956,France,70.3,80,85,90,90,90,72,Masters 3,B,F,Single-ply
3,Alma Kimura,,1954,USA,70.32,47.5,55,57.5,57.5,57.5,72,Masters 3,B,F,Single-ply
1,Hana Takáčová,,1954,Czechia,83.68,-120,122.5,130,130,130,84,Masters 3,B,F,Single-ply
2,Jill Arnow,,1959,USA,82.72,115,120,-127.5,120,120,84,Masters 3,B,F,Single-ply
1,Masako Okumura,,1930,Japan,45.78,-35,35,40,40,40,47,Masters 4,B,F,Single-ply
1,Bebe Burns,,1942,USA,51.02,40,45,-52.5,45,45,52,Masters 4,B,F,Single-ply
2,Mitsuko Kobayashi,,1933,Japan,50.02,27.5,-30,30,30,30,52,Masters 4,B,F,Single-ply
1,Françoise Heligon,,1943,France,55.84,65,70.5,-71,70.5,70.5,57,Masters 4,B,F,Single-ply
1,Chiyomi Sawa,,1949,Japan,80.74,102.5,110,115,115,115,84,Masters 4,B,F,Single-ply
1,Ivan Kuvaldin,,2001,Kazakhstan,52.72,112.5,117.5,120,120,120,53,Sub-Juniors,B,M,Raw
2,Kaito Fujita,,2001,Japan,52.86,82.5,87.5,90,90,90,53,Sub-Juniors,B,M,Raw
3,Anton Kauranen,,2003,Finland,51.94,80,-87.5,87.5,87.5,87.5,53,Sub-Juniors,B,M,Raw
1,Radosław Dębicki,,2001,Poland,58.96,97.5,105,107.5,107.5,107.5,59,Sub-Juniors,B,M,Raw
2,Abdurakhman Abdurashidov,,2003,Kazakhstan,58.38,97.5,102.5,105,105,105,59,Sub-Juniors,B,M,Raw
3,Shokei Watanabe,,2001,Japan,58.48,95,100,105,105,105,59,Sub-Juniors,B,M,Raw
4,Konstantin Vakhrushev,,2003,Russia,57.06,85,95,102.5,102.5,102.5,59,Sub-Juniors,B,M,Raw
1,Vladislav Morozov,,2001,Kazakhstan,64.92,137.5,142.5,-147.5,142.5,142.5,66,Sub-Juniors,B,M,Raw
2,Raphael Boutin,,2001,Canada,65.86,130,137.5,-145,137.5,137.5,66,Sub-Juniors,B,M,Raw
3,Kelvin Marquez,,2001,USA,65.3,110,-115,115,115,115,66,Sub-Juniors,B,M,Raw
4,Taisei Ishiwata,,2001,Japan,65.16,100,107.5,110,110,110,66,Sub-Juniors,B,M,Raw
5,Tucker Thompson,,2003,USA,62.14,80,90,95,95,95,66,Sub-Juniors,B,M,Raw
6,David Horník,,2004,Czechia,62.3,70,82.5,-92.5,82.5,82.5,66,Sub-Juniors,B,M,Raw
1,Wojciech Magiera,,2001,Poland,73.52,127.5,135,140,140,140,74,Sub-Juniors,B,M,Raw
1,Dmitriy Kabyldinov,,2002,Kazakhstan,82.5,150,157.5,162.5,162.5,162.5,83,Sub-Juniors,B,M,Raw
2,Andrew Jiang,,2001,USA,82.45,150,155,-160,155,155,83,Sub-Juniors,B,M,Raw
3,Yusei Goto,,2002,Japan,81.65,140,145,150,150,150,83,Sub-Juniors,B,M,Raw
4,Shinnosuke Tomita,,2001,Japan,82.85,-140,145,-150,145,145,83,Sub-Juniors,B,M,Raw
5,Ed Owen,,2003,UK,82.05,110,117.5,-122.5,117.5,117.5,83,Sub-Juniors,B,M,Raw
1,Viktor Ergin,,2002,Russia,90.1,155,160,162.5,162.5,162.5,93,Sub-Juniors,B,M,Raw
2,Michał Kowalczyk,,2001,Poland,85.15,145,150,160,160,160,93,Sub-Juniors,B,M,Raw
3,Akash Tyagi,,2001,India,92.75,120,130,135,135,135,93,Sub-Juniors,B,M,Raw
1,Nicolas Tóth,,2001,Czechia,103.75,155,165,-172.5,165,165,105,Sub-Juniors,B,M,Raw
2,Naoya Mori,,2001,Japan,103.6,125,132.5,-137.5,132.5,132.5,105,Sub-Juniors,B,M,Raw
3,Anatoliy Rashidov,,2004,Kazakhstan,93.75,110,-120,-120,110,110,105,Sub-Juniors,B,M,Raw
1,Klim Ostrovskiy,,2003,Kazakhstan,114.05,175,-182.5,187.5,187.5,187.5,120,Sub-Juniors,B,M,Raw
2,Ed Crossley,,2002,UK,105.8,140,145,147.5,147.5,147.5,120,Sub-Juniors,B,M,Raw
3,Reese Worden,,2001,USA,115.05,130,-142.5,147.5,147.5,147.5,120,Sub-Juniors,B,M,Raw
1,Ivan Belousov,,2001,Russia,135.1,-155,162.5,177.5,177.5,177.5,120+,Sub-Juniors,B,M,Raw
2,Hunter Veach,,2002,USA,122.15,165,170,-177.5,170,170,120+,Sub-Juniors,B,M,Raw
3,Kordian Strzyga,,2002,Poland,168,155,162.5,-172.5,162.5,162.5,120+,Sub-Juniors,B,M,Raw
4,Nikita Rudenko,,2001,Kazakhstan,120.8,140,150,-162.5,150,150,120+,Sub-Juniors,B,M,Raw
5,Bartłomiej Tuszyński,,2003,Poland,139.6,115,122.5,130,130,130,120+,Sub-Juniors,B,M,Raw
1,Furkat Shamuratov,,1996,Kazakhstan,52.7,105,115,125,125,125,53,Juniors,B,M,Raw
1,Tsubasa Moriki,,1999,Japan,57.85,145,152.5,-155,152.5,152.5,59,Juniors,B,M,Raw
2,Farkhad Kanalbekov,,1996,Kazakhstan,58.9,135,140,145,145,145,59,Juniors,B,M,Raw
3,Charlie Yeng,,1997,USA,58.9,125,130,142.5,142.5,142.5,59,Juniors,B,M,Raw
1,Masaomi Tsuchida,,1996,Japan,65.45,160,165,172.5,172.5,172.5,66,Juniors,B,M,Raw
2,Mehdi Sahari,,1996,France,65.95,152.5,162.5,170,170,170,66,Juniors,B,M,Raw
3,Tyler Marcel,,1996,USA,65.7,152.5,160,162.5,162.5,162.5,66,Juniors,B,M,Raw
4,Kyota Ushiyama,,1997,Japan,65.65,150,-157.5,160,160,160,66,Juniors,B,M,Raw
5,Konrad Grochalski,,1996,Poland,65.35,142.5,147.5,150,150,150,66,Juniors,B,M,Raw
6,Edgars Jurkans,,1998,Latvia,65.85,135,142.5,-150,142.5,142.5,66,Juniors,B,M,Raw
7,James Leaper,,1997,UK,64.95,120,-125,-125,120,120,66,Juniors,B,M,Raw
DQ,Usukhbayar Od-Erdene,,1996,Mongolia,65.05,-140,-140,-140,,,66,Juniors,B,M,Raw
1,Andrey Kim #2,,1996,Kazakhstan,73.05,175,177.5,-180,177.5,177.5,74,Juniors,B,M,Raw
2,Tadahiro Fukuda,,1996,Japan,73.55,165,172.5,-180,172.5,172.5,74,Juniors,B,M,Raw
3,Galbayar Enkhjargal,,1997,Mongolia,73.55,-170,-170,170,170,170,74,Juniors,B,M,Raw
4,Kozhakhmet Zhaltaev,,2000,Kazakhstan,73.9,-160,160,-175,160,160,74,Juniors,B,M,Raw
5,Sandor Tatar,,1999,Hungary,72.5,-140,140,145,145,145,74,Juniors,B,M,Raw
DQ,Vadym Yarzhemskyi,,1999,Ukraine,73.9,-170,-170,-170,,,74,Juniors,B,M,Raw
1,Jemali Nandoshvili,,1998,Georgia,81.68,192.5,200,205.5,205.5,205.5,83,Juniors,B,M,Raw
2,Sergey Yudchenko,,1996,Kazakhstan,80.6,160,180,192.5,192.5,192.5,83,Juniors,B,M,Raw
3,Sergey Levenchuk,,1998,Kazakhstan,81.5,180,187.5,-192.5,187.5,187.5,83,Juniors,B,M,Raw
4,Shota Nishimura,,1999,Japan,81.64,175,182.5,-190,182.5,182.5,83,Juniors,B,M,Raw
5,Taro Okano,,1997,Japan,82.54,170,172.5,-175,172.5,172.5,83,Juniors,B,M,Raw
6,Konrad Piecha,,1997,Poland,81.28,155,160,-172.5,160,160,83,Juniors,B,M,Raw
DQ,Hubert Kłak,,1996,Poland,79.96,-190,-190,-190,,,83,Juniors,B,M,Raw
1,Kirill Tezichev,,1997,Kazakhstan,89.62,195,202.5,207.5,207.5,207.5,93,Juniors,B,M,Raw
2,Jacob Florelius,,1998,Norway,92.6,182.5,187.5,-195,187.5,187.5,93,Juniors,B,M,Raw
3,Andre Stroem-Larsen,,1996,Norway,91.08,-177.5,177.5,182.5,182.5,182.5,93,Juniors,B,M,Raw
4,Easton Schuster,,1996,USA,92.42,175,180,-187.5,180,180,93,Juniors,B,M,Raw
5,Tomonori Denno,,1997,Japan,92.3,165,175,-180,175,175,93,Juniors,B,M,Raw
1,Takahiro Takimoto,,1996,Japan,101.9,210,220.5,222,222,222,105,Juniors,B,M,Raw
2,Roman Simakhin,,1996,Russia,100.72,-200,210,-221.5,210,210,105,Juniors,B,M,Raw
3,Joakim Pedersen Liljeberg,,1997,Norway,104.68,197.5,200,205,205,205,105,Juniors,B,M,Raw
4,Adrian Świerczyński,,1996,Poland,104.22,185,192.5,-200,192.5,192.5,105,Juniors,B,M,Raw
5,Nicolas Peyraud,,1999,France,104.74,190,-197.5,-202.5,190,190,105,Juniors,B,M,Raw
6,Christian Flueras,,1996,Germany,102.54,177.5,-185,-185,177.5,177.5,105,Juniors,B,M,Raw
7,Daniel Baffia,,1999,Hungary,96.5,135,145,-150,145,145,105,Juniors,B,M,Raw
1,Yuki Nagoshi,,1998,Japan,107.14,190,205,-212.5,205,205,120,Juniors,B,M,Raw
2,Brandon Stouffer,,1996,USA,118.78,190,205,-215,205,205,120,Juniors,B,M,Raw
3,Kamil Jagiełło,,1998,Poland,105.88,195,200,-207.5,200,200,120,Juniors,B,M,Raw
4,Bradley Horne #1,,1997,UK,119.02,190,197.5,-210,197.5,197.5,120,Juniors,B,M,Raw
1,Alex Véró,,1996,Hungary,177.6,210,217.5,225,225,225,120+,Juniors,B,M,Raw
2,Joseph Guest-Bourne,,1997,UK,150.52,190,195,-197.5,195,195,120+,Juniors,B,M,Raw
3,Tomáš Král,,1996,Czechia,148.46,180,-190,190,190,190,120+,Juniors,B,M,Raw
1,Yasushi Ogasawara,,1972,Japan,56.5,155,160.5,162.5,162.5,162.5,59,Masters 1,B,M,Raw
2,Sławomir Śledź,,1976,Poland,58.65,140,-145,150,150,150,59,Masters 1,B,M,Raw
3,Zack Toh,,1973,Singapore,58.55,95,112.5,115,115,115,59,Masters 1,B,M,Raw
1,Manuel Virgilio,,1974,France,64.95,-160,160,167.5,167.5,167.5,66,Masters 1,B,M,Raw
2,Yoshito Nakama,,1973,Japan,65.45,157.5,-165,165,165,165,66,Masters 1,B,M,Raw
3,Tomi Halmesmäki,,1976,Finland,65.85,142.5,145,-147.5,145,145,66,Masters 1,B,M,Raw
4,Todd Solomon,,1970,USA,64.75,132.5,137.5,-145,137.5,137.5,66,Masters 1,B,M,Raw
5,Gansukh Mandakh,,1977,Mongolia,64.95,-137.5,137.5,-145,137.5,137.5,66,Masters 1,B,M,Raw
1,Michal Fiebig,,1978,Poland,73.1,160,165,167.5,167.5,167.5,74,Masters 1,B,M,Raw
2,Kenichiro Matsumoto,,1975,Japan,73.3,160,165,-170,165,165,74,Masters 1,B,M,Raw
3,Bartosz Żelazko,,1973,Poland,73.6,152.5,155,-157.5,155,155,74,Masters 1,B,M,Raw
4,Jean-Pierre Nembrot,,1974,France,72.4,145,-150,-155,145,145,74,Masters 1,B,M,Raw
5,Bjørn-Andre Egerdahl,,1970,Norway,73.3,137.5,142.5,145,145,145,74,Masters 1,B,M,Raw
6,Thomas Potter,,1977,USA,72.8,137.5,142.5,-155,142.5,142.5,74,Masters 1,B,M,Raw
7,Danny Bochmann,,1976,Germany,73.65,115,120,122.5,122.5,122.5,74,Masters 1,B,M,Raw
1,Florent Lenglet,,1979,France,82.02,185,190,-198,190,190,83,Masters 1,B,M,Raw
2,Yasuyuki Sakai,,1973,Japan,82.46,-180,-180,180,180,180,83,Masters 1,B,M,Raw
3,Rémi Perichon,,1976,France,82.34,175,-180,-180,175,175,83,Masters 1,B,M,Raw
4,Gantugs Ganjuur,,1978,Mongolia,81.6,160,167.5,-175,167.5,167.5,83,Masters 1,B,M,Raw
5,Sebastian Niedziela,,1979,Poland,79.42,160,-167.5,-167.5,160,160,83,Masters 1,B,M,Raw
6,Martin Hammarsten,,1976,Sweden,82.2,145,152.5,-160,152.5,152.5,83,Masters 1,B,M,Raw
7,Raj Kumar,,1975,India,81.66,-132.5,137.5,142.5,142.5,142.5,83,Masters 1,B,M,Raw
8,Artak Asrian,,1979,Netherlands,82.56,135,142.5,-155,142.5,142.5,83,Masters 1,B,M,Raw
9,Jan Kluwe,,1974,Germany,80.58,-132.5,132.5,137.5,137.5,137.5,83,Masters 1,B,M,Raw
10,Tomasz Dębicki,,1974,Poland,81.42,110,120,125,125,125,83,Masters 1,B,M,Raw
11,Robert King,,1974,Canada,81.94,120,-125,-125,120,120,83,Masters 1,B,M,Raw
1,Andrey Galayda,,1972,Russia,92,190,197.5,205,205,205,93,Masters 1,B,M,Raw
2,Sheridan Wray,,1974,UK,92.8,180,-192.5,-202.5,180,180,93,Masters 1,B,M,Raw
3,Tibor Zakor,,1979,Hungary,92.96,170,175,177.5,177.5,177.5,93,Masters 1,B,M,Raw
4,Nicolas Briere #1,,1972,France,91.9,170,-175,175,175,175,93,Masters 1,B,M,Raw
5,Jiří Horník,,1978,Czechia,91.18,125,145,-177.5,145,145,93,Masters 1,B,M,Raw
DQ,Munehisa Takeda,,1978,Japan,92.66,-182.5,-182.5,-182.5,,,93,Masters 1,B,M,Raw
1,Pavel Milovanov,,1977,Russia,104.5,210,220,-228,220,220,105,Masters 1,B,M,Raw
2,Masahiko Kassai,,1971,Japan,102.95,210,212.5,-220,212.5,212.5,105,Masters 1,B,M,Raw
3,Chris Walter,,1971,USA,99.7,-195,-195,205,205,205,105,Masters 1,B,M,Raw
4,Marc Bouteiller,,1971,France,103,200,205,-207.5,205,205,105,Masters 1,B,M,Raw
5,Jussi Kuusikko,,1975,Finland,103.35,185,195,-202.5,195,195,105,Masters 1,B,M,Raw
6,Berke Lóránd,,1979,Hungary,104.1,180,187.5,-192.5,187.5,187.5,105,Masters 1,B,M,Raw
7,Jan Kuehl,,1971,Germany,98.2,180,185,-190,185,185,105,Masters 1,B,M,Raw
8,Thomas Kraemer,,1970,Germany,103.35,172.5,180,-187.5,180,180,105,Masters 1,B,M,Raw
9,Nezar Ballil,,1978,Morocco,95.25,170,-172.5,-172.5,170,170,105,Masters 1,B,M,Raw
10,Kelemen Richárd,,1975,Hungary,99.2,145,155,165,165,165,105,Masters 1,B,M,Raw
DQ,Alius Fominas,,1974,Lithuania,104.15,-202.5,-202.5,-202.5,,,105,Masters 1,B,M,Raw
1,Pavol Demčák,,1977,Czechia,117.3,212.5,220,225,225,225,120,Masters 1,B,M,Raw
2,Kornél Schauer,,1977,Hungary,111,212.5,217.5,222.5,222.5,222.5,120,Masters 1,B,M,Raw
3,Dominic Sirianni,,1977,USA,119.85,212.5,220,-227.5,220,220,120,Masters 1,B,M,Raw
4,Shigeki Fuchino,,1977,Japan,119.2,200,210,215,215,215,120,Masters 1,B,M,Raw
5,Ruslan Pavlikov,,1978,Russia,114.4,210,212.5,-220,212.5,212.5,120,Masters 1,B,M,Raw
6,Charles Duval,,1972,France,119.3,195,200,-202.5,200,200,120,Masters 1,B,M,Raw
7,Scott Robertson,,1970,Canada,116.6,197.5,-207.5,-220,197.5,197.5,120,Masters 1,B,M,Raw
1,Umar Abdullah,,1979,USA,174.05,215,235,-252.5,235,235,120+,Masters 1,B,M,Raw
2,Chris Baker #1,,1974,UK,143.1,210,217.5,225,225,225,120+,Masters 1,B,M,Raw
3,Jaroslav Šoukal,,1972,Czechia,173.85,217.5,-225,-225,217.5,217.5,120+,Masters 1,B,M,Raw
4,Vesa Korhonen,,1974,Finland,134.5,205,215,-217.5,215,215,120+,Masters 1,B,M,Raw
5,Sascha Wolf,,1977,Germany,139,207.5,215,-217.5,215,215,120+,Masters 1,B,M,Raw
6,Thomas Brunnenkref,,1977,Germany,122.2,172.5,-177.5,-177.5,172.5,172.5,120+,Masters 1,B,M,Raw
7,Jhonatan Ramírez,,1979,Mexico,126.85,165,-172.5,172.5,172.5,172.5,120+,Masters 1,B,M,Raw
8,Akira Ebita,,1979,Japan,137.5,145,155,165,165,165,120+,Masters 1,B,M,Raw
1,Yuji Takada,,1965,Japan,58.6,140,150,152,152,152,59,Masters 2,B,M,Raw
2,Alan Seelye-James,,1966,USA,58.6,92.5,100,105,105,105,59,Masters 2,B,M,Raw
3,Ali Hamaissia,,1967,France,57.95,95,100,102.5,102.5,102.5,59,Masters 2,B,M,Raw
1,Oleksandr Chernyshov,,1966,Ukraine,65.85,140,145,147.5,147.5,147.5,66,Masters 2,B,M,Raw
2,Hayato Nakama,,1968,Japan,65.15,135,140,145,145,145,66,Masters 2,B,M,Raw
3,Steve Petrencak,,1968,USA,65.9,137.5,140,-142.5,140,140,66,Masters 2,B,M,Raw
4,Maik Staegemann,,1969,Germany,65,115,120,122.5,122.5,122.5,66,Masters 2,B,M,Raw
1,Damian Fronzaglia,,1965,USA,73.35,165,170,-180.5,170,170,74,Masters 2,B,M,Raw
2,Markku Väisänen,,1965,Finland,73.2,160,-167.5,-170,160,160,74,Masters 2,B,M,Raw
3,Andreas Pöhls,,1968,Germany,73.3,145,-150,150,150,150,74,Masters 2,B,M,Raw
4,Kenichiro Hayashi,,1967,Japan,72.95,140,-145,145,145,145,74,Masters 2,B,M,Raw
5,Eric Verhaege,,1963,France,72.95,125,132.5,135,135,135,74,Masters 2,B,M,Raw
1,Aleksey Neveykov,,1966,Russia,82.8,175,180,185.5,185.5,185.5,83,Masters 2,B,M,Raw
2,Harri Vahtolammi,,1963,Finland,81.08,162.5,165,170,170,170,83,Masters 2,B,M,Raw
3,Katsunori Sakamoto,,1968,Japan,81.54,170,-180,-182.5,170,170,83,Masters 2,B,M,Raw
4,Patrik Fornander,,1967,Sweden,83,155,-165,-167.5,155,155,83,Masters 2,B,M,Raw
5,Bruno Poyet,,1968,France,82.36,142.5,150,-155,150,150,83,Masters 2,B,M,Raw
6,Nasseur Houari,,1964,France,81.44,135,-145,-145,135,135,83,Masters 2,B,M,Raw
1,Dennis Cieri,,1968,USA,92.74,200,-202.5,-202.5,200,200,93,Masters 2,B,M,Raw
2,Mike Burns,,1966,USA,91.7,172.5,177.5,185,185,185,93,Masters 2,B,M,Raw
3,Hervé France,,1966,France,92.1,175,180,-185,180,180,93,Masters 2,B,M,Raw
4,Masao Inoue,,1969,Japan,92.4,170,177.5,-180,177.5,177.5,93,Masters 2,B,M,Raw
5,Yves Lemagnen,,1966,France,92.16,-170,170,-182.5,170,170,93,Masters 2,B,M,Raw
1,Satoshi Ito,,1966,Japan,104.5,205,207.5,-222.5,207.5,207.5,105,Masters 2,B,M,Raw
2,Munkhbaatar Tsevegsuren,,1969,Mongolia,104.4,182.5,-187.5,-187.5,182.5,182.5,105,Masters 2,B,M,Raw
3,Gordon Sjodin,,1966,Canada,98.35,150,160,172.5,172.5,172.5,105,Masters 2,B,M,Raw
4,Peer Hänsicke,,1961,Germany,99.15,-170,-170,170,170,170,105,Masters 2,B,M,Raw
5,Marc Giles,,1964,UK,104.5,152.5,162.5,-175,162.5,162.5,105,Masters 2,B,M,Raw
6,Martin Wudtke,,1967,Germany,102.6,152.5,-157.5,-157.5,152.5,152.5,105,Masters 2,B,M,Raw
7,Asgeir Eide-Olsen,,1965,Norway,100.75,137.5,145,-152.5,145,145,105,Masters 2,B,M,Raw
DQ,Anthony Succarotte,,,USA,103.15,-200,-200,-200,,,105,Masters 2,B,M,Raw
1,Kohei Wada,,1964,Japan,119.7,210,215,-225,215,215,120,Masters 2,B,M,Raw
2,David Doan,,1964,USA,118.45,-205,-205,205,205,205,120,Masters 2,B,M,Raw
3,Eijiro Yamasaki,,1969,Japan,118.86,170,190,-195,190,190,120,Masters 2,B,M,Raw
1,János Cserna,,1968,Hungary,124.95,212.5,217.5,-222.5,217.5,217.5,120+,Masters 2,B,M,Raw
2,Joe Dibert,,1969,USA,136.25,212.5,217.5,-225,217.5,217.5,120+,Masters 2,B,M,Raw
3,Jean-Yves Minelle,,1966,France,122.8,202.5,-205,207.5,207.5,207.5,120+,Masters 2,B,M,Raw
4,Lubomír Růžička,,1967,Czechia,127.95,197.5,205,-207.5,205,205,120+,Masters 2,B,M,Raw
5,Patrice Lefebvre,,1962,France,149.3,180,190,-207.5,190,190,120+,Masters 2,B,M,Raw
6,John Beres,,1967,Canada,130.25,145,150,152.5,152.5,152.5,120+,Masters 2,B,M,Raw
1,Hiroyuki Isagawa,,1953,Japan,58.74,110,115,-120,115,115,59,Masters 3,B,M,Raw
2,Saveliy Pavlov,,1957,Russia,58.46,95,102.5,107.5,107.5,107.5,59,Masters 3,B,M,Raw
1,Shinichi Yoshidome,,1957,Japan,64.8,125,-130,130,130,130,66,Masters 3,B,M,Raw
2,Seppo Flink,,1953,Finland,64.96,82.5,-87.5,90,90,90,66,Masters 3,B,M,Raw
3,Birger Sundstøl,,1954,Norway,64.98,82.5,87.5,-92.5,87.5,87.5,66,Masters 3,B,M,Raw
DQ,Naoto Toyama,,1959,Japan,65.46,-135.5,-135.5,-135.5,,,66,Masters 3,B,M,Raw
1,Daniel Sides,,1956,USA,72.8,135,137.5,-149,137.5,137.5,74,Masters 3,B,M,Raw
2,Joachim Graupner,,1958,Germany,73.32,125,127.5,135,135,135,74,Masters 3,B,M,Raw
3,Vasilii Motovilnik,,1957,Russia,73.84,130,135,-140,135,135,74,Masters 3,B,M,Raw
4,Susumu Watanabe,,1953,Japan,73.6,125,132.5,-137.5,132.5,132.5,74,Masters 3,B,M,Raw
5,David Russell,,1958,UK,71.88,95,100,107.5,107.5,107.5,74,Masters 3,B,M,Raw
1,Junichi Isu,,1954,Japan,82.65,160,-163,163,163,163,83,Masters 3,B,M,Raw
2,Detlef Heinrich,,1956,Germany,80.35,157.5,-162.5,-162.5,157.5,157.5,83,Masters 3,B,M,Raw
3,Howard Sturman,,1958,USA,81.6,-150,-150,150,150,150,83,Masters 3,B,M,Raw
4,Gerhard Baumeister,,1952,Germany,82.8,120,127.5,132.5,132.5,132.5,83,Masters 3,B,M,Raw
1,John Jenkins,,1957,USA,91.95,150,152.5,-160,152.5,152.5,93,Masters 3,B,M,Raw
2,Conny Andersson,,1959,Sweden,92.7,147.5,152.5,-155,152.5,152.5,93,Masters 3,B,M,Raw
3,Pierre Courtehoux,,1953,France,91.55,150,-152.5,,150,150,93,Masters 3,B,M,Raw
4,Ronald Bengtsson,,1959,Sweden,91.65,145,-152.5,-152.5,145,145,93,Masters 3,B,M,Raw
5,Tomohiro Anraku,,1956,Japan,86.5,-140,140,-152.5,140,140,93,Masters 3,B,M,Raw
6,Howard Aaron,,1952,USA,88.8,132.5,137.5,-145,137.5,137.5,93,Masters 3,B,M,Raw
7,John Søtorp,,1957,Norway,92.8,130,135,-137.5,135,135,93,Masters 3,B,M,Raw
8,Luis Antonio Riso Salgado,,1952,Spain,86.05,100,110,120,120,120,93,Masters 3,B,M,Raw
9,Voitto Ahopelto,,1956,Finland,90.85,115,-120,-120,115,115,93,Masters 3,B,M,Raw
1,Stanisław Mentel,,1954,Poland,99.58,192.5,-200.5,-200.5,192.5,192.5,105,Masters 3,B,M,Raw
2,Colin Young,,1957,South Africa,104.02,170,-180,180,180,180,105,Masters 3,B,M,Raw
3,Marius Vermeulen,,1957,Netherlands,102.6,150,155,-170,155,155,105,Masters 3,B,M,Raw
4,Claude Welcome,,1951,USA,94.42,140,145,-155,145,145,105,Masters 3,B,M,Raw
5,Rodrigo Manuel Rodríguez Piñeiro,,1957,Spain,98.94,-120,120,132.5,132.5,132.5,105,Masters 3,B,M,Raw
6,Laurent Durocher,,1952,France,100.98,120,125,-135,125,125,105,Masters 3,B,M,Raw
7,Daniel Royer,,1957,Canada,104.3,100,110,115,115,115,105,Masters 3,B,M,Raw
1,Akihiro Watanabe,,1958,Japan,113.04,182.5,190,193,193,193,120,Masters 3,B,M,Raw
2,Brian Rock,,1959,Canada,116.2,172.5,177.5,180,180,180,120,Masters 3,B,M,Raw
3,Werner Wieninger,,1957,Germany,115.64,172.5,-177.5,177.5,177.5,177.5,120,Masters 3,B,M,Raw
4,Vladimirs Kovalskis,,1958,Latvia,106.04,172.5,-177.5,-177.5,172.5,172.5,120,Masters 3,B,M,Raw
5,Harri Tirronen,,1953,Finland,108.86,172.5,-175,-177.5,172.5,172.5,120,Masters 3,B,M,Raw
6,Kevin Hutchinson,,1954,USA,107.84,165,-170,-175,165,165,120,Masters 3,B,M,Raw
7,Gérard Oumailia,,1951,France,110.6,160,-165,,160,160,120,Masters 3,B,M,Raw
8,Bill Sindelar,,1951,USA,117.2,132.5,137.5,-140,137.5,137.5,120,Masters 3,B,M,Raw
1,James Ray #1,,1957,USA,148.44,190,200,202.5,202.5,202.5,120+,Masters 3,B,M,Raw
2,Tibor Horváth,,1955,Hungary,124.16,125,132.5,140,140,140,120+,Masters 3,B,M,Raw
3,Ichiro Ujiie,,1957,Japan,135.94,110,-115,-115,110,110,120+,Masters 3,B,M,Raw
1,Takeshi Shirakawa,,1948,Japan,57.88,110,120.5,121.5,121.5,121.5,59,Masters 4,B,M,Raw
2,Him Wong Kung,,1947,Hong Kong,53.3,80,-85,85,85,85,59,Masters 4,B,M,Raw
3,Ivan Zwick,,1939,USA,56.82,-70,70,75,75,75,59,Masters 4,B,M,Raw
4,Mel Tatsumi,,1948,USA,55.84,60,70,-75,70,70,59,Masters 4,B,M,Raw
1,Yasuto Hotomi,,1949,Japan,64.94,105,107.5,112.5,112.5,112.5,66,Masters 4,B,M,Raw
2,David Pelta,,1947,UK,64.28,105,107.5,-110,107.5,107.5,66,Masters 4,B,M,Raw
3,Yukiharu Nitta,,1947,Japan,63.8,100,105,-107.5,105,105,66,Masters 4,B,M,Raw
4,Markku Kemppainen,,1949,Finland,65.12,97.5,100,-107.5,100,100,66,Masters 4,B,M,Raw
5,Iosif Plagov,,1935,USA,65.22,80,90,-95,90,90,66,Masters 4,B,M,Raw
1,Shigeki Yamamoto,,1943,Japan,73.14,-122.5,122.5,-127.5,122.5,122.5,74,Masters 4,B,M,Raw
2,Bolesław Mąka,,1942,Poland,73.46,-110,-110,115,115,115,74,Masters 4,B,M,Raw
3,Antero Kauranen,,1948,Finland,73.5,115,-117.5,-117.5,115,115,74,Masters 4,B,M,Raw
4,Takao Morohoshi,,1945,Japan,73.14,-105,105,-110,105,105,74,Masters 4,B,M,Raw
1,Haruki Imaizumi,,1947,Japan,80.7,-136,136,-140,136,136,83,Masters 4,B,M,Raw
2,Daribay Ospanov,,1949,Kazakhstan,80.5,115,120,-136.5,120,120,83,Masters 4,B,M,Raw
3,Peer Bjaaland,,1942,Norway,81.5,105,110,-115,110,110,83,Masters 4,B,M,Raw
4,Georges de Guéroult d'Aublay,,1946,France,82,-90,90,-95,90,90,83,Masters 4,B,M,Raw
1,Jiří Horník,,1948,Czechia,89.6,125,-130,-130,125,125,93,Masters 4,B,M,Raw
2,Mikio Sugizaki,,1948,Japan,90.15,110,120,125,125,125,93,Masters 4,B,M,Raw
3,Jim McKenna,,1948,USA,92.4,120,125,-132.5,125,125,93,Masters 4,B,M,Raw
4,Charles Bentz,,1948,France,88.85,115,-120,120,120,120,93,Masters 4,B,M,Raw
5,Takami Ota,,1946,Japan,88,100,-105,105,105,105,93,Masters 4,B,M,Raw
6,Lucien Verne,,1944,France,89.3,-100,100,102.5,102.5,102.5,93,Masters 4,B,M,Raw
DQ,Adriaan Fabrie,,1946,Netherlands,91.85,-115,-115,-115,,,93,Masters 4,B,M,Raw
1,Hans-Joachim Thuerk,,1949,Germany,99.86,120,125,127.5,127.5,127.5,105,Masters 4,B,M,Raw
2,David Clark,,1948,USA,98.34,120,125,-127.5,125,125,105,Masters 4,B,M,Raw
3,John Moore,,1937,USA,100.84,107.5,112.5,-117.5,112.5,112.5,105,Masters 4,B,M,Raw
4,Adzhibek Abakirov,,1947,Kyrgyzstan,98.24,-70,70,80,80,80,105,Masters 4,B,M,Raw
1,Mujir El Alami,,1946,Sweden,111.88,110,115,-120,115,115,120,Masters 4,B,M,Raw
2,Robert Evans #1,,1946,USA,107.26,105,110,-115,110,110,120,Masters 4,B,M,Raw
3,Daryl Haskew,,1947,USA,110.02,95,-105,105,105,105,120,Masters 4,B,M,Raw
1,Abdulkarim Karaman,,1994,Kazakhstan,58.92,167.5,172.5,175.5,175.5,175.5,59,Open,B,M,Raw
2,Ryohei Kume,,1988,Japan,58.66,155,162.5,-172.5,162.5,162.5,59,Open,B,M,Raw
3,Dariusz Wszoła,,1978,Poland,58.92,145,150,152.5,152.5,152.5,59,Open,B,M,Raw
4,Bat-Amgalan Purevsuren,,1987,Mongolia,58.74,-135,135,150,150,150,59,Open,B,M,Raw
5,Daniel Thomas #2,,1985,UK,58.8,145,147.5,-152.5,147.5,147.5,59,Open,B,M,Raw
1,Eddie Berglund,1995-01-19,1995,Sweden,65.96,200,214,221,221,221,66,Open,B,M,Raw
2,Keita Saito,,1982,Japan,65.52,-170,170,175,175,175,66,Open,B,M,Raw
3,Masashi Fukuda,,1984,Japan,65.82,-157.5,160,165,165,165,66,Open,B,M,Raw
4,Quentin Myers,,1986,USA,64.34,152.5,160,-165,160,160,66,Open,B,M,Raw
5,Philipp Ziemer,,1990,Germany,65.74,150,157.5,-162.5,157.5,157.5,66,Open,B,M,Raw
6,Azat Salmen,,1989,Kazakhstan,65.96,155,-160,-162.5,155,155,66,Open,B,M,Raw
7,Giorgi Bejashvili,,1980,Georgia,65.98,150,-160,-165,150,150,66,Open,B,M,Raw
8,Kelvin Suen,,1983,Canada,64.66,132.5,140,-142.5,140,140,66,Open,B,M,Raw
9,Man Cheung Ho,,1986,Hong Kong,66,115,130,-140,130,130,66,Open,B,M,Raw
10,Chris Jennings,,1995,UK,65.36,120,-127.5,-130,120,120,66,Open,B,M,Raw
1,Daiki Kodama,,1979,Japan,73.78,210,221,225,225,225,74,Open,B,M,Raw
2,Ivan Chuprinko,,1986,Ukraine,73.08,205,213,-221.5,213,213,74,Open,B,M,Raw
3,Bastien Poyet,,1995,France,72.36,197.5,205,-210,205,205,74,Open,B,M,Raw
4,Marcin Garbas,,1985,Poland,73.72,185,190,-197.5,190,190,74,Open,B,M,Raw
5,Jason Manenkoff,,1982,USA,73.88,177.5,-187.5,-187.5,177.5,177.5,74,Open,B,M,Raw
6,Joshua Wright #1,,1986,Germany,72.58,157.5,-162.5,162.5,162.5,162.5,74,Open,B,M,Raw
7,Loc Nguyen #2,,1989,Canada,72.54,150,-157.5,160,160,160,74,Open,B,M,Raw
8,Danny Potter,,1981,UK,73.38,147.5,155,160,160,160,74,Open,B,M,Raw
9,Kazuhiro Ishikawa,,1985,Philippines,73.8,120,130,-135,130,130,74,Open,B,M,Raw
1,Yusuke Suzuki,,1984,Japan,80.6,207.5,215.5,216.5,216.5,216.5,83,Open,B,M,Raw
2,Volodymyr Tsaturian,,1995,Ukraine,82.38,197.5,205,216,216,216,83,Open,B,M,Raw
3,Davit Gabelaia,,1989,Georgia,82.7,200,-205,-205,200,200,83,Open,B,M,Raw
4,Gerrit Scheel,,1991,Germany,82.44,190,197.5,-202.5,197.5,197.5,83,Open,B,M,Raw
5,Orgilbold Galdan,,1986,Mongolia,82.46,197.5,-202.5,-205,197.5,197.5,83,Open,B,M,Raw
6,Kim Beck-Gundersen,,1985,Norway,82.22,187.5,195,-200,195,195,83,Open,B,M,Raw
7,Ryan MacLellan,,1993,Canada,82.06,170,177.5,185,185,185,83,Open,B,M,Raw
8,Jürgen Kraushofer,,1993,Austria,78.76,175,-185,-185,175,175,83,Open,B,M,Raw
9,Christopher Teague,,1991,UK,82.82,160,167.5,172.5,172.5,172.5,83,Open,B,M,Raw
10,Ádám Szívós,,1992,Hungary,81.98,165,170,-172.5,170,170,83,Open,B,M,Raw
11,Dan Magee,,1995,UK,81.46,147.5,-155,160,160,160,83,Open,B,M,Raw
12,Sajad Hussain,,1986,India,79.66,132.5,140,-147.5,140,140,83,Open,B,M,Raw
DQ,Levani Giligashvili,,1982,Georgia,81.24,-182.5,-190,-190,,,83,Open,B,M,Raw
1,Vyacheslav Tsoy,,1984,Kazakhstan,90.28,227.5,230,-235,230,230,93,Open,B,M,Raw
2,Paweł Tyborczyk,,1979,Poland,92.42,210,217.5,220,220,220,93,Open,B,M,Raw
3,Dennis Cieri,,1968,USA,92.36,217.5,-230,-232.5,217.5,217.5,93,Open,B,M,Raw
4,Andriy Krymov,,1985,Ukraine,92.92,212.5,215,-220,215,215,93,Open,B,M,Raw
5,Marcus Grahn,,1990,Sweden,92.82,200,212.5,-220,212.5,212.5,93,Open,B,M,Raw
6,Otgondalai Tsend-Ayush,,1981,Mongolia,93,202.5,212.5,-220,212.5,212.5,93,Open,B,M,Raw
7,Shalva Karalashvili,,1994,Georgia,91.42,190,200,207.5,207.5,207.5,93,Open,B,M,Raw
8,Manabu Saito,,1981,Japan,92.26,200,202.5,-217.5,202.5,202.5,93,Open,B,M,Raw
9,André Midtby,,1991,Norway,92.22,190,200,-207.5,200,200,93,Open,B,M,Raw
10,Tanno de Pender,,1992,Netherlands,92.36,182.5,190,-192.5,190,190,93,Open,B,M,Raw
11,Róbert Nemes,,1986,Hungary,88.92,175,-182.5,182.5,182.5,182.5,93,Open,B,M,Raw
12,Joel Fraser,,1995,UK,92.02,175,182.5,-185,182.5,182.5,93,Open,B,M,Raw
DQ,Battumur Khumuugul,,1974,Mongolia,92.96,-205,-205,-205,,,93,Open,B,M,Raw
1,Joseph Amendola,,1994,USA,104.06,243,247.5,-260,247.5,247.5,105,Open,B,M,Raw
2,Sodnompiljee Enkhbayar,,1985,Mongolia,104.1,-240,247,-252.5,247,247,105,Open,B,M,Raw
3,Michael Dudley,,1987,USA,103.2,237.5,245,-252.5,245,245,105,Open,B,M,Raw
4,Sergey Degtyaryov,,1992,Russia,104.78,232.5,240,-248,240,240,105,Open,B,M,Raw
5,Josef Eriksson,,1992,Sweden,101.18,220,232.5,235,235,235,105,Open,B,M,Raw
6,Sergii Parkhomenko,,1988,Ukraine,99.48,230,-237.5,-240,230,230,105,Open,B,M,Raw
7,Jan Bast,,1977,Germany,98.44,227.5,-230,-230,227.5,227.5,105,Open,B,M,Raw
8,Christoph Scheel,,1985,Germany,102.02,220,225,-230,225,225,105,Open,B,M,Raw
9,Anders Henriksson,,1975,Sweden,103.88,215,-222.5,-222.5,215,215,105,Open,B,M,Raw
10,Gi Kim Song,,1972,Japan,100.34,210,-215,-215,210,210,105,Open,B,M,Raw
11,Parul Kumar,,1986,India,94.8,180,185,-210,185,185,105,Open,B,M,Raw
12,Colin Young,,1957,South Africa,104.66,170,-180,-180,170,170,105,Open,B,M,Raw
1,Amandas Paulauskas,,1987,Lithuania,119.42,242.5,245,247.5,247.5,247.5,120,Open,B,M,Raw
2,Andreas Henning,,1982,Sweden,117.42,232.5,242.5,245,245,245,120,Open,B,M,Raw
3,Shane Martin,,1988,Canada,118.06,225,235,242.5,242.5,242.5,120,Open,B,M,Raw
4,Nicholas Guidice,,1987,USA,113.12,225,232.5,240,240,240,120,Open,B,M,Raw
5,Māris Juzups,,1988,Latvia,119.4,225,235,-242.5,235,235,120,Open,B,M,Raw
6,Aleksey Khamov,,1991,Russia,113,225,232.5,-240,232.5,232.5,120,Open,B,M,Raw
7,Simo Sistonen,,1983,Finland,118.26,225,-232.5,-237.5,225,225,120,Open,B,M,Raw
8,Pavol Demčák,,1977,Czechia,118.42,210,222.5,-230,222.5,222.5,120,Open,B,M,Raw
9,Kornél Schauer,,1977,Hungary,110.76,217.5,220,-225,220,220,120,Open,B,M,Raw
10,Ohara Kazumasa,,1991,Japan,117.8,220,-230,-235,220,220,120,Open,B,M,Raw
11,István Feigl,,1988,Hungary,119.22,190,200,205,205,205,120,Open,B,M,Raw
12,Michał Nowaliński,,1988,Poland,117.06,-195,195,-200,195,195,120,Open,B,M,Raw
DQ,Munkhbat Odontungalag,,1982,Mongolia,118.98,-215,-215,-215,,,120,Open,B,M,Raw
DQ,Erdenekhuu Tumurbaatar,,1985,Mongolia,119.76,-200,-200,-200,,,120,Open,B,M,Raw
1,Thomas Davis #1,,1992,USA,200.4,285,300,-318,300,300,120+,Open,B,M,Raw
2,Joel Sundelin,,1994,Sweden,136.4,242.5,247.5,252.5,252.5,252.5,120+,Open,B,M,Raw
3,Adam Łaskawski,,1995,Poland,137.4,240,245,250,250,250,120+,Open,B,M,Raw
4,Gregory Young,,1982,Canada,153.76,242.5,-252.5,-252.5,242.5,242.5,120+,Open,B,M,Raw
5,David Lupač,,1991,Czechia,154.1,227.5,237.5,-245,237.5,237.5,120+,Open,B,M,Raw
6,Yalalt Nergui,,1982,Mongolia,144.12,235,-242.5,-247.5,235,235,120+,Open,B,M,Raw
7,Jordi Snijders,,1986,Netherlands,126.24,232.5,-240,-240,232.5,232.5,120+,Open,B,M,Raw
8,Mathieu Brignall,,1992,UK,163.88,202.5,215,-222.5,215,215,120+,Open,B,M,Raw
9,Béla Csüllög,,1988,Hungary,129.38,-200,200,202.5,202.5,202.5,120+,Open,B,M,Raw
10,Gurkirat Singh,,1995,India,125.48,-155,155,,155,155,120+,Open,B,M,Raw
DQ,Romuald Massé,,1992,France,149.28,-245,-255,-255,,,120+,Open,B,M,Raw
1,Sharif Kurayev,,2001,Kazakhstan,52.1,102.5,110,117.5,117.5,117.5,53,Sub-Juniors,B,M,Single-ply
2,Anton Kauranen,,2003,Finland,51.2,80,102.5,-110,102.5,102.5,53,Sub-Juniors,B,M,Single-ply
3,Akito Hirayama,,2001,Japan,52.4,102.5,-110,-117.5,102.5,102.5,53,Sub-Juniors,B,M,Single-ply
1,Kenan Kurayev,,2003,Kazakhstan,58.05,120,122.5,125,125,125,59,Sub-Juniors,B,M,Single-ply
2,Konstantin Vakhrushev,,2003,Russia,56.15,100,-120,-122.5,100,100,59,Sub-Juniors,B,M,Single-ply
1,Vladislav Morozov,,2001,Kazakhstan,64.15,-155,155,160,160,160,66,Sub-Juniors,B,M,Single-ply
2,Mansur Rassulov,,2003,Kazakhstan,65,130,145,-157.5,145,145,66,Sub-Juniors,B,M,Single-ply
3,Jacob Mann,,2004,USA,62.55,67.5,75,80,80,80,66,Sub-Juniors,B,M,Single-ply
1,Wojciech Magiera,,2001,Poland,73.5,115,157.5,167.5,167.5,167.5,74,Sub-Juniors,B,M,Single-ply
1,Aleksandr Kuzubov,,2001,Russia,80.9,170,180,190,190,190,83,Sub-Juniors,B,M,Single-ply
2,Yusei Goto,,2002,Japan,81.8,165,177.5,187.5,187.5,187.5,83,Sub-Juniors,B,M,Single-ply
3,Dmitriy Kabyldinov,,2002,Kazakhstan,81.95,165,175,182.5,182.5,182.5,83,Sub-Juniors,B,M,Single-ply
4,Rokas Burba,,2001,Lithuania,79.95,175,180,-187.5,180,180,83,Sub-Juniors,B,M,Single-ply
1,Pavel Shupikov,,2002,Russia,92.25,187.5,195,205,205,205,93,Sub-Juniors,B,M,Single-ply
2,Mateusz Szymkiewicz,,2001,Poland,91.5,155,162.5,187.5,187.5,187.5,93,Sub-Juniors,B,M,Single-ply
3,Shane Kierstyn,,2001,USA,87.2,160,165,-187.5,165,165,93,Sub-Juniors,B,M,Single-ply
4,Dylan Wysocky,,2001,USA,89,-142.5,-142.5,142.5,142.5,142.5,93,Sub-Juniors,B,M,Single-ply
1,Nicolas Tóth,,2001,Czechia,103.4,220,-230,230,230,230,105,Sub-Juniors,B,M,Single-ply
2,Alex Ochs,,2001,USA,103.15,175,182.5,-190,182.5,182.5,105,Sub-Juniors,B,M,Single-ply
1,Klim Ostrovskiy,,2003,Kazakhstan,115.4,-200,205,210,210,210,120,Sub-Juniors,B,M,Single-ply
2,Rustam Sunnatov,,2001,Russia,118.6,190,-202.5,207.5,207.5,207.5,120,Sub-Juniors,B,M,Single-ply
1,Ivan Belousov,,2001,Russia,133.55,210,220,-235,220,220,120+,Sub-Juniors,B,M,Single-ply
2,Nikita Rudenko,,2001,Kazakhstan,120.35,175,182.5,190,190,190,120+,Sub-Juniors,B,M,Single-ply
3,Bartłomiej Tuszyński,,2003,Poland,138.45,110,160,190,190,190,120+,Sub-Juniors,B,M,Single-ply
1,Zhainat Kalzhanov,,1998,Kazakhstan,52.76,115,127.5,-130,127.5,127.5,53,Juniors,B,M,Single-ply
2,Mykhailo Yastrebov,,1998,Ukraine,52.66,125,-127.5,-127.5,125,125,53,Juniors,B,M,Single-ply
1,Farkhad Kanalbekov,,1996,Kazakhstan,58.76,185,190,-197.5,190,190,59,Juniors,B,M,Single-ply
2,Yo Tamura,,1999,Japan,58.74,-185,185,-195,185,185,59,Juniors,B,M,Single-ply
3,Mykhailo Malkush,,1996,Ukraine,58.94,-185,185,-190,185,185,59,Juniors,B,M,Single-ply
4,Motoki Murata,,1997,Japan,58.28,170,177.5,-190,177.5,177.5,59,Juniors,B,M,Single-ply
5,Arnold Delgadillo,,1997,USA,58.92,162.5,-170,-170,162.5,162.5,59,Juniors,B,M,Single-ply
6,Matthew Longoria,,2000,USA,57.66,142.5,150,-160,150,150,59,Juniors,B,M,Single-ply
1,Ruslan Balabanov,,1996,Russia,65.94,197.5,-205,205,205,205,66,Juniors,B,M,Single-ply
2,Roland Whitney,,1997,USA,65.66,-187.5,187.5,197.5,197.5,197.5,66,Juniors,B,M,Single-ply
3,Taketora Suzuki,,1999,Japan,65.46,187.5,192.5,-197.5,192.5,192.5,66,Juniors,B,M,Single-ply
4,Toirzhan Marif,,1996,Kazakhstan,65.56,175,177.5,-187.5,177.5,177.5,66,Juniors,B,M,Single-ply
5,Jordan Robbins,,1998,USA,65.58,140,150,-152.5,150,150,66,Juniors,B,M,Single-ply
1,Natan Balogh,,2000,Hungary,71.96,215,-222.5,225,225,225,74,Juniors,B,M,Single-ply
2,Kuanyshbay Tulegenov,,1998,Kazakhstan,73.04,222.5,225,-227.5,225,225,74,Juniors,B,M,Single-ply
3,Kozhakhmet Zhaltaev,,2000,Kazakhstan,73.86,210,217.5,-227.5,217.5,217.5,74,Juniors,B,M,Single-ply
4,Ruslan Ruzimuradov,,1998,Ukraine,73.7,205,215,-227.5,215,215,74,Juniors,B,M,Single-ply
5,Hiroshi Ishikawa,,1997,Japan,73.68,200,210,-217.5,210,210,74,Juniors,B,M,Single-ply
6,Sandor Tatar,,1999,Hungary,72.86,160,-170,170,170,170,74,Juniors,B,M,Single-ply
7,Rakesh Singh,,1999,India,68.78,-130,130,-140,130,130,74,Juniors,B,M,Single-ply
1,Tatsumi Ishizaki,,1997,Japan,77.8,215,220,227.5,227.5,227.5,83,Juniors,B,M,Single-ply
2,Sukhbat Sukhbaatar,,1999,Mongolia,80.75,205,215,222.5,222.5,222.5,83,Juniors,B,M,Single-ply
3,Daniyar Shaukatov,,2000,Kazakhstan,81.7,220,222.5,-230,222.5,222.5,83,Juniors,B,M,Single-ply
4,Kris Franklin,,1996,UK,81,210,220,-225,220,220,83,Juniors,B,M,Single-ply
5,Jordan Hoang,,1997,Canada,79.4,185,195,-220,195,195,83,Juniors,B,M,Single-ply
6,Erkhembayar Erdenetuya,,1996,Mongolia,81.5,190,-200,-220,190,190,83,Juniors,B,M,Single-ply
DQ,Naoya Sakuma,,2000,Japan,82.65,-210,-210,-217.5,,,83,Juniors,B,M,Single-ply
1,Artur Zalotov,,1998,Ukraine,92.15,-305,305,316,316,316,93,Juniors,B,M,Single-ply
2,Easton Schuster,,1996,USA,91.95,277.5,-305,-305,277.5,277.5,93,Juniors,B,M,Single-ply
3,Artem Grankin,,1996,Russia,92.5,230,237.5,242.5,242.5,242.5,93,Juniors,B,M,Single-ply
4,Rustam Valiullin,,2000,Kazakhstan,92.4,210,-220,-237.5,210,210,93,Juniors,B,M,Single-ply
5,Luis Perales,,1999,USA,85.2,187.5,192.5,197.5,197.5,197.5,93,Juniors,B,M,Single-ply
1,Evgenii Roenko,,1996,Russia,104.75,295,305,-315,305,305,105,Juniors,B,M,Single-ply
2,Roman Simakhin,,1996,Russia,100.3,290,300,-315,300,300,105,Juniors,B,M,Single-ply
3,Christian Flueras,,1996,Germany,103.05,240,250,-265,250,250,105,Juniors,B,M,Single-ply
4,Evžen Sičevskyj,,1997,Czechia,102.5,195,200,205,205,205,105,Juniors,B,M,Single-ply
5,Daniel Baffia,,1999,Hungary,96.05,135,142.5,-150,142.5,142.5,105,Juniors,B,M,Single-ply
1,Kamil Jagiełło,,1998,Poland,106.2,180,250,272.5,272.5,272.5,120,Juniors,B,M,Single-ply
2,Bulat Rakhmatullin,,1998,Russia,111.35,-265,265,270,270,270,120,Juniors,B,M,Single-ply
3,Yutaro Kashiwagi,,1997,Japan,119,-265,-265,267.5,267.5,267.5,120,Juniors,B,M,Single-ply
DQ,Yurii Monastyrskyi,,1996,Ukraine,113.2,-250,-250,-252.5,,,120,Juniors,B,M,Single-ply
1,Ryuki Fujimoto,,2000,Japan,132.25,350,-393,-393,350,350,120+,Juniors,B,M,Single-ply
2,Nikita Leskovets,,1999,Russia,141.5,325,335,-352.5,335,335,120+,Juniors,B,M,Single-ply
3,Donald Treglia,,1996,USA,157.25,-307.5,-307.5,307.5,307.5,307.5,120+,Juniors,B,M,Single-ply
4,Kensuke Suto,,1997,Japan,139.15,-275,-275,275,275,275,120+,Juniors,B,M,Single-ply
1,Toshihiko Noda,,1979,Japan,58.68,205,216.5,220,220,220,59,Masters 1,B,M,Single-ply
2,Sławomir Śledź,,1976,Poland,58.86,165,-170,,165,165,59,Masters 1,B,M,Single-ply
1,Akinori Amakawa,,1977,Japan,65.4,180,190,200,200,200,66,Masters 1,B,M,Single-ply
2,Gansukh Mandakh,,1977,Mongolia,65.72,110,155,-182.5,155,155,66,Masters 1,B,M,Single-ply
3,Mitsuo Kametani,,1971,Japan,65.84,102.5,-182.5,-182.5,102.5,102.5,66,Masters 1,B,M,Single-ply
1,Hiroyuki Fujita,,1977,Japan,72.84,205,207.5,217.5,217.5,217.5,74,Masters 1,B,M,Single-ply
2,Bartosz Żelazko,,1973,Poland,73.48,197.5,202.5,-210,202.5,202.5,74,Masters 1,B,M,Single-ply
3,Rafał Szendera,,1971,Poland,73.46,195,197.5,-202.5,197.5,197.5,74,Masters 1,B,M,Single-ply
4,Evgeniy Nosach,,1976,Russia,73.42,195,-200,-200,195,195,74,Masters 1,B,M,Single-ply
5,Marcus Holmgren,,1975,Sweden,73.78,175,180,-200,180,180,74,Masters 1,B,M,Single-ply
6,James Golembieski,,1979,USA,73.22,155,-175,-175,155,155,74,Masters 1,B,M,Single-ply
DQ,Khangal Purevdorj,,1975,Mongolia,73.52,-150,-150,-177.5,,,74,Masters 1,B,M,Single-ply
1,Mike Ciupinski,,1979,USA,82.88,240,262.5,270,270,270,83,Masters 1,B,M,Single-ply
2,Tomi Vikla,,1970,Finland,82.56,-220,220,222.5,222.5,222.5,83,Masters 1,B,M,Single-ply
3,Munkhchuluun Gimbiinov,,1977,Mongolia,82.68,210,222.5,-225,222.5,222.5,83,Masters 1,B,M,Single-ply
4,Cyril Pinguet,,1972,France,82.44,-220,220,-222.5,220,220,83,Masters 1,B,M,Single-ply
5,Artak Asrian,,1979,Netherlands,81.88,175,185,195,195,195,83,Masters 1,B,M,Single-ply
6,Robert King,,1974,Canada,82.04,75,155,-160,155,155,83,Masters 1,B,M,Single-ply
DQ,Michio Yasue,,1970,Japan,82.14,-260,-260,-267.5,,,83,Masters 1,B,M,Single-ply
1,Thomas Wetzstein,,1974,Austria,91.1,270,-275,-280,270,270,93,Masters 1,B,M,Single-ply
2,Grzegorz Nocek,,1973,Poland,92.25,265,-272.5,-272.5,265,265,93,Masters 1,B,M,Single-ply
3,Sukhbat Enkhbayar,,1979,Mongolia,92.8,220,230,-240,230,230,93,Masters 1,B,M,Single-ply
4,Adir Manzano,,1978,Mexico,92.15,200,210,-230,210,210,93,Masters 1,B,M,Single-ply
5,Thomas Goldhahn,,1978,Germany,90.7,200,-205,205,205,205,93,Masters 1,B,M,Single-ply
6,Vladimír Nebola,,1970,Czechia,89.75,195,202.5,-210,202.5,202.5,93,Masters 1,B,M,Single-ply
7,Tibor Zakor,,1979,Hungary,91.5,185,-190,-190,185,185,93,Masters 1,B,M,Single-ply
8,Daniel Pires,,1971,France,91.8,-185,185,-215,185,185,93,Masters 1,B,M,Single-ply
DQ,Takayuki Miyamoto,,1973,Japan,91.8,-240,-240,-240,,,93,Masters 1,B,M,Single-ply
DQ,Mirko Vahl,,1977,Germany,92,-210,-210,-215,,,93,Masters 1,B,M,Single-ply
1,Masahiko Kassai,,1971,Japan,104.54,285,290,-316,290,290,105,Masters 1,B,M,Single-ply
2,Uuganbayar Damdin,,1976,Mongolia,103.9,262.5,-270,-270,262.5,262.5,105,Masters 1,B,M,Single-ply
3,William Thacker,,1972,USA,103.2,252.5,257.5,-262.5,257.5,257.5,105,Masters 1,B,M,Single-ply
4,Redda Haddou,,1978,France,100.22,-210,210,-262.5,210,210,105,Masters 1,B,M,Single-ply
5,Kelemen Richárd,,1975,Hungary,96.38,157.5,165,-172.5,165,165,105,Masters 1,B,M,Single-ply
DQ,Frédéric Beyon,,1975,France,103.38,-250,-250,-250,,,105,Masters 1,B,M,Single-ply
DQ,Khaled Ghazal,,1972,Czechia,104.68,-270,-270,-270,,,105,Masters 1,B,M,Single-ply
1,Ruslan Pavlikov,,1978,Russia,114.5,310,-317.5,-317.5,310,310,120,Masters 1,B,M,Single-ply
2,Steve Mann #1,,1975,USA,119.05,-297.5,297.5,-312.5,297.5,297.5,120,Masters 1,B,M,Single-ply
3,Zbyněk Krejča,,1974,Czechia,119.95,-285,285,292.5,292.5,292.5,120,Masters 1,B,M,Single-ply
4,Bayarkhuu Tserendamba,,1971,Mongolia,119.9,260,-270,-285,260,260,120,Masters 1,B,M,Single-ply
5,Charles Duval,,1972,France,119.9,260,-280,-285,260,260,120,Masters 1,B,M,Single-ply
6,Otgonbayar Ayush,,1977,Mongolia,119.5,250,-260,-265,250,250,120,Masters 1,B,M,Single-ply
7,Sandrino Herder,,1975,Germany,116.55,200,210,-220,210,210,120,Masters 1,B,M,Single-ply
8,Kaj Mattila,,1970,Finland,114.05,195,205,-220,205,205,120,Masters 1,B,M,Single-ply
9,Timo Rukkila,,1972,Finland,115.9,195,205,-215,205,205,120,Masters 1,B,M,Single-ply
10,Arnaud Clavier,,1975,France,110.5,70,,,70,70,120,Masters 1,B,M,Single-ply
DQ,Tomoyuki Yamamori,,1972,Japan,111.35,-280,-280,-292.5,,,120,Masters 1,B,M,Single-ply
DQ,Ryan Gill,,1976,USA,119,-272.5,-277.5,-285,,,120,Masters 1,B,M,Single-ply
1,Jaroslav Šoukal,,1972,Czechia,174.6,-325,325,-332.5,325,325,120+,Masters 1,B,M,Single-ply
2,Günther Salbeck,,1978,Germany,124.65,237.5,-247.5,-255,237.5,237.5,120+,Masters 1,B,M,Single-ply
3,James Brincat-Smith,,1975,UK,207.3,222.5,232.5,-240,232.5,232.5,120+,Masters 1,B,M,Single-ply
DQ,Jeffrey Snyder,,1971,USA,136.35,-330,-330,-330,,,120+,Masters 1,B,M,Single-ply
DQ,Jérôme Guidez,,1974,France,154.6,-300,-300,-300,,,120+,Masters 1,B,M,Single-ply
1,Kazuo Nakata,,1967,Japan,58.4,172.5,-180,180,180,180,59,Masters 2,B,M,Single-ply
2,Štefan Koľšovský,,1961,Slovakia,58.3,132.5,-140,140,140,140,59,Masters 2,B,M,Single-ply
1,Hisayuki Nakayama,,1963,Japan,63.28,190,192.5,200,200,200,66,Masters 2,B,M,Single-ply
2,Steve Petrencak,,1968,USA,65.7,155,165,-175,165,165,66,Masters 2,B,M,Single-ply
DQ,Olivier Waymel,,1966,France,64.78,-185,-185,-185,,,66,Masters 2,B,M,Single-ply
1,Nobuyuki Hamada,,1969,Japan,73.22,175,185,-213.5,185,185,74,Masters 2,B,M,Single-ply
2,Eric Verhaege,,1963,France,72.42,160,167.5,-172.5,167.5,167.5,74,Masters 2,B,M,Single-ply
3,Charles Smith,,1960,Netherlands,66.88,162.5,-167.5,-167.5,162.5,162.5,74,Masters 2,B,M,Single-ply
4,Jukka Siltanen,,1965,Sweden,73.2,135,142.5,-147.5,142.5,142.5,74,Masters 2,B,M,Single-ply
1,Aleksey Neveykov,,1966,Russia,82.46,235,245,-250.5,245,245,83,Masters 2,B,M,Single-ply
2,Fabrice Bertin,,1967,France,82.78,212.5,217.5,222.5,222.5,222.5,83,Masters 2,B,M,Single-ply
3,Donovan Thompson,,1966,USA,82.2,202.5,207.5,-217.5,207.5,207.5,83,Masters 2,B,M,Single-ply
4,Tomas Ring,,1960,Sweden,82.56,205,-212.5,-212.5,205,205,83,Masters 2,B,M,Single-ply
5,Wesley Kipp,,1962,USA,82.56,200,-215,-215,200,200,83,Masters 2,B,M,Single-ply
6,Andrew Howard,,1969,Hong Kong,82.68,175,185,195,195,195,83,Masters 2,B,M,Single-ply
7,Eigo Ito,,1968,Japan,82.32,190,-205,-210,190,190,83,Masters 2,B,M,Single-ply
1,Frans van der Putten,,1962,Netherlands,92.3,240,245,250,250,250,93,Masters 2,B,M,Single-ply
2,Michel Marneur,,1968,France,92.45,230,235,-240,235,235,93,Masters 2,B,M,Single-ply
3,Eiji Fujiwara,,1968,Japan,85.25,200,-215,227.5,227.5,227.5,93,Masters 2,B,M,Single-ply
4,Petteri Laurikainen,,1969,Finland,91.6,-227.5,227.5,-245,227.5,227.5,93,Masters 2,B,M,Single-ply
5,Uwe Hering,,1963,Germany,92.65,-220,220,-230,220,220,93,Masters 2,B,M,Single-ply
6,Gemel Boughamdouz,,1963,France,91,212.5,-220,-225,212.5,212.5,93,Masters 2,B,M,Single-ply
7,Mario Schnurr,,1966,Germany,92.85,-192.5,-192.5,192.5,192.5,192.5,93,Masters 2,B,M,Single-ply
8,Thomas Cencich,,1960,USA,86.35,190,-212.5,-212.5,190,190,93,Masters 2,B,M,Single-ply
9,Mark Phillips,,1968,South Africa,91.95,185,-190,190,190,190,93,Masters 2,B,M,Single-ply
10,Gordon Sjodin,,1966,Canada,92.75,185,-200,-200,185,185,93,Masters 2,B,M,Single-ply
11,Bimal Indu Sharma,,1964,India,89.35,125,135,140,140,140,93,Masters 2,B,M,Single-ply
1,Shuji Goto,,1968,Japan,103.14,242.5,252.5,255,255,255,105,Masters 2,B,M,Single-ply
2,Fabrice Leroy,,1963,France,103.44,235,242.5,-255,242.5,242.5,105,Masters 2,B,M,Single-ply
3,Mike Ferrantelli,,1966,USA,104.22,235,-242.5,-245,235,235,105,Masters 2,B,M,Single-ply
4,Seppo Norpila,,1963,Finland,98.4,170,177.5,182.5,182.5,182.5,105,Masters 2,B,M,Single-ply
5,Tarmo Vanhamäki,,1960,Finland,101.14,175,180,-185,180,180,105,Masters 2,B,M,Single-ply
6,Imre Miko #1,,1967,Hungary,95.18,-145,145,150,150,150,105,Masters 2,B,M,Single-ply
DQ,Arturas Macionis,,1968,Lithuania,95.92,-170,-170,-170,,,105,Masters 2,B,M,Single-ply
DQ,Peer Hänsicke,,1961,Germany,98.74,-242.5,-242.5,-242.5,,,105,Masters 2,B,M,Single-ply
1,Kohei Wada,,1964,Japan,119.4,295,-302.5,-305,295,295,120,Masters 2,B,M,Single-ply
2,David Doan,,1964,USA,119.15,260,270,-295,270,270,120,Masters 2,B,M,Single-ply
3,Pascal Siroux,,1964,France,118.15,195,-205,-205,195,195,120,Masters 2,B,M,Single-ply
4,Timo Rantala,,1963,Finland,118.1,160,-195,-195,160,160,120,Masters 2,B,M,Single-ply
1,Kaido Leesmann,,1969,Estonia,131.7,295,300,310.5,310.5,310.5,120+,Masters 2,B,M,Single-ply
2,János Cserna,,1968,Hungary,125.7,-287.5,-292.5,295,295,295,120+,Masters 2,B,M,Single-ply
3,Wade Johnson,,1965,USA,167.8,235,242.5,252.5,252.5,252.5,120+,Masters 2,B,M,Single-ply
4,Patrice Lefebvre,,1962,France,149.05,-240,240,-250,240,240,120+,Masters 2,B,M,Single-ply
5,Daniel Gaudreau,,1960,USA,141.8,235,-242.5,-245,235,235,120+,Masters 2,B,M,Single-ply
DQ,Yasuto Fukushima,,1965,Japan,140.6,-210,-210,-210,,,120+,Masters 2,B,M,Single-ply
1,Hiroyuki Isagawa,,1953,Japan,58.7,-145,145,152.5,152.5,152.5,59,Masters 3,B,M,Single-ply
2,Hiroyuki Ishiwatari,,1959,Japan,56.9,-140,-145,150,150,150,59,Masters 3,B,M,Single-ply
3,Saveliy Pavlov,,1957,Russia,58.35,110,120,-122.5,120,120,59,Masters 3,B,M,Single-ply
1,Hideyuki Yano,,1959,Japan,65.3,167.5,171.5,-180,171.5,171.5,66,Masters 3,B,M,Single-ply
2,Keiji Sato,,1952,Japan,65.4,155,-157.5,-157.5,155,155,66,Masters 3,B,M,Single-ply
3,Claude Sitruk,,1950,France,65.45,150,-157.5,-157.5,150,150,66,Masters 3,B,M,Single-ply
4,Seppo Flink,,1953,Finland,65.35,100,-105,-105,100,100,66,Masters 3,B,M,Single-ply
1,Vasilii Motovilnik,,1957,Russia,73.4,178,-185,185,185,185,74,Masters 3,B,M,Single-ply
2,Daniel Sides,,1956,USA,72.8,142.5,-155,160,160,160,74,Masters 3,B,M,Single-ply
DQ,Yasuhiro Hayashi,,1956,Japan,73.35,-155,-160,-162.5,,,74,Masters 3,B,M,Single-ply
1,Osamu Iijima,,1954,Japan,82.6,-195,-195,195,195,195,83,Masters 3,B,M,Single-ply
2,Arthur Hirner,,1957,Germany,82.86,-192.5,-192.5,192.5,192.5,192.5,83,Masters 3,B,M,Single-ply
DQ,Andreas Petrenz,,1956,Germany,82.58,-207.5,-210,-210,,,83,Masters 3,B,M,Single-ply
1,Takeshi Kitagawa,,1958,Japan,86.36,210,-220,220,220,220,93,Masters 3,B,M,Single-ply
2,Ronald Bengtsson,,1959,Sweden,90.88,190,195,-212.5,195,195,93,Masters 3,B,M,Single-ply
3,Erick Deconinck,,1956,France,84.96,177.5,-187.5,-195,177.5,177.5,93,Masters 3,B,M,Single-ply
4,Voitto Ahopelto,,1956,Finland,91.36,135,-152.5,152.5,152.5,152.5,93,Masters 3,B,M,Single-ply
5,Gerhard Baumeister,,1952,Germany,85.06,-150,150,-160,150,150,93,Masters 3,B,M,Single-ply
DQ,Tomohiro Anraku,,1956,Japan,86.9,-180,-180,-180,,,93,Masters 3,B,M,Single-ply
DQ,Jos van Kersbergen,,1957,Netherlands,88.54,-180,-180,-180,,,93,Masters 3,B,M,Single-ply
1,Marius Vermeulen,,1957,Netherlands,102.2,-190,-190,190,190,190,105,Masters 3,B,M,Single-ply
2,William Schemel,,1959,USA,102.5,180,185,187.5,187.5,187.5,105,Masters 3,B,M,Single-ply
3,Gary Edwards,,1953,USA,103.42,177.5,182.5,-192.5,182.5,182.5,105,Masters 3,B,M,Single-ply
4,Laurent Durocher,,1952,France,101.32,-130,137.5,150,150,150,105,Masters 3,B,M,Single-ply
5,Daniel Royer,,1957,Canada,104.42,120,127.5,-140,127.5,127.5,105,Masters 3,B,M,Single-ply
DQ,Stanisław Mentel,,1954,Poland,100.44,-240.5,-240.5,-240.5,,,105,Masters 3,B,M,Single-ply
1,Vladimirs Kovalskis,,1958,Latvia,105.18,-205,205,-207.5,205,205,120,Masters 3,B,M,Single-ply
2,Gérard Oumailia,,1951,France,111.94,190,200,205,205,205,120,Masters 3,B,M,Single-ply
3,Sergy Shadyun,,1957,USA,119.1,-200,-200,200,200,200,120,Masters 3,B,M,Single-ply
4,Harri Tirronen,,1953,Finland,107.98,-190,195,-205,195,195,120,Masters 3,B,M,Single-ply
5,Bill Sindelar,,1951,USA,117.8,160,167.5,172.5,172.5,172.5,120,Masters 3,B,M,Single-ply
DQ,Brian Rock,,1959,Canada,115.38,-230,-230,-232.5,,,120,Masters 3,B,M,Single-ply
1,Brad Klinger,,1956,USA,130.9,250,252.5,-285,252.5,252.5,120+,Masters 3,B,M,Single-ply
2,Robert Crawford #1,,1951,USA,135.48,155,165,175,175,175,120+,Masters 3,B,M,Single-ply
1,Hisao Hamayama,,1947,Japan,58.3,122.5,-125,125,125,125,59,Masters 4,B,M,Single-ply
2,Ivan Zwick,,1939,USA,57.05,60,75,80,80,80,59,Masters 4,B,M,Single-ply
DQ,Toru Magome,,1943,Japan,58.75,-122.5,-122.5,-130,,,59,Masters 4,B,M,Single-ply
1,Tadanobu Danyasu,,1944,Japan,64.75,130,135,140,140,140,66,Masters 4,B,M,Single-ply
2,Michio Sugaya,,1947,Japan,64.9,-130,130,-135,130,130,66,Masters 4,B,M,Single-ply
3,Markku Kemppainen,,1949,Finland,64.25,110,-120,-130,110,110,66,Masters 4,B,M,Single-ply
1,Antero Kauranen,,1948,Finland,73.4,130,-142.5,-142.5,130,130,74,Masters 4,B,M,Single-ply
DQ,Bolesław Mąka,,1942,Poland,73.3,-140,-140,-140,,,74,Masters 4,B,M,Single-ply
1,Haruki Imaizumi,,1947,Japan,81.2,160,-166,166,166,166,83,Masters 4,B,M,Single-ply
DQ,Daribay Ospanov,,1949,Kazakhstan,81.94,-160,-160,-162.5,,,83,Masters 4,B,M,Single-ply
1,Göran Malmberg,,1943,Sweden,90.9,135,140,142.5,142.5,142.5,93,Masters 4,B,M,Single-ply
2,Jim McKenna,,1948,USA,92.12,130,135,140,140,140,93,Masters 4,B,M,Single-ply
3,Katsuji Kawabe,,1942,Japan,92.66,127.5,-137.5,137.5,137.5,137.5,93,Masters 4,B,M,Single-ply
4,Lucien Verne,,1944,France,88.86,120,-127.5,-127.5,120,120,93,Masters 4,B,M,Single-ply
DQ,Adriaan Fabrie,,1946,Netherlands,92.34,-135,-135,-137.5,,,93,Masters 4,B,M,Single-ply
1,John Moore,,1937,USA,101.62,105,110,120,120,120,105,Masters 4,B,M,Single-ply
2,Adzhibek Abakirov,,1947,Kyrgyzstan,98.16,80,90,-112.5,90,90,105,Masters 4,B,M,Single-ply
1,Niilo Maliniemi,,1946,Sweden,116.56,-200,200,220,220,220,120,Masters 4,B,M,Single-ply
2,Robert Evans #1,,1946,USA,106.34,140,150,-155,150,150,120,Masters 4,B,M,Single-ply
3,Mujir El Alami,,1946,Sweden,113.1,100,120,130,130,130,120,Masters 4,B,M,Single-ply
1,Abdulkarim Karaman,,1994,Kazakhstan,58.8,210,217.5,-221,217.5,217.5,59,Open,B,M,Single-ply
2,Ihor Harashchenko,,1988,Ukraine,59,197.5,-202.5,-220.5,197.5,197.5,59,Open,B,M,Single-ply
3,Fredrik Eskil Myrvang,,1990,Norway,57.2,180,-185,-185,180,180,59,Open,B,M,Single-ply
4,Dariusz Wszoła,,1978,Poland,58.65,165,170,-185,170,170,59,Open,B,M,Single-ply
DQ,Yasufumi Kimura,,1975,Japan,58.95,-217.5,-217.5,-220.5,,,59,Open,B,M,Single-ply
DQ,William Garcia #1,,1990,USA,58.3,-197.5,-197.5,-197.5,,,59,Open,B,M,Single-ply
1,Masashi Fukuda,,1984,Japan,65.7,240,245,-255,245,245,66,Open,B,M,Single-ply
2,Yan Urusov,,1989,Russia,65.5,232.5,237.5,-245,237.5,237.5,66,Open,B,M,Single-ply
3,Alisher Makhmudov,,1995,Kazakhstan,64.6,-220,220,-235,220,220,66,Open,B,M,Single-ply
4,Ho-Man Cheung,,1986,Hong Kong,65.95,150,162.5,170,170,170,66,Open,B,M,Single-ply
5,Joseph Diva,,1992,UK,64.3,-162.5,162.5,167.5,167.5,167.5,66,Open,B,M,Single-ply
6,Andrew Lang,,1987,Canada,65.75,155,162.5,-170,162.5,162.5,66,Open,B,M,Single-ply
7,Norbert Békési,,1994,Hungary,65.15,105,112.5,-117.5,112.5,112.5,66,Open,B,M,Single-ply
DQ,Andreas Frasl,,1983,Austria,64.75,-230,-230,-230,,,66,Open,B,M,Single-ply
DQ,Eldos Yermakhanov,,1990,Kazakhstan,65.9,-235,-235,-235,,,66,Open,B,M,Single-ply
1,Daiki Kodama,,1979,Japan,73.3,275,285,-301,285,285,74,Open,B,M,Single-ply
2,Ivan Chuprinko,,1986,Ukraine,73.3,270,280,-300.5,280,280,74,Open,B,M,Single-ply
3,Matti Christensen,,1995,Denmark,73.9,-270,270,275,275,275,74,Open,B,M,Single-ply
4,Andriy Balenkov,,1981,Ukraine,73.8,-250,260,272.5,272.5,272.5,74,Open,B,M,Single-ply
5,Oleg Butenko,,1983,Kazakhstan,72.8,245,252.5,-270,252.5,252.5,74,Open,B,M,Single-ply
6,Damarrio Holloway,,1980,USA,73.8,207.5,215,222.5,222.5,222.5,74,Open,B,M,Single-ply
7,Emmanuel Franklin,,1984,UK,71.75,205,212.5,220,220,220,74,Open,B,M,Single-ply
8,Kazuhiro Ishikawa,,1985,Philippines,73.8,165,-185,-200,165,165,74,Open,B,M,Single-ply
DQ,Amit Selberg,,1976,Sweden,73.75,-247.5,-247.5,,,,74,Open,B,M,Single-ply
DQ,Bayarbaatar Batgerel,,1991,Mongolia,73.9,-235,-235,-247.5,,,74,Open,B,M,Single-ply
1,Askar Shokhanov,,1983,Kazakhstan,81.95,305,311.5,315.5,315.5,315.5,83,Open,B,M,Single-ply
2,Sergey Knyazev,,1976,Russia,82.3,-297.5,-297.5,297.5,297.5,297.5,83,Open,B,M,Single-ply
3,Evgeniy Vasyukov,,1985,Russia,82.75,290,-300,-300,290,290,83,Open,B,M,Single-ply
4,Mykyta Ivashkin,,1991,Ukraine,82.15,-260,260,282.5,282.5,282.5,83,Open,B,M,Single-ply
5,Goki Omuro,,1993,Japan,78.75,280,-285,-290,280,280,83,Open,B,M,Single-ply
6,Mads Friche,,1983,Denmark,82.6,250,257.5,262.5,262.5,262.5,83,Open,B,M,Single-ply
7,Luke Hanifen,,1981,USA,82.9,-245,-245,245,245,245,83,Open,B,M,Single-ply
8,Norbert Csalami,,1987,Hungary,82.55,190,-200,200,200,200,83,Open,B,M,Single-ply
DQ,Raik Günterberg,,1989,Germany,82.5,-260,-260,-260,,,83,Open,B,M,Single-ply
DQ,Zhavlan Shaukatov,,1998,Kazakhstan,81.55,-295,-300,-305,,,83,Open,B,M,Single-ply
1,Eduard Tebenkov,,1990,Russia,92.42,325,335,-350,335,335,93,Open,B,M,Single-ply
2,Kostiantyn Musiienko,,1997,Ukraine,91.68,307.5,317.5,322.5,322.5,322.5,93,Open,B,M,Single-ply
3,Adam Mamola,,1977,USA,92.52,-312.5,312.5,320,320,320,93,Open,B,M,Single-ply
4,Jan Wegiera,,1965,Poland,92.64,305,310,-315,310,310,93,Open,B,M,Single-ply
5,Nozomu Yoshikawa,,1986,Japan,90.56,285,295,-312.5,295,295,93,Open,B,M,Single-ply
6,Oliver Dahlkvist,,1995,Sweden,92.76,-277.5,277.5,-315,277.5,277.5,93,Open,B,M,Single-ply
7,Battumur Khumuugul,,1974,Mongolia,92.78,270,-280,-307.5,270,270,93,Open,B,M,Single-ply
8,Masahito Kitsui,,1978,Hong Kong,92.46,265,-282.5,-282.5,265,265,93,Open,B,M,Single-ply
9,Andy Champ,,1983,UK,92.38,240,-247.5,-247.5,240,240,93,Open,B,M,Single-ply
10,John MacDonald #1,,1983,Canada,92.44,205,222.5,-240,222.5,222.5,93,Open,B,M,Single-ply
11,Andriy Krymov,,1985,Ukraine,92.82,100,,,100,100,93,Open,B,M,Single-ply
DQ,Vyacheslav Tsoy,,1984,Kazakhstan,89.76,-292.5,-297.5,-312.5,,,93,Open,B,M,Single-ply
1,Vladimir Grishaev,,1981,Russia,103.56,335,-345,346,346,346,105,Open,B,M,Single-ply
2,Arslan Suyunshaliyev,,1989,Kazakhstan,104.54,335,345,-346.5,345,345,105,Open,B,M,Single-ply
3,Tumenjargal Dashzegve,,1987,Mongolia,104.32,-335,340,-346.5,340,340,105,Open,B,M,Single-ply
4,Volodymyr Bettyar,,1984,Ukraine,102.1,330,-340,-345.5,330,330,105,Open,B,M,Single-ply
5,Allan Grenier,,1990,France,104.92,300,-322.5,325,325,325,105,Open,B,M,Single-ply
6,Yasuki Yamashita,,1991,Japan,100.68,305,320,-322.5,320,320,105,Open,B,M,Single-ply
7,Sergey Degtyaryov,,1992,Russia,104.04,315,320,-337.5,320,320,105,Open,B,M,Single-ply
8,Mattias Ivarsson,,1987,Sweden,104.6,290,-300,-300,290,290,105,Open,B,M,Single-ply
9,Michael Gibson #2,,1987,UK,102.52,230,-240,-247.5,230,230,105,Open,B,M,Single-ply
DQ,Khatantumur Balburam,,1991,Mongolia,102.82,-250,-250,-250,,,105,Open,B,M,Single-ply
DQ,Ralf A. Male,,1994,Norway,104.82,-315,-315,-315,,,105,Open,B,M,Single-ply
1,Aleksandr Sykmenyov,,1978,Russia,119.78,345,357.5,365,365,365,120,Open,B,M,Single-ply
2,Viktor Leskovets,,1990,Ukraine,108.88,340,355,-363,355,355,120,Open,B,M,Single-ply
3,Brady Stewart #1,,1982,USA,119.54,350,-357.5,-357.5,350,350,120,Open,B,M,Single-ply
4,Zbyněk Krejča,,1974,Czechia,118.34,290,-310,310,310,310,120,Open,B,M,Single-ply
5,Quintin Meyer,,1991,USA,119.18,290,300,307.5,307.5,307.5,120,Open,B,M,Single-ply
6,Per Nilsson,,1974,Sweden,117.98,305,-350,-357.5,305,305,120,Open,B,M,Single-ply
7,Toshihiro Kajii,,1980,Japan,112.88,-300,300,-305,300,300,120,Open,B,M,Single-ply
8,Jakob Thrane Mainz,,1993,Denmark,119.72,297.5,-305,-305,297.5,297.5,120,Open,B,M,Single-ply
9,Shane Martin,,1988,Canada,117.94,295,-345,-350,295,295,120,Open,B,M,Single-ply
10,Jesper B Mikkelsen,,1989,Denmark,119.74,295,-305,-305,295,295,120,Open,B,M,Single-ply
DQ,Chimedtseren Bataa,,1981,Mongolia,119.52,-355,-357.5,-360,,,120,Open,B,M,Single-ply
DQ,Per Marius Hole,,1989,Norway,117.64,-347.5,-347.5,-350,,,120,Open,B,M,Single-ply
1,Jonathan Leo,,1977,USA,163.08,375,-385,385,385,385,120+,Open,B,M,Single-ply
2,Altangerel Bujinlkham,,1976,Mongolia,133.66,-372.5,-372.5,375,375,375,120+,Open,B,M,Single-ply
3,Kirill Kayava,,1976,Russia,152.4,342.5,352.5,360,360,360,120+,Open,B,M,Single-ply
4,Jaroslav Šoukal,,1972,Czechia,175.54,342.5,352.5,360,360,360,120+,Open,B,M,Single-ply
5,Niklas Pettersson,,1991,Sweden,157.06,342.5,-355,-355,342.5,342.5,120+,Open,B,M,Single-ply
6,Kenneth Sandvik,,1975,Finland,139.5,320,330,-352.5,330,330,120+,Open,B,M,Single-ply
7,Steve Mann #1,,1975,USA,121.32,-300,-300,300,300,300,120+,Open,B,M,Single-ply
8,Ajay Gogna,,1988,India,136.14,-190,190,-202.5,190,190,120+,Open,B,M,Single-ply
DQ,Daiki Yanagawa,,1976,Japan,135.46,-340,-340,-340,,,120+,Open,B,M,Single-ply
DQ,Jordi Snijders,,1986,Netherlands,125.54,-320,-320,-330,,,120+,Open,B,M,Single-ply
1,Yukako Fukushima,,1970,Japan,46.52,125,130,137.5,137.5,137.5,47,Open,B,F,Single-ply
2,Yana Zadorina,,1982,Russia,46.96,115,120,125,125,125,47,Open,B,F,Single-ply
3,Karina Simonyants,,1977,Russia,46.94,97.5,105,110,110,110,47,Open,B,F,Single-ply
4,Radha Kumari,,1987,India,45.98,30,40,45,45,45,47,Open,B,F,Single-ply
5,Susan Elwyn,,1947,USA,46.12,40,42.5,-47.5,42.5,42.5,47,Open,B,F,Single-ply
6,Manisha Sharma,,1994,India,46.18,40,-50,-50,40,40,47,Open,B,F,Single-ply
1,Aigul Sitdikova,,1989,Russia,51.6,142.5,150.5,156,156,156,52,Open,B,F,Single-ply
2,Oksana Prikhodko,,1991,Ukraine,51.94,130,137.5,-151,137.5,137.5,52,Open,B,F,Single-ply
3,Kaori Nagaya-Shirakawa,,1963,Japan,51.26,120,-125,127.5,127.5,127.5,52,Open,B,F,Single-ply
4,Olga Gataulina,,1990,Russia,50.94,117.5,120,125,125,125,52,Open,B,F,Single-ply
5,Tetiana Bila,,1996,Ukraine,51.04,117.5,125,-127.5,125,125,52,Open,B,F,Single-ply
6,Maura Shuttleworth,,1976,USA,51.68,110,-117.5,-117.5,110,110,52,Open,B,F,Single-ply
7,Jessica Reyes,,1983,Mexico,51.72,-100,-100,100,100,100,52,Open,B,F,Single-ply
8,Mohini,,1987,India,50.72,75,-80,-80,75,75,52,Open,B,F,Single-ply
DQ,Marcela Sandvik,,1974,Finland,51.58,-120,-122.5,,,,52,Open,B,F,Single-ply
1,Akane Ishibashi,,1993,Japan,54.9,120,125,135,135,135,57,Open,B,F,Single-ply
2,Mélodie Anthouard,,1988,France,56.82,-135,135,-137.5,135,135,57,Open,B,F,Single-ply
3,Chelsie Hustad,,1991,USA,56.2,112.5,122.5,127.5,127.5,127.5,57,Open,B,F,Single-ply
4,Maria Frank,,1984,Canada,55.4,110,120,-130,120,120,57,Open,B,F,Single-ply
5,Magdolna Petróczki,,1968,Hungary,52.44,80,87.5,90,90,90,57,Open,B,F,Single-ply
6,Lkhamnorjmaa Badmaadorj,,1991,Mongolia,57,85,-90,-90,85,85,57,Open,B,F,Single-ply
DQ,Larisa Kotkova,,1974,Russia,56.86,-150,-150,-150,,,57,Open,B,F,Single-ply
1,Anna Birzhevaya,,1992,Russia,62.32,170,175,185,185,185,63,Open,B,F,Single-ply
2,Larysa Soloviova #1,,1978,Ukraine,62.96,165,175,184.5,184.5,184.5,63,Open,B,F,Single-ply
3,Mayumi Kitamura,,1967,Japan,62.6,157.5,165,167.5,167.5,167.5,63,Open,B,F,Single-ply
4,Matilda Vilmar,,1996,Sweden,62.56,140,157.5,165,165,165,63,Open,B,F,Single-ply
5,Linn Hèlen Solbakken Fjeld,,1992,Norway,61.74,-130,130,-137.5,130,130,63,Open,B,F,Single-ply
6,Maria Hakulinen,,1990,Finland,60.34,120,125,-130,125,125,63,Open,B,F,Single-ply
7,Agnieszka Tuczykont,,1985,Poland,62.16,115,125,-132.5,125,125,63,Open,B,F,Single-ply
8,Ruth Hole,,1989,Norway,62.02,122.5,-127.5,-127.5,122.5,122.5,63,Open,B,F,Single-ply
9,Aya Yamashita,,1986,Japan,62.5,115,122.5,-130,122.5,122.5,63,Open,B,F,Single-ply
10,Faye Jordan,,1982,UK,62.16,105,110,115,115,115,63,Open,B,F,Single-ply
11,Monika Sharma,,1986,India,61.64,40,-50,-50,40,40,63,Open,B,F,Single-ply
DQ,Bianca Wienroither,,1984,Austria,62.52,-135,-135,-135,,,63,Open,B,F,Single-ply
1,Rhaea Stinn,,1988,Canada,71.76,185,190,191,191,191,72,Open,B,F,Single-ply
2,Tetyana Melnyk,,1985,Ukraine,71.92,167.5,177.5,190.5,190.5,190.5,72,Open,B,F,Single-ply
3,Maria Dubenskaya,,1988,Russia,67.92,-175,-175,175,175,175,72,Open,B,F,Single-ply
4,Zhadyra Kabieva,,1992,Kazakhstan,70.08,145,152.5,160,160,160,72,Open,B,F,Single-ply
5,Andrea Hammarström,,1977,Sweden,69.56,157.5,-160,-160,157.5,157.5,72,Open,B,F,Single-ply
6,Kumi Mizoguchi,,1988,Japan,71.72,157.5,-160,-160,157.5,157.5,72,Open,B,F,Single-ply
7,Cathrin Monika Silberzahn,,1988,Germany,71.3,140,147.5,-162.5,147.5,147.5,72,Open,B,F,Single-ply
8,Iryna Vorobiova,,1980,Ukraine,68.28,140,-147.5,-157.5,140,140,72,Open,B,F,Single-ply
9,Kimberley Cowell,,1988,UK,69.16,117.5,125,130,130,130,72,Open,B,F,Single-ply
10,Genesse Caldero,,1985,Puerto Rico,71.04,115,122.5,130,130,130,72,Open,B,F,Single-ply
11,Rachel Steedman,,1995,UK,70.38,95,105,-112.5,105,105,72,Open,B,F,Single-ply
12,Edina Magyar,,1990,Hungary,70.42,-105,-105,105,105,105,72,Open,B,F,Single-ply
1,Natalie Hanson,,1990,USA,83.68,185,190,202,202,202,84,Open,B,F,Single-ply
2,Liudmila Protchenko,,1986,Russia,83.9,185,190,201.5,201.5,201.5,84,Open,B,F,Single-ply
3,Eva Engskar,,1973,Norway,83.58,-182.5,182.5,-190,182.5,182.5,84,Open,B,F,Single-ply
4,Ankie Timmers,,1986,Netherlands,79.52,177.5,-182.5,-182.5,177.5,177.5,84,Open,B,F,Single-ply
5,Ielja Strik,,1973,Netherlands,83.52,165,170,-182.5,170,170,84,Open,B,F,Single-ply
6,Hitomi Tajima,,1982,Japan,82.16,167.5,-172.5,-182.5,167.5,167.5,84,Open,B,F,Single-ply
7,Lydia Mele,,1998,USA,83.64,160,-165,-172.5,160,160,84,Open,B,F,Single-ply
8,Angelina Van Ryswyk,,1985,Canada,82.3,120,127.5,137.5,137.5,137.5,84,Open,B,F,Single-ply
9,Tünde Olajos,,1989,Hungary,83.38,-135,135,-140,135,135,84,Open,B,F,Single-ply
DQ,Linda Kristensen,,1977,Norway,79.06,-160,-160,-160,,,84,Open,B,F,Single-ply
DQ,Nicola Green,,1983,South Africa,83.02,-115,-115,-115,,,84,Open,B,F,Single-ply
DQ,Zhadyra Bermukhambetova,,1986,Kazakhstan,82.38,-170,-170,-182.5,,,84,Open,B,F,Single-ply
1,Brenda van der Meulen,,1978,Netherlands,113.54,-195,195,205,205,205,84+,Open,B,F,Single-ply
2,Melinda Lombosi,,1978,Hungary,136.08,175,185,200,200,200,84+,Open,B,F,Single-ply
3,Annette Rehoff Christensen,,1965,Denmark,124.04,192.5,197.5,-205,197.5,197.5,84+,Open,B,F,Single-ply
4,Maria Kamp Jensen,,1985,Denmark,102.76,185,192.5,-197.5,192.5,192.5,84+,Open,B,F,Single-ply
5,Xeniya Okatenko,,1994,Kazakhstan,114.04,-187.5,187.5,-200,187.5,187.5,84+,Open,B,F,Single-ply
6,Inna Orobets,,1971,Ukraine,105.78,172.5,177.5,185,185,185,84+,Open,B,F,Single-ply
7,Sara Rodock,,1981,USA,85.44,165,-172.5,-177.5,165,165,84+,Open,B,F,Single-ply
8,Upasana Mahajan,,1989,India,124.62,50,52.5,55,55,55,84+,Open,B,F,Single-ply
