Division,WeightClassKg,Place,Name,Team,BodyweightKg,Best3SquatKg,Best3BenchKg,Best3DeadliftKg,TotalKg,Equipment,Event,Sex
Boys,51.71,1,Christian Pena,Benavides,51.44,136.08,88.45,138.35,362.87,Single-ply,SBD,M
Boys,51.71,2,Seth Munoz,Mathis,51.26,115.67,63.5,156.49,335.66,Single-ply,SBD,M
Boys,51.71,3,Deion Vega,Agua Dulce,43.64,83.91,36.29,99.79,219.99,Single-ply,SBD,M
Boys,55.79,1,Adrian Campos,Freer,55.75,195.04,120.2,188.24,503.49,Single-ply,SBD,M
Boys,55.79,2,Josh Trevino,Corpus Christi West Oso,54.7,131.54,61.23,138.35,331.12,Single-ply,SBD,M
Boys,55.79,3,Anthony Ramirez,Corpus Christi West Oso,54.16,111.13,68.04,138.35,317.51,Single-ply,SBD,M
Boys,55.79,4,Sergio Benavente,Benavides,54.25,83.91,54.43,122.47,260.82,Single-ply,SBD,M
Boys,59.87,1,Damian Diaz,Hebbronville,59.06,190.51,83.91,185.97,460.4,Single-ply,SBD,M
Boys,67.13,1,Richard Rea,Freer,65.68,206.38,115.67,222.26,544.31,Single-ply,SBD,M
Boys,67.13,2,Sergio Sanchez #8,Falfurrias,65.05,188.24,106.59,190.51,485.34,Single-ply,SBD,M
Boys,67.13,3,Nico Perez,Benavides,67.04,172.37,99.79,172.37,444.52,Single-ply,SBD,M
Boys,67.13,4,Ramiro DeLeon,Mathis,67.04,167.83,102.06,163.29,433.18,Single-ply,SBD,M
Boys,67.13,5,Noel Velasquez,Laredo Johnson,65.23,172.37,77.11,158.76,408.23,Single-ply,SBD,M
Boys,67.13,6,Jesus Gonzalez,Benavides,62.87,154.22,83.91,158.76,396.89,Single-ply,SBD,M
Boys,67.13,7,Leonel Guerrero,Hebbronville,65.86,142.88,92.99,151.95,387.82,Single-ply,SBD,M
Boys,67.13,8,CJ Tanguma,Mathis,64.59,142.88,83.91,142.88,369.68,Single-ply,SBD,M
Boys,67.13,9,Luis Torres,Mathis,64.77,115.67,70.31,138.35,324.32,Single-ply,SBD,M
Boys,67.13,10,Ozzie Williams,Benavides,65.59,92.99,65.77,158.76,317.51,Single-ply,SBD,M
Boys,74.84,1,David Saldana,Zapata,74.75,213.19,115.67,213.19,542.04,Single-ply,SBD,M
Boys,74.84,2,Joaquin Leija,Agua Dulce,71.21,188.24,106.59,233.6,528.44,Single-ply,SBD,M
Boys,74.84,3,Joe Chick,Zapata,72.76,185.97,122.47,204.12,512.56,Single-ply,SBD,M
Boys,74.84,4,Carlos Gonzalez,Mathis,73.75,183.7,111.13,190.51,485.34,Single-ply,SBD,M
Boys,74.84,5,Josh Hernandez,Banquete,74.12,181.44,115.67,183.7,480.81,Single-ply,SBD,M
Boys,74.84,6,Isaiah Chavera,Hebbronville,74.75,156.49,106.59,170.1,433.18,Single-ply,SBD,M
Boys,74.84,DQ,Perci Alvarez,Zapata,73.48,,,,,Single-ply,SBD,M
Boys,74.84,DQ,Mark Santillan,Laredo Johnson,72.39,208.65,,,,Single-ply,SBD,M
Boys,74.84,DQ,Raul Barmea,Laredo Johnson,74.12,204.12,117.93,,,Single-ply,SBD,M
Boys,82.1,1,Oscar Salazar,Hebbronville,81.47,235.87,183.7,231.33,650.91,Single-ply,SBD,M
Boys,82.1,2,Jacob Warren,Ingleside,80.83,208.65,131.54,210.92,551.11,Single-ply,SBD,M
Boys,82.1,3,Dale Baez,Hebbronville,81.65,222.26,129.27,185.97,537.51,Single-ply,SBD,M
Boys,82.1,4,Caleb Marshall,Hebbronville,82.01,183.7,140.61,199.58,523.9,Single-ply,SBD,M
Boys,82.1,5,Matthew Garza,Corpus Christi West Oso,79.47,183.7,142.88,188.24,514.83,Single-ply,SBD,M
Boys,82.1,6,Ricardo Cantu,Freer,80.29,172.37,92.99,172.37,437.72,Single-ply,SBD,M
Boys,82.1,7,Daniel Narvaez,Falfurrias,81.01,156.49,90.72,161.03,408.23,Single-ply,SBD,M
Boys,82.1,8,Rey Perales,Benavides,80.88,158.76,86.18,158.76,403.7,Single-ply,SBD,M
Boys,82.1,9,Julian Urrea,Banquete,81.01,102.06,61.23,136.08,299.37,Single-ply,SBD,M
Boys,89.81,1,Daniel González,Kingsville King,88.9,308.44,163.29,274.42,746.16,Single-ply,SBD,M
Boys,89.81,2,John Martinez,Falfurrias,86,249.48,172.37,215.46,637.3,Single-ply,SBD,M
Boys,89.81,3,Christian Moreno,Kingsville King,89.27,172.37,113.4,172.37,458.13,Single-ply,SBD,M
Boys,89.81,4,Genaro Tijerina,Banquete,83.64,117.93,77.11,172.37,367.41,Single-ply,SBD,M
Boys,89.81,5,Marcos Valadez,Laredo Johnson,83.46,115.67,79.38,122.47,317.51,Single-ply,SBD,M
Boys,89.81,DQ,Paul Baez,Hebbronville,85,172.37,,,,Single-ply,SBD,M
Boys,89.81,DQ,Roel de los Santos,Zapata,87.72,,,,,Single-ply,SBD,M
Boys,99.79,1,Juan Chavera,Falfurrias,94.89,244.94,124.74,176.9,546.58,Single-ply,SBD,M
Boys,99.79,2,Alejandro Gómez,Hebbronville,92.53,199.58,111.13,161.03,471.74,Single-ply,SBD,M
Boys,99.79,3,Jaime Garcia #1,Zapata,97.52,190.51,108.86,167.83,467.2,Single-ply,SBD,M
Boys,99.79,4,John Guevara,Banquete,93.17,165.56,95.25,181.44,442.25,Single-ply,SBD,M
Boys,99.79,5,Tiger Perez,Kingsville King,99.34,158.76,79.38,172.37,410.5,Single-ply,SBD,M
Boys,99.79,6,Josiah Gonzalez,Hebbronville,98.34,170.1,79.38,147.42,396.89,Single-ply,SBD,M
Boys,99.79,DQ,Joe Guevara,Banquete,91.53,113.4,,,,Single-ply,SBD,M
Boys,99.79,DQ,Leo Solis,Zapata,98.61,176.9,120.2,,,Single-ply,SBD,M
Boys,99.79,DQ,Roohan Charania,Kingsville King,99.7,,,,,Single-ply,SBD,M
Boys,109.77,1,Gilbert Arriaga,Kingsville King,103.87,294.84,183.7,292.57,771.11,Single-ply,SBD,M
Boys,109.77,2,Joey Garza,Falfurrias,108.68,294.84,158.76,283.5,737.09,Single-ply,SBD,M
Boys,109.77,3,Anthony Rogers,Ingleside,107.41,272.16,156.49,183.7,612.35,Single-ply,SBD,M
Boys,109.77,4,Luis Rios,Laredo Johnson,108.14,213.19,145.15,210.92,569.26,Single-ply,SBD,M
Boys,109.77,5,Rolando Galaviz,Laredo Johnson,105.51,204.12,127.01,215.46,546.58,Single-ply,SBD,M
Boys,109.77,6,Jessiah Castellanos,Kingsville King,108.23,226.8,113.4,183.7,523.9,Single-ply,SBD,M
Boys,109.77,7,Santos Castillo,Agua Dulce,103.42,206.38,102.06,167.83,476.27,Single-ply,SBD,M
Boys,109.77,8,James Gomez,Banquete,107.05,156.49,97.52,167.83,421.84,Single-ply,SBD,M
Boys,109.77,9,Juanito Cabrera,Falfurrias,105.6,183.7,72.57,163.29,419.57,Single-ply,SBD,M
Boys,109.77,10,Nicholas Gutierrez,Mathis,102.6,165.56,99.79,149.69,415.04,Single-ply,SBD,M
Boys,124.74,1,Pete Dominguez,Hebbronville,116.66,197.31,117.93,204.12,519.36,Single-ply,SBD,M
Boys,124.74,DQ,Claudio Padilla,Laredo Johnson,123.47,,,,,Single-ply,SBD,M
Boys,124.74+,1,Jonathan Rodriguez #9,Agua Dulce,147.42,276.69,163.29,219.99,659.98,Single-ply,SBD,M
Boys,124.74+,2,Ademar Garcia,Hebbronville,137.53,208.65,111.13,174.63,494.42,Single-ply,SBD,M
