Division,WeightClassKg,Place,Name,Team,BodyweightKg,Best3SquatKg,Best3BenchKg,Best3DeadliftKg,TotalKg,Equipment,Event,Sex
Boys,51.71,1,Alfredo Barron,Splendora,50.08,122.47,68.04,149.69,340.19,Single-ply,SBD,M
Boys,51.71,2,Patrick Dishman,Huntsville,48.76,111.13,65.77,124.74,301.64,Single-ply,SBD,M
Boys,51.71,3,Mason Walker,Livingston,47.94,90.72,43.09,102.06,235.87,Single-ply,SBD,M
Boys,51.71,DQ,Austyn Pruett,Shepherd,46.27,,,,,Single-ply,SBD,M
Boys,59.87,1,Noah Courvelle,Shepherd,59.69,154.22,79.38,158.76,392.36,Single-ply,SBD,M
Boys,59.87,2,Clay Coogler,Shepherd,57.52,154.22,79.38,142.88,376.48,Single-ply,SBD,M
Boys,59.87,DQ,Julian Cheek,Shepherd,58.69,,,,,Single-ply,SBD,M
Boys,67.13,1,Jordan Baker,Huntsville,66.77,197.31,133.81,197.31,528.44,Single-ply,SBD,M
Boys,67.13,2,Ivan Fuentes,Willis,66.5,167.83,104.33,188.24,460.4,Single-ply,SBD,M
Boys,67.13,3,Nathan Erickson,Splendora,63.91,167.83,102.06,185.97,455.86,Single-ply,SBD,M
Boys,67.13,4,Lane Goodwin,Splendora,63.41,142.88,88.45,179.17,410.5,Single-ply,SBD,M
Boys,67.13,5,Justin Compean,Splendora,60.46,124.74,92.99,158.76,376.48,Single-ply,SBD,M
Boys,67.13,6,Cameron Charles,Channelview,66.72,129.27,72.57,174.63,376.48,Single-ply,SBD,M
Boys,67.13,DQ,Justin Standley,Trinity,63.55,,,,,Single-ply,SBD,M
Boys,67.13,DQ,Nathan Gruver,Huffman Hargrave,66.77,,,,,Single-ply,SBD,M
Boys,74.84,1,Asa Spade,Splendora,74.16,249.48,142.88,222.26,614.62,Single-ply,SBD,M
Boys,74.84,2,Elvin Martinez,Huntsville,73.62,229.06,138.35,240.4,607.81,Single-ply,SBD,M
Boys,74.84,3,Colton Boatright,Shepherd,73.53,215.46,145.15,226.8,587.4,Single-ply,SBD,M
Boys,74.84,4,Dawson Nobriga,Channelview,74.71,217.72,147.42,213.19,578.33,Single-ply,SBD,M
Boys,74.84,5,Parker Hay,Trinity,74.84,215.46,124.74,206.38,546.58,Single-ply,SBD,M
Boys,74.84,6,Brandon Cheves,Shepherd,71.62,204.12,122.47,190.51,517.1,Single-ply,SBD,M
Boys,74.84,7,Ryan Hoffart,Splendora,74.57,183.7,120.2,210.92,514.83,Single-ply,SBD,M
Boys,74.84,8,BJ Mottu,Livingston,71.26,174.63,124.74,183.7,483.08,Single-ply,SBD,M
Boys,74.84,9,Jared Hope,Livingston,74.03,158.76,92.99,217.72,469.47,Single-ply,SBD,M
Boys,74.84,10,James Harrison #3,Shepherd,71.21,183.7,97.52,176.9,458.13,Single-ply,SBD,M
Boys,74.84,11,Caleb Jackson,Huffman Hargrave,67.9,167.83,102.06,183.7,453.59,Single-ply,SBD,M
Boys,74.84,12,Devin Kelley,Huffman Hargrave,74.75,174.63,102.06,163.29,439.98,Single-ply,SBD,M
Boys,74.84,13,Sebastian Maldonado,Trinity,74.8,161.03,102.06,176.9,439.98,Single-ply,SBD,M
Boys,74.84,14,Jonathan Alemen,Trinity,74.03,156.49,88.45,190.51,435.45,Single-ply,SBD,M
Boys,74.84,15,Zach Jenkins,Shepherd,68.04,167.83,83.91,174.63,426.38,Single-ply,SBD,M
Boys,74.84,16,Laveal Gibson,Channelview,72.08,158.76,99.79,165.56,424.11,Single-ply,SBD,M
Boys,74.84,17,Cameron Carson,Shepherd,72.57,156.49,90.72,154.22,401.43,Single-ply,SBD,M
Boys,74.84,18,Gabe West,New Caney Porter,74.84,129.27,86.18,149.69,365.14,Single-ply,SBD,M
Boys,74.84,19,Daniel Vasquez,Shepherd,70.76,136.08,88.45,124.74,349.27,Single-ply,SBD,M
Boys,74.84,20,Travis Johnson,Coldspring-Oakhurst,74.66,83.91,52.16,115.67,251.74,Single-ply,SBD,M
Boys,74.84,DQ,Mica Legg,Livingston,73.8,158.76,92.99,,,Single-ply,SBD,M
Boys,74.84,DQ,Emiliano Linares,Shepherd,67.22,108.86,,,,Single-ply,SBD,M
Boys,82.1,1,Alevon Holloman,Huntsville,80.29,229.06,131.54,206.38,566.99,Single-ply,SBD,M
Boys,82.1,2,Michael Morris #2,Splendora,76.7,199.58,133.81,213.19,546.58,Single-ply,SBD,M
Boys,82.1,3,Kelpatrick Manning,Huntsville,78.79,199.58,124.74,208.65,532.97,Single-ply,SBD,M
Boys,82.1,4,Alejandro Cortina,Channelview,82.05,199.58,102.06,204.12,505.76,Single-ply,SBD,M
Boys,82.1,5,Jonathan Salcido,Shepherd,78.02,174.63,120.2,142.88,437.72,Single-ply,SBD,M
Boys,82.1,6,Miles Tatum,Huntsville,75.7,163.29,83.91,183.7,430.91,Single-ply,SBD,M
Boys,82.1,7,Josh Barnhill,Willis,81.19,156.49,90.72,183.7,430.91,Single-ply,SBD,M
Boys,82.1,8,Devin Higgins,Huffman Hargrave,79.33,151.95,97.52,170.1,419.57,Single-ply,SBD,M
Boys,82.1,9,Garrett Mathews,Coldspring-Oakhurst,80.65,136.08,74.84,120.2,331.12,Single-ply,SBD,M
Boys,82.1,DQ,Riley Orn,Coldspring-Oakhurst,82.05,174.63,,,,Single-ply,SBD,M
Boys,89.81,1,Bobby Burke,Shepherd,83.28,190.51,140.61,192.78,523.9,Single-ply,SBD,M
Boys,89.81,2,Jaeryn Green,Huntsville,83.82,176.9,113.4,190.51,480.81,Single-ply,SBD,M
Boys,89.81,3,Caleb Butler,Huntsville,88.36,181.44,106.59,192.78,480.81,Single-ply,SBD,M
Boys,89.81,4,Carlos Norman,New Caney Porter,83.69,174.63,104.33,188.24,467.2,Single-ply,SBD,M
Boys,89.81,5,Michael Espitia,New Caney Porter,84.87,149.69,108.86,147.42,405.97,Single-ply,SBD,M
Boys,89.81,6,Jace Shrader,Shepherd,83.05,151.95,79.38,156.49,387.82,Single-ply,SBD,M
Boys,89.81,7,Angel Murillo,Shepherd,84.87,120.2,81.65,115.67,317.51,Single-ply,SBD,M
Boys,89.81,8,Jack Jordan,Coldspring-Oakhurst,82.87,106.59,70.31,138.35,315.25,Single-ply,SBD,M
Boys,89.81,DQ,Treyvaun Crawford,Trinity,86.18,233.6,136.08,,,Single-ply,SBD,M
Boys,99.79,1,Tyler Shirey,Shepherd,91.63,244.94,158.76,206.38,610.08,Single-ply,SBD,M
Boys,99.79,2,Michael Taylor #2,Splendora,97.66,208.65,147.42,231.33,587.4,Single-ply,SBD,M
Boys,99.79,3,Kolin Seward,Livingston,96.25,242.67,120.2,183.7,546.58,Single-ply,SBD,M
Boys,99.79,4,Camron Easley,New Caney Porter,96.48,183.7,142.88,204.12,530.7,Single-ply,SBD,M
Boys,99.79,5,Jorge Zumarraga,Willis,98.66,206.38,122.47,167.83,496.68,Single-ply,SBD,M
Boys,99.79,6,Isaiah Garcia,Shepherd,92.08,170.1,104.33,190.51,464.93,Single-ply,SBD,M
Boys,99.79,7,John Kuhl,Willis,97.11,183.7,90.72,183.7,458.13,Single-ply,SBD,M
Boys,99.79,8,Zyon Bell,New Caney Porter,93.17,165.56,102.06,149.69,417.3,Single-ply,SBD,M
Boys,99.79,9,Beau McCrary,Huffman Hargrave,90.45,145.15,83.91,156.49,385.55,Single-ply,SBD,M
Boys,99.79,10,Dyllan Hicks,Shepherd,92.76,81.65,65.77,108.86,256.28,Single-ply,SBD,M
Boys,109.77,1,Seth Mericle,Splendora,108.95,204.12,167.83,195.04,566.99,Single-ply,SBD,M
Boys,109.77,2,Gildardo Bernal,Channelview,104.51,229.06,127.01,208.65,564.72,Single-ply,SBD,M
Boys,109.77,3,Brandon Phillips,Trinity,109.63,226.8,142.88,190.51,560.19,Single-ply,SBD,M
Boys,109.77,4,Roberto Varvelo,Channelview,107.5,226.8,111.13,208.65,546.58,Single-ply,SBD,M
Boys,109.77,5,Chance Hodgkinson,New Caney Porter,100.61,226.8,129.27,188.24,544.31,Single-ply,SBD,M
Boys,109.77,6,JP Garcia,Willis,107.55,201.85,122.47,195.04,519.36,Single-ply,SBD,M
Boys,109.77,7,Mason Guinn,Willis,109.54,199.58,102.06,204.12,505.76,Single-ply,SBD,M
Boys,109.77,8,Clayton Martinez,Shepherd,107.5,192.78,86.18,192.78,471.74,Single-ply,SBD,M
Boys,109.77,9,Giovanny Garcia,Trinity,102.83,183.7,106.59,179.17,469.47,Single-ply,SBD,M
Boys,109.77,10,Noah Young #2,Huffman Hargrave,103.28,172.37,115.67,181.44,469.47,Single-ply,SBD,M
Boys,109.77,11,Tyler Talavera,New Caney Porter,105.91,172.37,106.59,165.56,444.52,Single-ply,SBD,M
Boys,109.77,12,Zach Gray,Huffman Hargrave,109.18,156.49,88.45,170.1,415.04,Single-ply,SBD,M
Boys,109.77,13,Trevor Hodge,Shepherd,109.77,127.01,72.57,142.88,342.46,Single-ply,SBD,M
Boys,109.77,DQ,Andrew Rhodes,Livingston,106.87,147.42,,,,Single-ply,SBD,M
Boys,109.77,DQ,Jake Jones,Willis,101.97,,,,,Single-ply,SBD,M
Boys,124.74,1,Cole Brumley,Huntsville,116.62,235.87,149.69,204.12,589.67,Single-ply,SBD,M
Boys,124.74,2,Max Cerino,Channelview,121.11,210.92,124.74,249.48,585.13,Single-ply,SBD,M
Boys,124.74,3,Caleb Johnson #7,New Caney Porter,116.53,229.06,142.88,199.58,571.53,Single-ply,SBD,M
Boys,124.74,4,Jason Vargas,Willis,120.43,238.14,124.74,197.31,560.19,Single-ply,SBD,M
Boys,124.74,5,Billy Dobbins,Livingston,121.93,226.8,129.27,190.51,546.58,Single-ply,SBD,M
Boys,124.74,6,Jose Silva,Channelview,117.16,188.24,124.74,190.51,503.49,Single-ply,SBD,M
Boys,124.74,7,Jace Mayfield,Willis,113.99,195.04,102.06,172.37,469.47,Single-ply,SBD,M
Boys,124.74,8,Byron Henderson,Channelview,112.63,183.7,117.93,158.76,460.4,Single-ply,SBD,M
Boys,124.74,9,Barcenas Cruz,Huffman Hargrave,121.02,154.22,115.67,190.51,460.4,Single-ply,SBD,M
Boys,124.74,10,Justin Capps,Shepherd,114.76,142.88,83.91,147.42,374.21,Single-ply,SBD,M
Boys,124.74+,1,Terry Carter,Livingston,157.71,322.05,145.15,310.71,777.91,Single-ply,SBD,M
Boys,124.74+,2,Quinlan Beck,Shepherd,143.2,317.51,176.9,249.48,743.89,Single-ply,SBD,M
Boys,124.74+,3,Jimmy White,Willis,136.4,288.03,163.29,226.8,678.12,Single-ply,SBD,M
Boys,124.74+,4,Zach Taylor #3,Shepherd,131.63,288.03,163.29,219.99,671.32,Single-ply,SBD,M
Boys,124.74+,5,Bernard Childs,Channelview,149.23,272.16,142.88,242.67,657.71,Single-ply,SBD,M
Boys,124.74+,6,David Mejia,Huntsville,127.91,217.72,136.08,199.58,553.38,Single-ply,SBD,M
Boys,124.74+,7,Atyias Casteel,Huntsville,131.54,185.97,104.33,188.24,478.54,Single-ply,SBD,M
