Place,Name,Sex,BirthDate,Country,Equipment,Division,BodyweightKg,WeightClassKg,Squat1Kg,Squat2Kg,Squat3Kg,Squat4Kg,Best3SquatKg,Bench1Kg,Bench2Kg,Bench3Kg,Best3BenchKg,Deadlift1Kg,Deadlift2Kg,Deadlift3Kg,Deadlift4Kg,Best3DeadliftKg,TotalKg,Event
1,Kelise Harrington,F,2001-12-13,UK,Sleeves,F-J-S,55.6,56,110,122.5,130,,130,62.5,67.5,-70,67.5,140,155,-162.5,,155,352.5,SBD
1,Keisha Friswell,F,2001-05-16,UK,Wraps,F-J,62.85,67.5,110,122.5,-135,,122.5,57.5,62.5,-67.5,62.5,110,120,-132.5,,120,305,SBD
1,Jamie-Lee Shapcott,F,2004-03-23,UK,Wraps,F-J,103.95,110,155,-165,165,,165,72.5,80,85,85,172.5,180,-185,,180,430,SBD
1,Nikola Bergane,F,2007-01-18,UK,Wraps,F-T2,53.7,56,130,-140,-145,,130,47.5,50,52.5,52.5,115,130,,,130,312.5,SBD
2,Kyra Knight,F,2008-03-03,UK,Wraps,F-T2,53.2,56,92.5,100,105,,105,37.5,40,42.5,42.5,95,107.5,110,,110,257.5,SBD
1,Isabelle Simper,F,2005-10-08,UK,Sleeves,F-T3-S,52.3,56,105,-110,-110,,105,65,67.5,-70,67.5,155,160,-165,,160,332.5,SBD
1,Gabriela Tokarska,F,2005-11-05,UK,Sleeves,F-T3-S,65,67.5,127.5,140,150,,150,67.5,75,82.5,82.5,157.5,170,182.5,-187.5,182.5,415,SBD
1,Joanna Kusznerko,F,2004-08-26,UK,Wraps,F-T3,84.45,90,147.5,157.5,-162.5,,157.5,70,75,82.5,82.5,155,-165,-167.5,,155,395,SBD
1,Huw Curram,M,2004-05-11,UK,Sleeves,M-J-S,82.35,82.5,175,185,195.5,,195.5,140,150,-160,150,215,227.5,240.5,,240.5,586,SBD
2,Zac Williams,M,2001-08-13,UK,Sleeves,M-J-S,81.9,82.5,180,190,200,207.5,200,130,135,140,140,180,192.5,202.5,,202.5,542.5,SBD
1,Louis Hughes #2,M,2001-05-19,UK,Sleeves,M-J-S,90,90,245,267.5,-285,,267.5,160,170,175,175,270,295,310,,310,752.5,SBD
2,Jay Penny,M,2003-01-12,UK,Sleeves,M-J-S,86.85,90,210,222.5,230,,230,120,127.5,-130,127.5,215,225,-235,,225,582.5,SBD
3,Luke O'Shea,M,2003-07-22,UK,Wraps,M-J,90,90,-160,170,190,,190,100,110,120,120,190,210,230,,230,540,SBD
4,Connor Billington,M,2002-07-24,UK,Wraps,M-J,88.95,90,152.5,160,167.5,,167.5,102.5,112.5,-120,112.5,192.5,205,-217.5,,205,485,SBD
1,James Vezey,M,2001-11-07,UK,Wraps,M-J,96.45,100,-270,275,287.5,,287.5,170,180,187.5,187.5,305,325,341,-356,341,816,SBD
2,Jordan Thomas #8,M,2001-09-17,UK,Wraps,M-J,94.45,100,260,280,-300,,280,145,155,-165,155,230,250,-262.5,,250,685,SBD
1,Stephen Wium,M,2000-12-05,UK,Sleeves,M-J-S,91.5,100,215,230,-242.5,,230,140,150,160,160,260,275,290,,290,680,SBD
1,Andrew Martin #1,M,2002-03-03,UK,Sleeves,M-J-S,108.85,110,280,-292.5,-292.5,,280,210,217.5,220,220,295,312.5,-325,,312.5,812.5,SBD
2,Matt Manester,M,2001-07-07,Australia,Wraps,M-J,108.7,110,-295,295,315,,315,175,185,190,190,285,305,-317.5,,305,810,SBD
3,Dylan Howe,M,2001-06-14,UK,Sleeves,M-J-S,109.15,110,212.5,222.5,230,,230,132.5,140,-147.5,140,282.5,300,,,300,670,SBD
4,Nathan Fleming #2,M,2003-06-05,UK,Wraps,M-J,105.55,110,-215,215,222.5,,222.5,130,135,140,140,245,260,272.5,,272.5,635,SBD
1,Lukas Jusko,M,2001-11-07,UK,Sleeves,M-J-S,112.6,125,285,-305,312.5,,312.5,147.5,155,-162.5,155,270,-290,-290,,270,737.5,SBD
1,Emerson Reddy,M,2003-01-10,UK,Wraps,M-J,138.65,140,240,-255,255,,255,125,132.5,140,140,220,232.5,-240,,232.5,627.5,SBD
1,Harry Corner,M,2006-10-02,UK,Sleeves,M-T2-S,99.2,100,225,237.5,250,,250,132.5,142.5,150,150,265,287.5,300,,300,700,SBD
1,Reagan Jones,M,2006-08-08,UK,Sleeves,M-T3-S,58.1,60,155,170,180,,180,90,100,-105,100,160,180,-185,,180,460,SBD
1,Harry Davies,M,2005-10-30,UK,Sleeves,M-T3-S,85.45,90,155,165,180,,180,100,110,117.5,117.5,190,215,230,,230,527.5,SBD
1,Aidan Mcnicholas,M,2005-09-05,UK,Wraps,M-T3,108.5,110,-225,255,-272.5,,255,140,157.5,,157.5,265,300,325,-330,325,737.5,SBD
