Division,WeightClassKg,Place,Name,Team,BodyweightKg,Best3SquatKg,Best3BenchKg,Best3DeadliftKg,TotalKg,Equipment,Event,Sex
Boys,51.71,1,Anthony Garcia,Weslaco,51.71,151.95,106.59,176.9,435.45,Single-ply,SBD,M
Boys,51.71,2,Leo Martinez,Rio Grande City,50.89,115.67,83.91,131.54,331.12,Single-ply,SBD,M
Boys,51.71,3,Anthony Trevino,Rio Grande City Grulla,50.76,99.79,61.23,115.67,276.69,Single-ply,SBD,M
Boys,51.71,4,Daniel Jeronimo,Hidalgo Early College,50.35,104.33,43.09,104.33,251.74,Single-ply,SBD,M
Boys,51.71,5,Jesus Puente,La Joya Palmview,46.49,92.99,52.16,102.06,247.21,Single-ply,SBD,M
Boys,55.79,1,Joshua Morin,PSJA North,55.79,158.76,104.33,170.1,433.18,Single-ply,SBD,M
Boys,55.79,2,Carlos Palomin,Weslaco,55.79,138.35,81.65,156.49,376.48,Single-ply,SBD,M
Boys,55.79,3,Jaime Martínez,Mission,55.38,106.59,70.31,122.47,299.37,Single-ply,SBD,M
Boys,55.79,4,Carlos Avila,La Joya,53.39,102.06,77.11,117.93,297.1,Single-ply,SBD,M
Boys,55.79,DQ,Gerardo Milan,La Joya,54.88,145.15,,,,Single-ply,SBD,M
Boys,55.79,DQ,Ivan Acher,McAllen Memorial,55.07,90.72,,,,Single-ply,SBD,M
Boys,59.87,1,Mike Barajas,Hidalgo Early College,58.6,231.33,129.27,204.12,564.72,Single-ply,SBD,M
Boys,59.87,2,Marcus Silva,McAllen Memorial,58.6,142.88,86.18,170.1,399.16,Single-ply,SBD,M
Boys,59.87,3,Eduardo Elizondo,Rio Grande City Grulla,59.42,102.06,92.99,133.81,328.85,Single-ply,SBD,M
Boys,59.87,4,Ismael Talamanle,Rio Grande City,56.97,113.4,79.38,127.01,319.78,Single-ply,SBD,M
Boys,59.87,5,Kameron Maples,McAllen Memorial,59.6,90.72,79.38,136.08,306.17,Single-ply,SBD,M
Boys,59.87,6,Ruben Saenz,McAllen Rowe,58.24,111.13,70.31,117.93,299.37,Single-ply,SBD,M
Boys,59.87,7,Samuel Garza,Sharyland Pioneer,59.87,99.79,54.43,83.91,238.14,Single-ply,SBD,M
Boys,59.87,DQ,Abraham Hernández,La Joya Palmview,59.28,217.72,,,,Single-ply,SBD,M
Boys,59.87,DQ,Joshua Martinez,Hidalgo Early College,59.56,,,,,Single-ply,SBD,M
Boys,67.13,1,Sergio Guerrero,Mission Veterans Memorial,65.36,188.24,102.06,197.31,487.61,Single-ply,SBD,M
Boys,67.13,2,Roberto Martínez,Mission,64.68,183.7,108.86,185.97,478.54,Single-ply,SBD,M
Boys,67.13,3,Coy Barrows,Sharyland Pioneer,67.13,174.63,108.86,183.7,467.2,Single-ply,SBD,M
Boys,67.13,4,Jacob Pina,La Joya Palmview,67.13,174.63,102.06,176.9,453.59,Single-ply,SBD,M
Boys,67.13,5,Kevin Alaniz,La Joya,63.23,172.37,104.33,172.37,449.06,Single-ply,SBD,M
Boys,67.13,6,Omar Solis,Weslaco,66.72,145.15,97.52,181.44,424.11,Single-ply,SBD,M
Boys,67.13,7,Jaaziel Espinoza,McAllen,67.13,151.95,102.06,165.56,419.57,Single-ply,SBD,M
Boys,67.13,8,Ricardo Pena #1,Rio Grande City,66.45,140.61,106.59,151.95,399.16,Single-ply,SBD,M
Boys,67.13,9,Victor Rodríguez #11,Mission,61.82,151.95,95.25,142.88,390.09,Single-ply,SBD,M
Boys,67.13,10,Chris Rios,Rio Grande City,63.46,151.95,99.79,129.27,381.02,Single-ply,SBD,M
Boys,67.13,11,Carlos Gonzalez,Sharyland Pioneer,67.13,133.81,88.45,147.42,369.68,Single-ply,SBD,M
Boys,67.13,12,Izthm Plantilla,Mission Sharyland,64.32,129.27,65.77,149.69,344.73,Single-ply,SBD,M
Boys,67.13,DQ,Angel Jaime,Mission Veterans Memorial,65,151.95,,,,Single-ply,SBD,M
Boys,67.13,DQ,Moses Olivarez,McAllen Memorial,64.77,149.69,104.33,,,Single-ply,SBD,M
Boys,67.13,DQ,Bryan Rodriguez,La Joya Juarez-Lincoln,61.87,,,,,Single-ply,SBD,M
Boys,74.84,1,Jacob Gracia,Weslaco,74.16,242.67,124.74,256.28,623.69,Single-ply,SBD,M
Boys,74.84,2,Francisco Marin,Weslaco,70.72,217.72,131.54,215.46,564.72,Single-ply,SBD,M
Boys,74.84,3,JC Escamilla,McAllen Memorial,74.07,201.85,136.08,215.46,553.38,Single-ply,SBD,M
Boys,74.84,4,Sean De La Garza,Mission Veterans Memorial,74.07,199.58,151.95,192.78,544.31,Single-ply,SBD,M
Boys,74.84,5,Joshua De La Cerda,Weslaco,73.12,181.44,127.01,195.04,503.49,Single-ply,SBD,M
Boys,74.84,6,Julian Hernandez,McAllen Memorial,74.25,181.44,120.2,183.7,485.34,Single-ply,SBD,M
Boys,74.84,7,Juan Elizondo,PSJA North,74.8,174.63,117.93,183.7,476.27,Single-ply,SBD,M
Boys,74.84,8,Michael Aguilar,McAllen,72.3,156.49,115.67,183.7,455.86,Single-ply,SBD,M
Boys,74.84,9,Santiago Zuniga,PSJA North,74.66,165.56,129.27,161.03,455.86,Single-ply,SBD,M
Boys,74.84,10,Leonardo Garza,La Joya,74.84,185.97,92.99,163.29,442.25,Single-ply,SBD,M
Boys,74.84,11,Cesar Cordova,Mission,68.13,158.76,104.33,156.49,419.57,Single-ply,SBD,M
Boys,74.84,12,Brandon Manteca,McAllen Memorial,73.03,149.69,111.13,158.76,419.57,Single-ply,SBD,M
Boys,74.84,13,Aaron Acevedo,La Joya,74.84,163.29,104.33,147.42,415.04,Single-ply,SBD,M
Boys,74.84,14,Victor Silva,Rio Grande City,73.07,122.47,108.86,167.83,399.16,Single-ply,SBD,M
Boys,74.84,15,Jacob Trevino,Sharyland Pioneer,74.84,136.08,86.18,145.15,367.41,Single-ply,SBD,M
Boys,74.84,16,Arturo Perez,Mission Veterans Memorial,72.39,124.74,70.31,167.83,362.87,Single-ply,SBD,M
Boys,74.84,17,Jonas Ortiz,McAllen Rowe,74.75,127.01,83.91,142.88,353.8,Single-ply,SBD,M
Boys,74.84,18,Adrian Villarreal,Mission Veterans Memorial,73.71,124.74,83.91,140.61,349.27,Single-ply,SBD,M
Boys,74.84,19,Eduardo Tijernia,Sharyland Pioneer,74.84,127.01,74.84,138.35,340.19,Single-ply,SBD,M
Boys,74.84,20,Jason Garza,Sharyland Pioneer,74.84,106.59,83.91,133.81,324.32,Single-ply,SBD,M
Boys,74.84,DQ,Marc Garcia,La Joya,74.84,156.49,24.95,,,Single-ply,SBD,M
Boys,74.84,DQ,Eriberto Villareal,Mission Veterans Memorial,72.76,,,,,Single-ply,SBD,M
Boys,82.1,1,Andres Hernandez,Hidalgo Early College,80.65,242.67,140.61,238.14,621.42,Single-ply,SBD,M
Boys,82.1,2,Michael Valle,Hidalgo Early College,82.1,210.92,111.13,217.72,539.77,Single-ply,SBD,M
Boys,82.1,3,Anibal Espinoza,La Joya,81.74,224.53,113.4,199.58,537.51,Single-ply,SBD,M
Boys,82.1,4,Ulysses Vasquez,McAllen Memorial,81.28,183.7,142.88,206.38,532.97,Single-ply,SBD,M
Boys,82.1,5,Harold Ramirez,Rio Grande City Grulla,82.1,204.12,113.4,201.85,519.36,Single-ply,SBD,M
Boys,82.1,6,Alfredo Perez,La Joya,80.74,204.12,95.25,188.24,487.61,Single-ply,SBD,M
Boys,82.1,7,Robert Farias,Mission Sharyland,81.06,204.12,111.13,170.1,485.34,Single-ply,SBD,M
Boys,82.1,8,Juan Rodriguez,Mission,79.42,174.63,104.33,201.85,480.81,Single-ply,SBD,M
Boys,82.1,9,Joel Pina,La Joya Palmview,78.65,181.44,104.33,190.51,476.27,Single-ply,SBD,M
Boys,82.1,10,Hunter Rodriguez,Sharyland Pioneer,82.1,145.15,102.06,165.56,412.77,Single-ply,SBD,M
Boys,82.1,11,James Gulley,Mission Veterans Memorial,77.61,136.08,74.84,156.49,367.41,Single-ply,SBD,M
Boys,82.1,12,Jose Sanchez,Rio Grande City Grulla,78.47,108.86,61.23,127.01,297.1,Single-ply,SBD,M
Boys,82.1,DQ,Bryan Leal,Weslaco,80.24,,,,,Single-ply,SBD,M
Boys,89.81,1,Fernando Hernandez,La Joya Juarez-Lincoln,89.31,251.74,149.69,249.48,650.91,Single-ply,SBD,M
Boys,89.81,2,Obed Hernandez,Sharyland Pioneer,89.81,260.82,138.35,231.33,630.49,Single-ply,SBD,M
Boys,89.81,3,Robert La Buff,Weslaco,85.14,219.99,131.54,226.8,578.33,Single-ply,SBD,M
Boys,89.81,4,Dylan Earhart,McAllen Memorial,89.13,208.65,113.4,204.12,526.17,Single-ply,SBD,M
Boys,89.81,5,Emmanuel Palomin,Weslaco,85.37,188.24,117.93,190.51,496.68,Single-ply,SBD,M
Boys,89.81,6,Sanden Yarto,McAllen,88.31,197.31,115.67,183.7,496.68,Single-ply,SBD,M
Boys,89.81,7,Ryan Alvarez,Rio Grande City,87.59,185.97,108.86,185.97,480.81,Single-ply,SBD,M
Boys,89.81,8,Edgar Castillo,McAllen Rowe,85.73,174.63,102.06,181.44,458.13,Single-ply,SBD,M
Boys,89.81,9,Joe Ramos,Rio Grande City Grulla,86.55,174.63,108.86,158.76,442.25,Single-ply,SBD,M
Boys,89.81,DQ,Serrando Marroquin,PSJA North,86.27,,,,,Single-ply,SBD,M
Boys,99.79,1,Lazaro Bernabe,Hidalgo Early College,98.88,249.48,127.01,215.46,591.94,Single-ply,SBD,M
Boys,99.79,2,Rey Hernandez,La Joya,94.39,229.06,156.49,204.12,589.67,Single-ply,SBD,M
Boys,99.79,3,Issac Aleman,Hidalgo Early College,90.49,219.99,129.27,222.26,571.53,Single-ply,SBD,M
Boys,99.79,4,Eddie Hernandez,La Joya Juarez-Lincoln,92.17,226.8,136.08,201.85,564.72,Single-ply,SBD,M
Boys,99.79,5,Omar Lopez,PSJA North,95.66,199.58,133.81,188.24,521.63,Single-ply,SBD,M
Boys,99.79,6,Eddie Garza,Rio Grande City,99.11,176.9,122.47,192.78,492.15,Single-ply,SBD,M
Boys,99.79,DQ,Emmanuel Mendez,PSJA North,95.16,195.04,115.67,,,Single-ply,SBD,M
Boys,99.79,DQ,Joel Moreno,Mission Sharyland,91.17,206.38,,,,Single-ply,SBD,M
Boys,99.79,DQ,Noah Cisernos,McAllen Memorial,99.29,226.8,147.42,,,Single-ply,SBD,M
Boys,99.79,DQ,Daniel Villarreal,La Joya,90.81,,,,,Single-ply,SBD,M
Boys,109.77,1,Sam Rodriguez,La Joya,109,288.03,165.56,231.33,684.92,Single-ply,SBD,M
Boys,109.77,2,Aliver Chapa,La Joya Juarez-Lincoln,107.37,233.6,156.49,219.99,610.08,Single-ply,SBD,M
Boys,109.77,3,Gilbert Romero,La Joya Juarez-Lincoln,103.06,238.14,145.15,206.38,589.67,Single-ply,SBD,M
Boys,109.77,4,Jarome Torres,McAllen Memorial,108.36,231.33,151.95,195.04,578.33,Single-ply,SBD,M
Boys,109.77,5,Anthony Zapata,Sharyland Pioneer,109.77,238.14,124.74,190.51,553.38,Single-ply,SBD,M
Boys,109.77,6,Lou Gomez,Mission,108.41,183.7,124.74,179.17,487.61,Single-ply,SBD,M
Boys,109.77,7,Andrew Lopez,Rio Grande City Grulla,109.77,174.63,127.01,179.17,480.81,Single-ply,SBD,M
Boys,109.77,8,Roberto Barba,La Joya Palmview,107.59,204.12,106.59,158.76,469.47,Single-ply,SBD,M
Boys,109.77,9,Celeb Longoria,Rio Grande City,101.92,174.63,108.86,183.7,467.2,Single-ply,SBD,M
Boys,109.77,10,Norberto Salinas,McAllen Rowe,102.65,142.88,122.47,170.1,435.45,Single-ply,SBD,M
Boys,109.77,11,Luis Garcia #6,Rio Grande City Grulla,108.77,163.29,102.06,167.83,433.18,Single-ply,SBD,M
Boys,109.77,12,Juan Martinez,La Joya Juarez-Lincoln,108.68,142.88,124.74,163.29,430.91,Single-ply,SBD,M
Boys,109.77,13,Donavan Rodriguez,Mission Veterans Memorial,105.19,129.27,83.91,151.95,365.14,Single-ply,SBD,M
Boys,109.77,DQ,Axel Hernandez #2,Mission Veterans Memorial,106.78,,,,,Single-ply,SBD,M
Boys,109.77,DQ,Jarek Gonzalez,Hidalgo Early College,106.64,235.87,120.2,,,Single-ply,SBD,M
Boys,109.77,DQ,Miguel Salazar,Rio Grande City Grulla,107.73,213.19,,,,Single-ply,SBD,M
Boys,124.74,1,Jesus Proa,La Joya Juarez-Lincoln,118.75,254.01,170.1,226.8,650.91,Single-ply,SBD,M
Boys,124.74,2,Luis Salinas,Rio Grande City,119.48,210.92,149.69,233.6,594.21,Single-ply,SBD,M
Boys,124.74,3,Josh Williams,Mission Sharyland,114.49,210.92,138.35,224.53,573.79,Single-ply,SBD,M
Boys,124.74,4,Robert Perez,Weslaco,122.97,226.8,136.08,199.58,562.45,Single-ply,SBD,M
Boys,124.74,5,Fernando Robles,Rio Grande City,110.36,208.65,117.93,233.6,560.19,Single-ply,SBD,M
Boys,124.74,6,Ramon Sánchez,Hidalgo Early College,116.21,222.26,108.86,204.12,535.24,Single-ply,SBD,M
Boys,124.74,7,Juan Rivas,La Joya Palmview,112.04,208.65,108.86,213.19,530.7,Single-ply,SBD,M
Boys,124.74,8,Eduardo Lopez,Rio Grande City Grulla,114.4,170.1,120.2,192.78,483.08,Single-ply,SBD,M
Boys,124.74,9,Damien Gomez,Mission Veterans Memorial,124.74,156.49,83.91,179.17,419.57,Single-ply,SBD,M
Boys,124.74,10,Esau Guerra,Rio Grande City Grulla,114.44,156.49,95.25,156.49,408.23,Single-ply,SBD,M
Boys,124.74,11,Adrian Mata,Mission Veterans Memorial,112.81,149.69,83.91,147.42,381.02,Single-ply,SBD,M
Boys,124.74,DQ,Geraldo Lopez,McAllen,122.15,210.92,145.15,,,Single-ply,SBD,M
Boys,124.74+,1,Arturo Ochoa,McAllen,127.96,219.99,154.22,210.92,585.13,Single-ply,SBD,M
Boys,124.74+,2,Joseph Guerra,McAllen,141.29,229.06,142.88,199.58,571.53,Single-ply,SBD,M
Boys,124.74+,3,Alex Rodriguez #2,La Joya,139.8,226.8,117.93,204.12,548.85,Single-ply,SBD,M
Boys,124.74+,4,Moises Morales,La Joya Palmview,128.5,201.85,113.4,219.99,535.24,Single-ply,SBD,M
Boys,124.74+,5,Marco Rangel,La Joya Palmview,156.85,199.58,127.01,185.97,512.56,Single-ply,SBD,M
Boys,124.74+,6,Jacob Mata,McAllen Rowe,137.35,102.06,83.91,124.74,310.71,Single-ply,SBD,M
Boys,124.74+,DQ,Zachary Heltler,McAllen,147.15,190.51,,,,Single-ply,SBD,M
