Name,BirthDate,Age,Sex,Equipment,Division,BodyweightKg,WeightClassKg,Squat1Kg,Squat2Kg,Squat3Kg,Best3SquatKg,Bench1Kg,Bench2Kg,Bench3Kg,Best3BenchKg,Deadlift1Kg,Deadlift2Kg,Deadlift3Kg,Best3DeadliftKg,TotalKg,Place,Event
Janet Marandola,2000-09-20,23,F,Raw,TJ20-23,68.7,75,87.5,97.5,105,105,57.5,62.5,65,65,-115,-115,115,115,285,1,SBD
Aimee Freer-Rich,1981-07-12,43,F,Raw,TOpen,99.8,100,147.5,157.5,-162.5,157.5,77.5,85,87.5,87.5,170,187.5,-192.5,187.5,432.5,1,SBD
Tanvi Tanvi,1999-06-17,25,F,Raw,TOpen,91.6,100,-100,100,110,110,45,50,-55,50,100,-105,-105,100,260,2,SBD
Gemma Barranca,1981-12-14,42,F,Raw,M40-44,69.5,75,72.5,85,92.5,92.5,45,52.5,57.5,57.5,102.5,115,127.5,127.5,277.5,1,SBD
Sam Walcott,1993-06-14,31,F,Raw,Open,86.8,90,145,155,170,170,95,102.5,112.5,112.5,192.5,203,215,215,497.5,1,SBD
Fatema Dhoondia,1989-02-19,35,F,Wraps,TOpen,49.1,52,-120,120,130,130,50,-57.5,-60,50,140,145,-150,145,325,1,SBD
Fatema Dhoondia,1989-02-19,35,F,Wraps,TS35-39,49.1,52,-120,120,130,130,50,-57.5,-60,50,140,145,-150,145,325,1,SBD
Lorenzo San Juan,2004-09-05,20,M,Raw,TJ20-23,81.4,82.5,120,135,150,150,97.5,105,110,110,140,155,165,165,425,1,SBD
Sukhjeet Singh,2003-11-16,20,M,Raw,TJ20-23,85.5,90,130,145,-157.5,145,100,110,117.5,117.5,150,165,175,175,437.5,1,SBD
Prem Singh,2001-10-01,22,M,Raw,TJ20-23,99.2,100,200,210,-220,210,115,120,-125,120,240,255,265,265,595,1,SBD
Granville Mayers,1974-07-14,50,M,Raw,TM50-54,107.3,110,205,225,232.5,232.5,165,175,-183,175,272.5,287.5,300,300,707.5,1,SBD
Kristos Vagenas,1997-04-28,27,M,Raw,TOpen,68.1,75,245,257.5,267.5,267.5,132.5,137.5,140,140,227.5,240,242.5,242.5,650,1,SBD
Lahiru Atapattu,1998-09-16,25,M,Raw,TOpen,74.2,75,150,157.5,165,165,72.5,80,90,90,195,202.5,212.5,212.5,467.5,2,SBD
Kamaldeep Singh Boparai,1996-02-24,28,M,Raw,TOpen,81.8,82.5,200,212.5,220,220,140,147.5,-150,147.5,210,225,-232.5,225,592.5,1,SBD
Jasbir Singh,2000-08-05,24,M,Raw,TOpen,81.5,82.5,197.5,205,-212.5,205,115,125,-132.5,125,-245,-265,-265,,,DQ,SBD
Bhavneet Singh,1990-08-10,34,M,Raw,TOpen,99.4,100,120,130,140,140,100,105,-107.5,105,-175,185,-195,185,430,1,SBD
Granville Mayers,1974-07-14,50,M,Raw,TOpen,107.3,110,205,225,232.5,232.5,165,175,-183,175,272.5,287.5,300,300,707.5,1,SBD
Jagmeet Singh,1998-02-21,26,M,Raw,TOpen,107.7,110,182.5,190,197.5,197.5,137.5,142.5,147.5,147.5,192.5,-205,212.5,212.5,557.5,2,SBD
Matthew Siddon,1991-08-11,33,M,Raw,TOpen,124.4,125,167.5,182.5,192.5,192.5,75,82.5,-87.5,82.5,217.5,237.5,-252.5,237.5,512.5,1,SBD
Harshpreet Singh,2004-01-10,20,M,Raw,J20-23,93.5,100,160,175,-190,175,110,125,130,130,185,210,220,220,525,1,SBD
Tim Walcott,1991-09-12,32,M,Raw,Open,84.7,90,147.5,162.5,175,175,130,137.5,-145,137.5,210,227.5,240,240,552.5,1,SBD
Gurpreet Singh,1990-11-28,33,M,Raw,Open,98.6,100,230,240,250,250,150,-160,170,170,240,255,270,270,690,1,SBD
Amandeep Chahal,1974-08-05,50,M,Raw,TM50-54,98.5,100,,,,,137.5,-145,-145,137.5,,,,,137.5,1,B
Kamaldeep Singh Boparai,1996-02-24,28,M,Raw,TOpen,81.8,82.5,,,,,140,147.5,-150,147.5,,,,,147.5,1,B
Karnvir Virdi,1998-12-10,25,M,Raw,TOpen,72.1,75,,,,,-107.5,110,122.5,122.5,-190,215,240,240,362.5,1,BD
Prem Singh,2001-10-01,22,M,Raw,TJ20-23,99.2,100,,,,,,,,,240,255,265,265,265,1,D
Jasbir Singh,2000-08-05,24,M,Raw,TOpen,81.5,82.5,,,,,,,,,-245,-265,-265,,,DQ,D
